{
  "flightInfo": {
    "flightCarrierCode": "SQ",
    "flightNumber": "032",
    "flightDate": "21-Mar-17",
    "creationDate": "10-Jan-2017",
    "flightSectorInfo": {
      "departureAirportCode": "SIN",
      "arrivalAirportCode": "SFO",
      "departureCityName": "Singapore",
      "arrivalCityName": "San Francisco",
      "cabinClassInfo": {
        "cabinClassCode": "JCL",
        "menuInfo": {
          "menuCategory": "F",
          "mealInfo":
		  [
		  {
            "mealServiceCode": "ALJ",
            "mealServiceName": "A la carte Dining",
            "selectionDetails": [
              {
                "selectionName": "After Take-off",
                "selectionDescription": "After Take-off",
                "itemCategoryInfo": [
                  {
                    "itemCategory": "Starter",
                    "itemInfo": [
                      {
                        "itemMenuScriptHeader": "Parma Ham and vegatable Antipasto",
                        "itemMenuScriptwriteup": "Cured ham with marinated artichokes and mushroom served with tete de moine cheese",
                        "specialityInfo": {}
                      },
                      {
                        "itemMenuScriptHeader": "Smoked Ocean Trout and Shaved Fennel Salad",
                        "itemMenuScriptwriteup": "With red onions and orange segments",
                        "specialityInfo": {
                          "specialityFootNote": "A dish exclusively created by our International Culinary Panel chef",
                          "dishIconId": "ICP"
                        }
                      },
                      {
                        "itemMenuScriptHeader": "Cream of Mushroom Soup",
                        "itemMenuScriptwriteup": "With garlic bread",
                        "specialityInfo": {
                          "specialityFootNote": "Specially prepared vegetarian choice",
                          "dishIconId": "VGT"
                        }
                      }
                    ]
                  },
                  {
                    "itemCategory": "Main Course",
                    "itemInfo": [
                      {
                        "itemMenuScriptHeader": "Warm Prawn Ciabatta and Garlic Parsley-Roasted Potatoes",
                        "itemMenuScriptwriteup": "Sweet chilli prawns in onion bread served with green salad",
                        "specialityInfo": {}
                      },
                      {
                        "itemMenuScriptHeader": "Baked Rigatoni with Minced Lamb and Broccoli",
                        "itemMenuScriptwriteup": "Olive tomato sauce served with mixed salad and parmesan shavings",
                        "specialityInfo": {}
                      },
                      {
                        "itemMenuScriptHeader": "Seared Kurobuta Pork Loin in Bourbon Sauce",
                        "itemMenuScriptwriteup": "Sauteed carrots, spinach and turnips with cheddar cheese polenta cake",
                        "specialityInfo": {
                          "specialityFootNote": "A dish exclusively created by our International Culinary Panel chef",
                          "dishIconId": "ICP"
                        }
                      },
                      {
                        "itemMenuScriptHeader": "Chicken and Lamb Satay",
                        "itemMenuScriptwriteup": "Served with ketupat rice, onion, cucumber and spicy peanut sauce",
                        "specialityInfo": {
                          "specialityFootNote": "A popular local fare dish",
                          "dishIconId": "PLF"
                        }
                      },
                      {
                        "itemMenuScriptHeader": "Angus Beef Steak",
                        "itemMenuScriptwriteup": "Grilled U.S. Angus beef filet with rosemary jus and seared asparagus, braised radicchio, potatoes and artichokes",
                        "specialityInfo": {}
                      },
                      {
                        "itemMenuScriptHeader": "Soya Sauce Chicken Rice",
                        "itemMenuScriptwriteup": "With black mushrooms, Chinese greens and fragrant rice",
                        "specialityInfo": {}
                      },
                      {
                        "itemMenuScriptHeader": "Barley and Porcini Salad",
                        "itemMenuScriptwriteup": "With roasted red radicchio and poached egg in almond and orange vinaigrette, with your choice of:",
                        "specialityInfo": {
                          "specialityFootNote": "A 'Deliciously Wholesome' choice",
                          "dishIconId": "WHS"
                        }
                      },
                      {
                        "itemMenuScriptwriteup": "- Smoked salmon trout, or",
                        "specialityInfo": {}
                      },
                      {
                        "itemMenuScriptwriteup": "- Cheddar polenta cake",
                        "specialityInfo": {
                          "specialityFootNote": "Specially prepared vegetarian choice",
                          "dishIconId": "VGT"
                        }
                      }
                    ]
                  },
                  {
                    "itemCategory": "Dessert",
                    "itemInfo": [
                      {
                        "itemMenuScriptHeader": "Chocolate Palet",
                        "itemMenuScriptwriteup": "Layered sacher sponge cake with salted chocolate cream and chocolate dacquoise",
                        "specialityInfo": {
                          "specialityFootNote": "A dish exclusively created by our International Culinary Panel chef",
                          "dishIconId": "ICP"
                        }
                      },
                      {
                        "itemMenuScriptHeader": "Petite Patisserie",
                        "itemMenuScriptwriteup": "Assortment of mini desserts",
                        "specialityInfo": {}
                      },
                      {
                        "itemMenuScriptHeader": "Selection of fresh fruits and cheeses to complete your meal",
                        "specialityInfo": {}
                      },
                      {
                        "itemMenuScriptHeader": "Gourmet pralines with your choice of hot beverage",
                        "specialityInfo": {}
                      }
                    ]
                  }
                ]
              },
              {
                "selectionName": "All Day Breakfast",
                "selectionDescription": "All Day Breakfast",
                "itemCategoryInfo": {
                  "itemCategory": "Main Course",
                  "itemInfo": [
                    {
                      "itemMenuScriptHeader": "Classic American",
                      "itemMenuScriptwriteup": "Baked crepe with chive scrambled eggs, chicken sausage, baked beans, roasted potatoes and artichokes accompanied with freshly squeezed orange juice, fresh fruits, yoghurt and bakery",
                      "specialityInfo": {}
                    },
                    {
                      "itemMenuScriptHeader": "Oriental",
                      "itemMenuScriptwriteup": "Pan-fried radish cake, prawn siew mai, fried chicken chives dumpling, scallop dumpling and barbeque pork puff pastry served with fresh fruits, yogurt and bakery. Accompanied with Chinese tea",
                      "specialityInfo": {}
                    },
                    {
                      "itemMenuScriptHeader": "Wholesome",
                      "itemMenuScriptwriteup": "Poached egg with buttermilk and chia seeds pancakes, Sauteed spinach, low-fat cottage cheese and almond accompanied with fresh fruits, super juice, wholegrain cereals and bakery",
                      "specialityInfo": {
                        "specialityFootNote": "A 'Deliciously Wholesome' choice",
                        "dishIconId": "WHS"
                      }
                    },
                    {
                      "itemMenuScriptHeader": "Continental Breakfast(Served up to 1.5 hrs before arrival)",
                      "itemMenuScriptwriteup": "Cold breakfast plate,yoghurt, fresh fruits,freshly squeezed orange juice and bakery",
                      "specialityInfo": {}
                    }
                  ]
                }
              }
            ]
          },
		  {
            "mealServiceCode": "MNB",
            "mealServiceName": "Mid Flight noodle bar",
            "selectionDetails": [
              {
                "selectionName": "Mid Flight noodle bar",
                "itemCategoryInfo": {
                  "itemCategory": "Main Course",
                  "itemInfo": [
                    {
                      "itemMenuScriptHeader": "A selection of bee hoon, kway teow or egg noodles with the choice of:",
                      "itemMenuScriptwriteup": "-Fish balls and minced chicken, or",
                      "specialityInfo": {}
                    },
                    {
                      "itemMenuScriptwriteup": "-Chicken slices and shiitake mushrooms",
                      "specialityInfo": {}
                    },
                    {
                      "itemMenuScriptwriteup": "-Prawns and leafy greens",
                      "specialityInfo": {}
                    },
                    {
                      "itemMenuScriptwriteup": "-Lettuce and black mushrooms",
                      "specialityInfo": {
                        "specialityFootNote": "Specially prepared vegetarian choice",
                        "dishIconId": "VGT"
                      }
                    }
                  ]
                }
              }
            ]
          }
		  ]
        }
      }
    }
  }
}
