{
  "excessBaggage": [
    {
      "id": 1,
      "paxName": "Prentice Mathew",
      "paxType": "ADT",
      "segmentDetails": [
        {
          "flightNo": "SQ528",
          "fromCityName": "Singapore",
          "from": "SIN",
          "toCityName": "San Francisco",
          "to": "SFO",
          "segmentID": 1,
          "eligible": "true",
          "baggageDetails": [
            {
              "baggageType": "Free",
              "name": "1 piece (23kg each)"
            },
            {
              "baggageType": "Additional weight",
              "name": "22kg, Oversized"
            }
          ]
        },
        {
          "flightNo": "SQ307",
          "fromCityName": "San Francisco",
          "from": "SFO",
          "toCityName": "Singapore",
          "to": "SIN",
          "segmentID": 2,
          "eligible": "false",
          "baggageDetails": [
          ]
        }
      ]
    },
    {
      "id": 1,
      "paxName": "Dongni Guo",
      "paxType": "INF",
      "segmentDetails": [
        {
          "flightNo": "SQ528",
          "from": "SIN",
          "fromCityName": "Singapore",
          "to": "SFO",
          "toCityName": "San Francisco",
          "segmentID": 1,
          "eligible": "false",
          "baggageDetails": [
            {
              "baggageType": "Free",
              "name": "1 piece (23kg each)"
            },
            {
              "baggageType": "Additional weight",
              "name": "22kg, Oversized"
            }
          ]
        },
        {
          "flightNo": "SQ307",
          "fromCityName": "San Francisco",
          "from": "SFO",
          "toCityName": "Singapore",
          "to": "SIN",
          "segmentID": 2,
          "eligible": "true",
          "baggageDetails": [
          ]
        }
      ]
    }
  ]
}
