{
  "fareFamilyCondition": [
    {
      "isAllowed": false,
      "description": "FF41SIN"
    }
  ],
  "fareAvailablityVO": {
    "messages": {
      "O1FF41SIN": " ",
      "R1FF41SIN": " ",
      "O3FF41SIN": " ",
      "O1FF21SIN": " ",
      "O0FF21SIN": " ",
      "O3FF31SIN": " ",
      "O2FF21SIN": " ",
      "O0FF31SIN": " ",
      "R1FF31SIN": " ",
      "O3FF21SIN": " ",
      "R2FF21SIN": " ",
      "R0FF41SIN": " ",
      "O2FF31SIN": " ",
      "O3FF11SIN": " ",
      "R3FF41SIN": " ",
      "O1FF31SIN": " ",
      "O0FF41SIN": " ",
      "R3FF21SIN": " ",
      "O2FF11SIN": " ",
      "R2FF31SIN": " ",
      "R0FF31SIN": " ",
      "R1FF11SIN": " ",
      "R1FF21SIN": " ",
      "R0FF21SIN": " ",
      "R2FF41SIN": " ",
      "R0FF11SIN": " ",
      "R3FF31SIN": " ",
      "R2FF11SIN": " ",
      "O2FF41SIN": " "
    },
    "packageVO": {
      "type": "CIB",
      "currencyCode": "SGD",
      "fare": 980,
      "tax": 267.7,
      "surcharge": 448.6,
      "total": 1696.3
    },
    "defaults": [
      "O0FF41SIN",
      "R1FF41SIN"
    ]
  },
  "bookingSummary": {
    "locale": "en_UK",
    "adultCount": 1,
    "childCount": 0,
    "infantCount": 0,
    "precision": 2,
    "currency": "SGD",
    "fareTotal": 980,
    "taxTotal": 267.7,
    "surchargeTotal": 448.6,
    "creditCardSurcharge": 0,
    "totalCCSurchargeAmount": 0,
    "fareSubTotal": 1696.3,
    "grandTotal": 1696.3,
    "costPayableByCash": 25,
    "costPayableByMiles": 0,
    "milesAllocated": 0,
    "totalMilesForORB": 0,
    "addonSubTotal": 0,
    "orbQSurchargeTotal": 0,
    "rebookingFee": 0,
    "totalToBePaidCash": 0,
    "totalToBePaidMiles": 0,
    "cashToBeRefunded": 0,
    "milesToBeRefunded": 0,
    "expiredMilesCancel": 0,
    "noShowFee": 0,
    "flight": [
      {
        "totalTravelTime": "14hrs 10mins",
        "origin": "Singapore",
        "destination": "London",
        "originAirportCode": "SIN",
        "destinationAirportCode": "LHR",
        "flightSegments": [
          {
            "carrierCode": "SQ",
            "operatingCarrier": "NA",
            "carrierName": "Singapore Airlines",
            "airCraftType": "Airbus Industrie A380-800",
            "flightNumber": "308",
            "cabinClassDesc": "Economy (N)",
            "deparure": {
              "time": "09:10",
              "date": "18 Nov (Fri)",
              "airportCode": "SIN",
              "airportName": "Changi Intl",
              "cityCode": "SIN",
              "cityName": "Singapore",
              "terminal": "3"
            },
            "arrival": {
              "time": "15:20",
              "date": "18 Nov (Fri)",
              "airportCode": "LHR",
              "airportName": "Heathrow",
              "cityCode": "LON",
              "cityName": "London",
              "terminal": "2"
            },
            "aircraftTypeCode": "388"
          }
        ],
        "isMixedCabinClass": false
      },
      {
        "totalTravelTime": "12hrs 55mins",
        "origin": "London",
        "destination": "Singapore",
        "originAirportCode": "LHR",
        "destinationAirportCode": "SIN",
        "flightSegments": [
          {
            "carrierCode": "SQ",
            "operatingCarrier": "NA",
            "carrierName": "Singapore Airlines",
            "airCraftType": "Boeing 777-300ER",
            "flightNumber": "305",
            "cabinClassDesc": "Economy (N)",
            "deparure": {
              "time": "09:15",
              "date": "25 Nov (Fri)",
              "airportCode": "LHR",
              "airportName": "Heathrow",
              "cityCode": "LON",
              "cityName": "London",
              "terminal": "2"
            },
            "arrival": {
              "time": "06:10",
              "date": "26 Nov (Sat)",
              "airportCode": "SIN",
              "airportName": "Changi Intl",
              "cityCode": "SIN",
              "cityName": "Singapore",
              "terminal": ""
            },
            "aircraftTypeCode": "77W"
          }
        ],
        "isMixedCabinClass": false
      }
    ],
    "paxDetails": [
      {
        "paxType": "Adult",
        "id": 0,
        "paxName": "Adult 1",
        "fareDetails": {
          "totalCost": 1696.3,
          "totalMiles": 0,
          "fareAmount": 980,
          "taxAmount": 267.7,
          "surchargeAmount": 448.6,
          "qSurchargeAmount": 0,
          "othersAmount": 0,
          "surcharge": [
            {
              "amount": 14.4,
              "code": "YQAD",
              "description": "Airline Insurance"
            },
            {
              "amount": 434.2,
              "code": "YQAC",
              "description": "Airline Fuel Surcharge"
            }
          ],
          "taxes": [
            {
              "amount": 84.9,
              "code": "UB",
              "description": "Passenger Service Charge - (Domestic/International)"
            },
            {
              "amount": 148.8,
              "code": "GB",
              "description": "Air Passenger Duty (APD) (Domestic/International)"
            },
            {
              "amount": 8,
              "code": "OO",
              "description": "Passenger Security Service Charge"
            },
            {
              "amount": 6.1,
              "code": "OP",
              "description": "Aviation Levy"
            },
            {
              "amount": 19.9,
              "code": "SG",
              "description": "Passenger Service and Security Charge"
            }
          ]
        },
        "detailsPerFlight": [
          {
            "flightNo": "SQ308",
            "from": "SIN",
            "to": "LON",
            "departureDate": "Fri Nov 18 09:10:00 SGT 2016",
            "id": "0",
            "originAirportCode": "SIN",
            "destinationAirportCode": "LHR"
          },
          {
            "flightNo": "SQ305",
            "from": "LON",
            "to": "SIN",
            "departureDate": "Fri Nov 25 09:15:00 SGT 2016",
            "id": "0",
            "originAirportCode": "LHR",
            "destinationAirportCode": "SIN"
          }
        ]
      }
    ],
    "cancellationFeeCash": 0,
    "cancellationFeeMiles": 0,
    "othersTotal": 0
  },
  "errorMessage": "ELIGIBLE",
  "odSpecificMessages": [],
  "tttVO": {
    "tttEligible": true,
    "tttFare" : 25.00,
    "tttCurrency" : "SGD",
    "tttExpiry": "Fri Nov 18 09:10:00 SGT 2016"
  }
}