{
	"isLast": false,
	"pageId": 2,
	"seemoreLabel": "SEE MORE",
	"result":	"<article class=\"promotion-item promotion-item--2\">\r\n  <div class=\"promotion-item__inner\"><a href=\"promotions-fares-details.html\" class=\"flight-item\"><img src=\"images\/destination-1.jpg\" alt=\"Ho Chi Minh City\" longdesc=\"img-desc.html\">\r\n      <div class=\"flight-item__vignette\">&nbsp;<\/div>\r\n      <table class=\"destination-info\">\r\n        <tbody><tr>\r\n          <td>\r\n            <p class=\"name-city\">Ho Chi Minh City<\/p>\r\n          <\/td>\r\n          <td class=\"class-flight\"><span>Economy<\/span><\/td>\r\n        <\/tr>\r\n      <\/tbody><\/table><\/a>\r\n    <div class=\"destination-list\">\r\n      <ul>\r\n        <li><a href=\"#\">\r\n            <p class=\"destination-list__text\">90 days before travel<\/p>\r\n            <p class=\"destination-list__name\">SGD 188<sup>*<\/sup><\/p><em class=\"ico-point-r\">&nbsp;<\/em><\/a><\/li>\r\n        <li><a href=\"#\">\r\n            <p class=\"destination-list__text\">90 days before travel<\/p>\r\n            <p class=\"destination-list__name\">SGD 198<sup>*<\/sup><\/p><em class=\"ico-point-r\">&nbsp;<\/em><\/a><\/li>\r\n        <li><a href=\"#\">\r\n            <p class=\"destination-list__text\">60 days before travel<\/p>\r\n            <p class=\"destination-list__name\">SGD 238<sup>*<\/sup><\/p><em class=\"ico-point-r\">&nbsp;<\/em><\/a><\/li>\r\n        <li><a href=\"#\">\r\n            <p class=\"destination-list__text\">30 days before travel<\/p>\r\n            <p class=\"destination-list__name\">SGD 338<sup>*<\/sup><\/p><em class=\"ico-point-r\">&nbsp;<\/em><\/a><\/li>\r\n      <\/ul>\r\n    <\/div>\r\n  <\/div>\r\n<\/article>\r\n<article class=\"promotion-item promotion-item--2\">\r\n  <div class=\"promotion-item__inner\"><a href=\"promotions-fares-details.html\" class=\"flight-item\"><img src=\"images\/destination-2.jpg\" alt=\"Surabaya\" longdesc=\"img-desc.html\">\r\n      <div class=\"flight-item__vignette\">&nbsp;<\/div>\r\n      <table class=\"destination-info\">\r\n        <tbody><tr>\r\n          <td>\r\n            <p class=\"name-city\">Surabaya<\/p>\r\n          <\/td>\r\n          <td class=\"class-flight\"><span>Economy<\/span><\/td>\r\n        <\/tr>\r\n      <\/tbody><\/table><\/a>\r\n    <div class=\"destination-list\">\r\n      <ul>\r\n        <li><a href=\"#\">\r\n            <p class=\"destination-list__text\">90 days before travel<\/p>\r\n            <p class=\"destination-list__name\">SGD 188<sup>*<\/sup><\/p><em class=\"ico-point-r\">&nbsp;<\/em><\/a><\/li>\r\n        <li><a href=\"#\">\r\n            <p class=\"destination-list__text\">60 days before travel<\/p>\r\n            <p class=\"destination-list__name\">SGD 198<sup>*<\/sup><\/p><em class=\"ico-point-r\">&nbsp;<\/em><\/a><\/li>\r\n        <li><a href=\"#\">\r\n            <p class=\"destination-list__text\">30 days before travel<\/p>\r\n            <p class=\"destination-list__name\">SGD 238<sup>*<\/sup><\/p><em class=\"ico-point-r\">&nbsp;<\/em><\/a><\/li>\r\n      <\/ul>\r\n    <\/div>\r\n  <\/div>\r\n<\/article>\r\n<article class=\"promotion-item promotion-item--2\">\r\n  <div class=\"promotion-item__inner\"><a href=\"promotions-fares-details.html\" class=\"flight-item\"><img src=\"images\/destination-3.jpg\" alt=\"Jakarta\" longdesc=\"img-desc.html\">\r\n      <div class=\"flight-item__vignette\">&nbsp;<\/div>\r\n      <table class=\"destination-info\">\r\n        <tbody><tr>\r\n          <td>\r\n            <p class=\"name-city\">Jakarta<\/p>\r\n          <\/td>\r\n          <td class=\"class-flight\"><span>Economy<\/span><\/td>\r\n        <\/tr>\r\n      <\/tbody><\/table><\/a>\r\n    <div class=\"destination-list\">\r\n      <ul>\r\n        <li><a href=\"#\">\r\n            <p class=\"destination-list__text\">90 days before travel<\/p>\r\n            <p class=\"destination-list__name\">SGD 188<sup>*<\/sup><\/p><em class=\"ico-point-r\">&nbsp;<\/em><\/a><\/li>\r\n        <li><a href=\"#\">\r\n            <p class=\"destination-list__text\">90 days before travel<\/p>\r\n            <p class=\"destination-list__name\">SGD 198<sup>*<\/sup><\/p><em class=\"ico-point-r\">&nbsp;<\/em><\/a><\/li>\r\n        <li><a href=\"#\">\r\n            <p class=\"destination-list__text\">60 days before travel<\/p>\r\n            <p class=\"destination-list__name\">SGD 238<sup>*<\/sup><\/p><em class=\"ico-point-r\">&nbsp;<\/em><\/a><\/li>\r\n        <li><a href=\"#\">\r\n            <p class=\"destination-list__text\">30 days before travel<\/p>\r\n            <p class=\"destination-list__name\">SGD 338<sup>*<\/sup><\/p><em class=\"ico-point-r\">&nbsp;<\/em><\/a><\/li>\r\n      <\/ul>\r\n    <\/div>\r\n  <\/div>\r\n<\/article>"
}
