{
  "title": "Mr",
  "firstName": "Test",
  "lastName": "Tan",
  "paxType": "Adult",
  "gender": "M",
  "kfNumber": "8237416666",
  "dob": "Jun 4, 1954 12:00:00 AM",
  "passportNumber": "B123asd1",
  "passportExpiryDate": "Sep 4, 2032 12:00:00 AM",
  "nationality": "SG",
  "countryOfResidence": "SG",
  "email": "test@test.com",
  "phoneNumber": {
    "countryCode": "65",
    "phoneNumber": "8123778"
  },
  "offpList": [
    {
      "programCode": "Lufthansa - Miles & More",
      "number": "313131"
    }
  ],
  "nomineeList": [
    {
      "title": "Mr",
      "firstName": "Tee",
      "lastName": "tan",
      "paxType": "Adult",
      "gender": "M",
      "kfNumber": "8420010818",
      "dob": "Jun 4, 1932 12:00:00 AM",
      "passportNumber": "A1231231",
      "passportExpiryDate": "Sep 4, 2032 12:00:00 AM",
      "passportCountryOfIssuance": "SG"
    },
    {
      "title": "Ms",
      "firstName": "SweeTeeWendy",
      "lastName": "tan",
      "paxType": "Adult",
      "gender": "F",
      "dob": "Jun 4, 1932 12:00:00 AM",
      "passportNumber": "A1231231",
      "passportExpiryDate": "Sep 4, 2032 12:00:00 AM",
      "passportCountryOfIssuance": "SG"
    },
    {
      "title": "Mstr",
      "firstName": "test",
      "lastName": "tan",
      "paxType": "Child",
      "gender": "M",
      "dob": "Jun 4, 2011 12:00:00 AM",
      "passportNumber": "A1231231",
      "passportExpiryDate": "Sep 4, 2032 12:00:00 AM",
      "passportCountryOfIssuance": "SG"
    }
  ]
}
