{
  "errorVO": {
    "errocode": "Failure",
    "errodesc": "We are unable to process your request"
  },
  "MealVO": {
    "passengerStartingPoint": 1,
    "passengerAndMealAssociationVO": [
      {
        "passengerName": "Prentice Mathew",
        "passengerId": 1,
        "passengerType": "ADT",
        "flightDateInformationVO": [
          {
            "departureDate": "2015-12-03",
            "departureTime": "01:15:00",
            "departureCityCode": "SIN",
            "arrivalCityName": "San Francisco",
            "marketingAirlineCode": "SQ",
            "flightNumber": "0306",
            "classOfService": "J",
            "isMealselected": "true",
            "eligible": "true",
            "segmentID": 1,
            "SectorMealSelectedInfo": [
              {
                "origin": "SIN",
                "destination": "ICN",
                "departureDate": "2015-12-03",
                "departureTime": "01:15:00",
                "type": "Dinner",
                "mealServiceCode": "DINR",
                "categoryName": "Book The Cook",
                "mealCategoryCode": "BC",
                "Name": "BAKED KING PRAWN",
                "iataMealCode": "SPML"
              },
              {
                "type": "Supper",
                "origin": "SIN",
                "destination": "ICN",
                "departureDate": "2015-12-03",
                "departureTime": "01:15:00",
                "mealServiceCode": "SUPR",
                "categoryName": "Book The Cook",
                "mealCategoryCode": "BC",
                "Name": "CAJUN SPICED CHICKEN SALAD",
                "iataMealCode": "SPML"
              },
              {
                "type": "Breakfast",
                "origin": "ICN",
                "destination": "SFO",
                "departureDate": "2015-12-04",
                "departureTime": "01:15:00",
                "mealServiceCode": "BREK",
                "categoryName": "Book The Cook",
                "mealCategoryCode": "BC",
                "Name": "CHILEAN BASS AND KALAMATA OLIVE POTATO",
                "iataMealCode": "SPML"
              }
            ]
          },
          {
            "departureDate": "2013-12-04",
            "departureTime": "01:15:00",
            "departureCityCode": "SFO",
            "arrivalCityCode": "SIN",
            "marketingAirlineCode": "SQ",
            "flightNumber": "0308",
            "classOfService": "Y",
            "isMealselected": "false",
            "eligible": "true",
            "segmentID": 2,
            "SectorMealSelectedInfo": [
              {
                "origin": "SFO",
                "destination": "SIN",
                "departureDate": "2015-12-03",
                "departureTime": "01:15:00",
                "type": "DINNER/BREAKFAST",
                "mealServiceCode": "DINR/BREK",
                "categoryName": "Others",
                "mealCategoryCode": "OT",
                "Name": "SEAFOOD MEAL",
                "iataMealCode": "SFML"
              },
              {
                "origin": "SFO",
                "destination": "SIN",
                "departureDate": "2015-12-03",
                "departureTime": "01:15:00",
                "type": "CAKES",
                "mealServiceCode": "CK",
                "categoryName": "Cake",
                "mealCategoryCode": "CK",
                "Name": "Anniversary Cake",
                "iataMealCode": ""
              }
            ]
          }
        ]
      },
      {
        "passengerName": "Dongni Guo",
        "passengerId": 1,
        "passengerType": "INF",
        "flightDateInformationVO": [
          {
            "departureDate": "2015-12-03",
            "departureTime": "01:15:00",
            "departureCityCode": "SIN",
            "arrivalCityCode": "SFO",
            "marketingAirlineCode": "SQ",
            "flightNumber": "0306",
            "classOfService": "J",
            "isMealselected": "true",
            "eligible": "true",
            "segmentID": 1,
            "SectorMealSelectedInfo": []
          },
          {
            "departureDate": "2013-12-04",
            "departureTime": "01:15:00",
            "departureCityCode": "SFO",
            "arrivalCityCode": "SIN",
            "marketingAirlineCode": "SQ",
            "flightNumber": "0308",
            "classOfService": "Y",
            "isMealselected": "false",
            "eligible": "false",
            "segmentID": 2,
            "SectorMealSelectedInfo": [
              {
                "origin": "SIN",
                "destination": "SFO",
                "departureDate": "2015-12-04",
                "departureTime": "01:15:00",
                "type": "DINNER/BREAKFAST",
                "mealServiceCode": "DINR/BREK",
                "categoryName": "Infant Meals",
                "mealCategoryCode": "IF",
                "Name": "Baby Meal",
                "iataMealCode": "BBML"
              }
            ]
          }
        ]
      }
    ]
  },
  "segmentMealVO": {
    "sectorMealListInformationVO": [
      {
        "departureDate": "2015-11-02",
        "departureTime": "0:5:0",
        "departureCityCode": "SFO",
        "arrivalCityCode": "SIN",
        "departureCityName": "Singapore",
        "arrivalCityName": "San Francisco",
        "marketingAirlineCode": "SQ",
        "flightNumber": "1",
        "classOfService": "BUSINESS",
        "selected": "true",
        "mealService": [
          {
            "origin": "SFO",
            "destination": "SIN",
            "departureDate": "2015-11-02",
            "departureTime": "0:5:0",
            "type": "SUPPER",
            "code": "SUPR",
            "mealList": [
              {
                "mealCategoryCode": "JP",
                "mealCategoryName": "JAPANESE MEAL",
                "mealServiceList": [
                  {
                    "mealCode": "SPML",
                    "mealName": "JAPANESE AND JASMINE RICE"
                  },
                  {
                    "mealCode": "SPML",
                    "mealName": "JAPANESE LAMB SHANK CURRY AND PILAFF RICE"
                  }
                ]
              },
              {
                "mealCategoryCode": "BC",
                "mealCategoryName": "BOOK THE COOK",
                "mealServiceList": [
                  {
                    "mealCode": "SPML",
                    "mealName": "Toasted multigrain bread",
                    "nameByLocale": "TOASTED MULTIGRAIN BREAD"
                  },
                  {
                    "mealCode": "SPML",
                    "mealName": "Chicken congee",
                    "nameByLocale": "CHICKEN CONGEE"
                  },
                  {
                    "mealCode": "SPML",
                    "mealName": "Pan fried halibut",
                    "nameByLocale": "PAN FRIED HALIBUT"
                  },
                  {
                    "mealCode": "SPML",
                    "mealName": "Stir fried mussels",
                    "nameByLocale": "STIR FRIED MUSSELS"
                  },
                  {
                    "mealCode": "SPML",
                    "mealName": "Braised beef rib",
                    "nameByLocale": "BRAISED BEEF RIB"
                  },
                  {
                    "mealCode": "SPML",
                    "mealName": "Steamed fish roll with ham",
                    "nameByLocale": "STEAMED FISH ROLL WITH HAM"
                  },
                  {
                    "mealCode": "SPML",
                    "mealName": "Chicken rice",
                    "nameByLocale": "CHICKEN RICE"
                  },
                  {
                    "mealCode": "SPML",
                    "mealName": "Braised guinea fowl",
                    "nameByLocale": "BRAISED GUINEA FOWL"
                  },
                  {
                    "mealCode": "SPML",
                    "mealName": "Strip steak and roasted potatoes",
                    "nameByLocale": "STRIP STEAK AND ROASTED POTATOES"
                  },
                  {
                    "mealCode": "SPML",
                    "mealName": "Crab cake and potato wedges",
                    "nameByLocale": "CRAB CAKE AND POTATO WEDGES"
                  },
                  {
                    "mealCode": "SPML",
                    "mealName": "Jumbo shrimps",
                    "nameByLocale": "JUMBO SHRIMPS"
                  }
                ]
              },
              {
                "mealCategoryCode": "CH",
                "mealCategoryName": "CHILD MEAL",
                "mealServiceList": [
                  {
                    "mealCode": "SPML",
                    "mealName": "Toasted multigrain bread",
                    "nameByLocale": "TOASTED MULTIGRAIN BREAD"
                  },
                  {
                    "mealCode": "SPML",
                    "mealName": "Chicken congee",
                    "nameByLocale": "CHICKEN CONGEE"
                  },
                  {
                    "mealCode": "SPML",
                    "mealName": "Pan fried halibut",
                    "nameByLocale": "PAN FRIED HALIBUT"
                  },
                  {
                    "mealCode": "SPML",
                    "mealName": "Stir fried mussels",
                    "nameByLocale": "STIR FRIED MUSSELS"
                  },
                  {
                    "mealCode": "SPML",
                    "mealName": "Braised beef rib",
                    "nameByLocale": "BRAISED BEEF RIB"
                  },
                  {
                    "mealCode": "SPML",
                    "mealName": "Steamed fish roll with ham",
                    "nameByLocale": "STEAMED FISH ROLL WITH HAM"
                  },
                  {
                    "mealCode": "SPML",
                    "mealName": "Chicken rice",
                    "nameByLocale": "CHICKEN RICE"
                  },
                  {
                    "mealCode": "SPML",
                    "mealName": "Braised guinea fowl",
                    "nameByLocale": "BRAISED GUINEA FOWL"
                  },
                  {
                    "mealCode": "SPML",
                    "mealName": "Strip steak and roasted potatoes",
                    "nameByLocale": "STRIP STEAK AND ROASTED POTATOES"
                  },
                  {
                    "mealCode": "SPML",
                    "mealName": "Crab cake and potato wedges",
                    "nameByLocale": "CRAB CAKE AND POTATO WEDGES"
                  },
                  {
                    "mealCode": "SPML",
                    "mealName": "Jumbo shrimps",
                    "nameByLocale": "JUMBO SHRIMPS"
                  }
                ]
              },
              {
                "mealCategoryCode": "DM",
                "mealCategoryName": "Dietry Meals locale",
                "mealServiceList": [
                  {
                    "mealCode": "NLML",
                    "mealName": "LOW LACTOSE MEAL",
                    "nameByLocale": "low lactose meal"
                  },
                  {
                    "mealCode": "SPML",
                    "mealName": "Ulcer diet",
                    "nameByLocale": "ULCER DIET"
                  },
                  {
                    "mealCode": "GFML",
                    "mealName": "GLUTEN INTOLERANT MEAL",
                    "nameByLocale": "gluten intolerant meal"
                  },
                  {
                    "mealCode": "SPML",
                    "mealName": "Nil carbohydrate meal",
                    "nameByLocale": "NIL CARBOHYDRATE MEAL"
                  },
                  {
                    "mealCode": "SPML",
                    "mealName": "Soft fluid meal",
                    "nameByLocale": "SOFT FLUID MEAL"
                  },
                  {
                    "mealCode": "SPML",
                    "mealName": "Fat free meal",
                    "nameByLocale": "FAT FREE MEAL"
                  },
                  {
                    "mealCode": "LSML",
                    "mealName": "LOW SALT MEAL",
                    "nameByLocale": "low salt meal"
                  },
                  {
                    "mealCode": "BLML",
                    "mealName": "BLAND MEAL",
                    "nameByLocale": "bland meal"
                  },
                  {
                    "mealCode": "SPML",
                    "mealName": "Low fibre residue meal",
                    "nameByLocale": "LOW FIBRE RESIDUE MEAL"
                  },
                  {
                    "mealCode": "LCML",
                    "mealName": "LOW CALORIE MEAL",
                    "nameByLocale": "low calorie meal"
                  },
                  {
                    "mealCode": "SPML",
                    "mealName": "Semi fluid meal",
                    "nameByLocale": "SEMI FLUID MEAL"
                  },
                  {
                    "mealCode": "DBML",
                    "mealName": "DIABETIC MEAL",
                    "nameByLocale": "diabatic meal locale"
                  },
                  {
                    "mealCode": "LFML",
                    "mealName": "LOW FAT MEAL",
                    "nameByLocale": "low fat meal"
                  },
                  {
                    "mealCode": "SPML",
                    "mealName": "Non strict nut free meal",
                    "nameByLocale": "NON STRICT NUT FREE MEAL"
                  },
                  {
                    "mealCode": "FPML",
                    "mealName": "FRUIT PLATTER",
                    "nameByLocale": "fruit platter"
                  }
                ]
              },
              {
                "mealCategoryCode": "OT",
                "mealCategoryName": "OTHERS",
                "mealServiceList": [
                  {
                    "mealCode": "SFML",
                    "mealName": "SEAFOOD MEAL",
                    "nameByLocale": "seafood meal"
                  },
                  {
                    "mealCode": "SPML",
                    "mealName": "Non seafood meal",
                    "nameByLocale": "NON SEAFOOD MEAL"
                  }
                ]
              },
              {
                "mealCategoryCode": "RL",
                "mealCategoryName": "RELIGIOUS MEALS",
                "mealServiceList": [
                  {
                    "mealCode": "KSML",
                    "mealName": "KOSHER MEAL",
                    "nameByLocale": "kosher meal"
                  },
                  {
                    "mealCode": "HNML",
                    "mealName": "HINDU NON-VEGETARIAN MEAL",
                    "nameByLocale": "hindu non-vegetarian meal"
                  },
                  {
                    "mealCode": "MOML",
                    "mealName": "MUSLIM MEAL",
                    "nameByLocale": "muslim meal"
                  }
                ]
              },
              {
                "mealCategoryCode": "VG",
                "mealCategoryName": "VEGETARIAN MEALS",
                "mealServiceList": [
                  {
                    "mealCode": "VOML",
                    "mealName": "VEGETARIAN ORIENTAL MEAL",
                    "nameByLocale": "vegetarian oriental meal"
                  },
                  {
                    "mealCode": "AVML",
                    "mealName": "VEGETARIAN INDIAN MEAL",
                    "nameByLocale": "vegetarian indian meal"
                  },
                  {
                    "mealCode": "SPML",
                    "mealName": "Vegetarian southern indian meal test",
                    "nameByLocale": "VEGETARIAN SOUTHERN INDIAN MEAL TEST"
                  },
                  {
                    "mealCode": "VLML",
                    "mealName": "VEGETARIAN LACTO-OVO MEAL",
                    "nameByLocale": "vegetarian lacto-ovo meal"
                  },
                  {
                    "mealCode": "RVML",
                    "mealName": "VEGETARIAN RAW MEAL",
                    "nameByLocale": "vegetarian raw meal"
                  },
                  {
                    "mealCode": "VGML",
                    "mealName": "VEGETARIAN VEGAN MEAL",
                    "nameByLocale": "vegetarian vegan meal"
                  }
                ]
              },
              {
                "mealCategoryCode": "BZ",
                "mealCategoryName": "YUMMY FOR KIDS",
                "mealServiceList": [
                  {
                    "mealCode": "SPML",
                    "mealName": "Golden scramble eggs in a crepe pocket",
                    "nameByLocale": "GOLDEN SCRAMBLE EGGS IN A CREPE POCKET"
                  },
                  {
                    "mealCode": "SPML",
                    "mealName": "Chicken and vegetable lasagne",
                    "nameByLocale": "CHICKEN AND VEGETABLE LASAGNE"
                  },
                  {
                    "mealCode": "SPML",
                    "mealName": "Fried rice surprise",
                    "nameByLocale": "FRIED RICE SURPRISE"
                  },
                  {
                    "mealCode": "SPML",
                    "mealName": "Spaghetti and beef meatball",
                    "nameByLocale": "SPAGHETTI AND BEEF MEATBALL"
                  },
                  {
                    "mealCode": "SPML",
                    "mealName": "Beef burger and crisps",
                    "nameByLocale": "BEEF BURGER AND CRISPS"
                  },
                  {
                    "mealCode": "SPML",
                    "mealName": "Grilled fish with sweet potato mash",
                    "nameByLocale": "GRILLED FISH WITH SWEET POTATO MASH"
                  },
                  {
                    "mealCode": "SPML",
                    "mealName": "Eggs sunnyside up",
                    "nameByLocale": "EGGS SUNNYSIDE UP"
                  },
                  {
                    "mealCode": "SPML",
                    "mealName": "Chicken burger and crisps",
                    "nameByLocale": "CHICKEN BURGER AND CRISPS"
                  },
                  {
                    "mealCode": "SPML",
                    "mealName": "Spaghetti and chicken meatball",
                    "nameByLocale": "SPAGHETTI AND CHICKEN MEATBALL"
                  },
                  {
                    "mealCode": "SPML",
                    "mealName": "Macaroni and cheese",
                    "nameByLocale": "MACARONI AND CHEESE"
                  },
                  {
                    "mealCode": "SPML",
                    "mealName": "Chicken and vegetable ragout",
                    "nameByLocale": "CHICKEN AND VEGETABLE RAGOUT"
                  },
                  {
                    "mealCode": "SPML",
                    "mealName": "Fish finger battalion",
                    "nameByLocale": "FISH FINGER BATTALION"
                  },
                  {
                    "mealCode": "SPML",
                    "mealName": "Sausages and pancakes",
                    "nameByLocale": "SAUSAGES AND PANCAKES"
                  },
                  {
                    "mealCode": "SPML",
                    "mealName": "Poached eggs on toasted muffin",
                    "nameByLocale": "POACHED EGGS ON TOASTED MUFFIN"
                  },
                  {
                    "mealCode": "SPML",
                    "mealName": "Omelette alert",
                    "nameByLocale": "OMELETTE ALERT"
                  },
                  {
                    "mealCode": "SPML",
                    "mealName": "Roasted chicken with basmati rice",
                    "nameByLocale": "ROASTED CHICKEN WITH BASMATI RICE"
                  },
                  {
                    "mealCode": "SPML",
                    "mealName": "Seafood fried rice",
                    "nameByLocale": "SEAFOOD FRIED RICE"
                  }
                ]
              }
            ]
          },
          {
            "origin": "SFO",
            "destination": "SIN",
            "departureDate": "2015-11-02",
            "departureTime": "0:5:0",
            "type": "BREAKFAST",
            "code": "BREK",
            "mealList": [
              {
                "mealCategoryCode": "JP",
                "mealCategoryName": "JAPANESE MEAL",
                "mealServiceList": [
                  {
                    "mealCode": "SPML",
                    "mealName": "JAPANESE AND JASMINE RICE"
                  },
                  {
                    "mealCode": "SPML",
                    "mealName": "JAPANESE LAMB SHANK CURRY AND PILAFF RICE"
                  }
                ]
              },
              {
                "mealCategoryCode": "BC",
                "mealCategoryName": "BOOK THE COOK",
                "mealServiceList": [
                  {
                    "mealCode": "SPML",
                    "mealName": "Toasted multigrain bread",
                    "nameByLocale": "TOASTED MULTIGRAIN BREAD"
                  },
                  {
                    "mealCode": "SPML",
                    "mealName": "Chicken congee",
                    "nameByLocale": "CHICKEN CONGEE"
                  },
                  {
                    "mealCode": "SPML",
                    "mealName": "Pan fried halibut",
                    "nameByLocale": "PAN FRIED HALIBUT"
                  },
                  {
                    "mealCode": "SPML",
                    "mealName": "Stir fried mussels",
                    "nameByLocale": "STIR FRIED MUSSELS"
                  },
                  {
                    "mealCode": "SPML",
                    "mealName": "Braised beef rib",
                    "nameByLocale": "BRAISED BEEF RIB"
                  },
                  {
                    "mealCode": "SPML",
                    "mealName": "Steamed fish roll with ham",
                    "nameByLocale": "STEAMED FISH ROLL WITH HAM"
                  },
                  {
                    "mealCode": "SPML",
                    "mealName": "Chicken rice",
                    "nameByLocale": "CHICKEN RICE"
                  },
                  {
                    "mealCode": "SPML",
                    "mealName": "Braised guinea fowl",
                    "nameByLocale": "BRAISED GUINEA FOWL"
                  },
                  {
                    "mealCode": "SPML",
                    "mealName": "Strip steak and roasted potatoes",
                    "nameByLocale": "STRIP STEAK AND ROASTED POTATOES"
                  },
                  {
                    "mealCode": "SPML",
                    "mealName": "Crab cake and potato wedges",
                    "nameByLocale": "CRAB CAKE AND POTATO WEDGES"
                  },
                  {
                    "mealCode": "SPML",
                    "mealName": "Jumbo shrimps",
                    "nameByLocale": "JUMBO SHRIMPS"
                  }
                ]
              },
              {
                "mealCategoryCode": "CH",
                "mealCategoryName": "CHILD MEAL",
                "mealServiceList": [
                  {
                    "mealCode": "CHML",
                    "mealName": "CHILD MEAL",
                    "nameByLocale": "child meal"
                  }
                ]
              },
              {
                "mealCategoryCode": "DM",
                "mealCategoryName": "Dietry Meals locale",
                "mealServiceList": [
                  {
                    "mealCode": "BLML",
                    "mealName": "BLAND MEAL",
                    "nameByLocale": "bland meal"
                  },
                  {
                    "mealCode": "LCML",
                    "mealName": "LOW CALORIE MEAL",
                    "nameByLocale": "low calorie meal"
                  },
                  {
                    "mealCode": "SPML",
                    "mealName": "Fat free meal",
                    "nameByLocale": "FAT FREE MEAL"
                  },
                  {
                    "mealCode": "SPML",
                    "mealName": "Non strict nut free meal",
                    "nameByLocale": "NON STRICT NUT FREE MEAL"
                  },
                  {
                    "mealCode": "FPML",
                    "mealName": "FRUIT PLATTER",
                    "nameByLocale": "fruit platter"
                  },
                  {
                    "mealCode": "LSML",
                    "mealName": "LOW SALT MEAL",
                    "nameByLocale": "low salt meal"
                  },
                  {
                    "mealCode": "DBML",
                    "mealName": "DIABETIC MEAL",
                    "nameByLocale": "diabatic meal locale"
                  },
                  {
                    "mealCode": "SPML",
                    "mealName": "Ulcer diet",
                    "nameByLocale": "ULCER DIET"
                  },
                  {
                    "mealCode": "SPML",
                    "mealName": "Soft fluid meal",
                    "nameByLocale": "SOFT FLUID MEAL"
                  },
                  {
                    "mealCode": "GFML",
                    "mealName": "GLUTEN INTOLERANT MEAL",
                    "nameByLocale": "gluten intolerant meal"
                  },
                  {
                    "mealCode": "LFML",
                    "mealName": "LOW FAT MEAL",
                    "nameByLocale": "low fat meal"
                  },
                  {
                    "mealCode": "SPML",
                    "mealName": "Semi fluid meal",
                    "nameByLocale": "SEMI FLUID MEAL"
                  },
                  {
                    "mealCode": "SPML",
                    "mealName": "Low fibre residue meal",
                    "nameByLocale": "LOW FIBRE RESIDUE MEAL"
                  },
                  {
                    "mealCode": "NLML",
                    "mealName": "LOW LACTOSE MEAL",
                    "nameByLocale": "low lactose meal"
                  },
                  {
                    "mealCode": "SPML",
                    "mealName": "Nil carbohydrate meal",
                    "nameByLocale": "NIL CARBOHYDRATE MEAL"
                  }
                ]
              },
              {
                "mealCategoryCode": "OT",
                "mealCategoryName": "OTHERS",
                "mealServiceList": [
                  {
                    "mealCode": "SPML",
                    "mealName": "Non seafood meal",
                    "nameByLocale": "NON SEAFOOD MEAL"
                  },
                  {
                    "mealCode": "SFML",
                    "mealName": "SEAFOOD MEAL",
                    "nameByLocale": "seafood meal"
                  }
                ]
              },
              {
                "mealCategoryCode": "RL",
                "mealCategoryName": "RELIGIOUS MEALS",
                "mealServiceList": [
                  {
                    "mealCode": "MOML",
                    "mealName": "MUSLIM MEAL",
                    "nameByLocale": "muslim meal"
                  },
                  {
                    "mealCode": "KSML",
                    "mealName": "KOSHER MEAL",
                    "nameByLocale": "kosher meal"
                  },
                  {
                    "mealCode": "HNML",
                    "mealName": "HINDU NON-VEGETARIAN MEAL",
                    "nameByLocale": "hindu non-vegetarian meal"
                  }
                ]
              },
              {
                "mealCategoryCode": "VG",
                "mealCategoryName": "VEGETARIAN MEALS",
                "mealServiceList": [
                  {
                    "mealCode": "VOML",
                    "mealName": "VEGETARIAN ORIENTAL MEAL",
                    "nameByLocale": "vegetarian oriental meal"
                  },
                  {
                    "mealCode": "VGML",
                    "mealName": "VEGETARIAN VEGAN MEAL",
                    "nameByLocale": "vegetarian vegan meal"
                  },
                  {
                    "mealCode": "RVML",
                    "mealName": "VEGETARIAN RAW MEAL",
                    "nameByLocale": "vegetarian raw meal"
                  },
                  {
                    "mealCode": "AVML",
                    "mealName": "VEGETARIAN INDIAN MEAL",
                    "nameByLocale": "vegetarian indian meal"
                  },
                  {
                    "mealCode": "SPML",
                    "mealName": "Vegetarian southern indian meal test",
                    "nameByLocale": "VEGETARIAN SOUTHERN INDIAN MEAL TEST"
                  },
                  {
                    "mealCode": "VLML",
                    "mealName": "VEGETARIAN LACTO-OVO MEAL",
                    "nameByLocale": "vegetarian lacto-ovo meal"
                  }
                ]
              },
              {
                "mealCategoryCode": "BZ",
                "mealCategoryName": "YUMMY FOR KIDS",
                "mealServiceList": [
                  {
                    "mealCode": "SPML",
                    "mealName": "Spaghetti and beef meatball",
                    "nameByLocale": "SPAGHETTI AND BEEF MEATBALL"
                  },
                  {
                    "mealCode": "SPML",
                    "mealName": "Seafood fried rice",
                    "nameByLocale": "SEAFOOD FRIED RICE"
                  },
                  {
                    "mealCode": "SPML",
                    "mealName": "Fish finger battalion",
                    "nameByLocale": "FISH FINGER BATTALION"
                  },
                  {
                    "mealCode": "SPML",
                    "mealName": "Fried rice surprise",
                    "nameByLocale": "FRIED RICE SURPRISE"
                  },
                  {
                    "mealCode": "SPML",
                    "mealName": "Beef burger and crisps",
                    "nameByLocale": "BEEF BURGER AND CRISPS"
                  },
                  {
                    "mealCode": "SPML",
                    "mealName": "Chicken and vegetable lasagne",
                    "nameByLocale": "CHICKEN AND VEGETABLE LASAGNE"
                  },
                  {
                    "mealCode": "SPML",
                    "mealName": "Roasted chicken with basmati rice",
                    "nameByLocale": "ROASTED CHICKEN WITH BASMATI RICE"
                  },
                  {
                    "mealCode": "SPML",
                    "mealName": "Eggs sunnyside up",
                    "nameByLocale": "EGGS SUNNYSIDE UP"
                  },
                  {
                    "mealCode": "SPML",
                    "mealName": "Chicken and vegetable ragout",
                    "nameByLocale": "CHICKEN AND VEGETABLE RAGOUT"
                  },
                  {
                    "mealCode": "SPML",
                    "mealName": "Chicken burger and crisps",
                    "nameByLocale": "CHICKEN BURGER AND CRISPS"
                  },
                  {
                    "mealCode": "SPML",
                    "mealName": "Golden scramble eggs in a crepe pocket",
                    "nameByLocale": "GOLDEN SCRAMBLE EGGS IN A CREPE POCKET"
                  },
                  {
                    "mealCode": "SPML",
                    "mealName": "Sausages and pancakes",
                    "nameByLocale": "SAUSAGES AND PANCAKES"
                  },
                  {
                    "mealCode": "SPML",
                    "mealName": "Omelette alert",
                    "nameByLocale": "OMELETTE ALERT"
                  },
                  {
                    "mealCode": "SPML",
                    "mealName": "Poached eggs on toasted muffin",
                    "nameByLocale": "POACHED EGGS ON TOASTED MUFFIN"
                  },
                  {
                    "mealCode": "SPML",
                    "mealName": "Spaghetti and chicken meatball",
                    "nameByLocale": "SPAGHETTI AND CHICKEN MEATBALL"
                  },
                  {
                    "mealCode": "SPML",
                    "mealName": "Macaroni and cheese",
                    "nameByLocale": "MACARONI AND CHEESE"
                  },
                  {
                    "mealCode": "SPML",
                    "mealName": "Grilled fish with sweet potato mash",
                    "nameByLocale": "GRILLED FISH WITH SWEET POTATO MASH"
                  }
                ]
              }
            ]
          },
          {
            "origin": "SFO",
            "destination": "SIN",
            "departureDate": "2015-11-03",
            "departureTime": "8:10:0",
            "type": "BREAKFAST",
            "code": "BREK",
            "mealList": [
              {
                "mealCategoryCode": "JP",
                "mealCategoryName": "JAPANESE MEAL",
                "mealServiceList": [
                  {
                    "mealCode": "SPML",
                    "mealName": "JAPANESE AND JASMINE RICE"
                  },
                  {
                    "mealCode": "SPML",
                    "mealName": "JAPANESE LAMB SHANK CURRY AND PILAFF RICE"
                  }
                ]
              },
              {
                "mealCategoryCode": "BC",
                "mealCategoryName": "BOOK THE COOK",
                "mealServiceList": [
                  {
                    "mealCode": "SPML",
                    "mealName": "Toasted multigrain bread",
                    "nameByLocale": "TOASTED MULTIGRAIN BREAD"
                  },
                  {
                    "mealCode": "SPML",
                    "mealName": "Chicken congee",
                    "nameByLocale": "CHICKEN CONGEE"
                  },
                  {
                    "mealCode": "SPML",
                    "mealName": "Pan fried halibut",
                    "nameByLocale": "PAN FRIED HALIBUT"
                  },
                  {
                    "mealCode": "SPML",
                    "mealName": "Stir fried mussels",
                    "nameByLocale": "STIR FRIED MUSSELS"
                  },
                  {
                    "mealCode": "SPML",
                    "mealName": "Braised beef rib",
                    "nameByLocale": "BRAISED BEEF RIB"
                  },
                  {
                    "mealCode": "SPML",
                    "mealName": "Steamed fish roll with ham",
                    "nameByLocale": "STEAMED FISH ROLL WITH HAM"
                  },
                  {
                    "mealCode": "SPML",
                    "mealName": "Chicken rice",
                    "nameByLocale": "CHICKEN RICE"
                  },
                  {
                    "mealCode": "SPML",
                    "mealName": "Braised guinea fowl",
                    "nameByLocale": "BRAISED GUINEA FOWL"
                  },
                  {
                    "mealCode": "SPML",
                    "mealName": "Strip steak and roasted potatoes",
                    "nameByLocale": "STRIP STEAK AND ROASTED POTATOES"
                  },
                  {
                    "mealCode": "SPML",
                    "mealName": "Crab cake and potato wedges",
                    "nameByLocale": "CRAB CAKE AND POTATO WEDGES"
                  },
                  {
                    "mealCode": "SPML",
                    "mealName": "Jumbo shrimps",
                    "nameByLocale": "JUMBO SHRIMPS"
                  }
                ]
              },
              {
                "mealCategoryCode": "CH",
                "mealCategoryName": "CHILD MEAL",
                "mealServiceList": [
                  {
                    "mealCode": "CHML",
                    "mealName": "CHILD MEAL",
                    "nameByLocale": "child meal"
                  }
                ]
              },
              {
                "mealCategoryCode": "DM",
                "mealCategoryName": "Dietry Meals locale",
                "mealServiceList": [
                  {
                    "mealCode": "DBML",
                    "mealName": "DIABETIC MEAL",
                    "nameByLocale": "diabatic meal locale"
                  },
                  {
                    "mealCode": "SPML",
                    "mealName": "Non strict nut free meal",
                    "nameByLocale": "NON STRICT NUT FREE MEAL"
                  },
                  {
                    "mealCode": "SPML",
                    "mealName": "Nil carbohydrate meal",
                    "nameByLocale": "NIL CARBOHYDRATE MEAL"
                  },
                  {
                    "mealCode": "SPML",
                    "mealName": "Low fibre residue meal",
                    "nameByLocale": "LOW FIBRE RESIDUE MEAL"
                  },
                  {
                    "mealCode": "LCML",
                    "mealName": "LOW CALORIE MEAL",
                    "nameByLocale": "low calorie meal"
                  },
                  {
                    "mealCode": "BLML",
                    "mealName": "BLAND MEAL",
                    "nameByLocale": "bland meal"
                  },
                  {
                    "mealCode": "SPML",
                    "mealName": "Soft fluid meal",
                    "nameByLocale": "SOFT FLUID MEAL"
                  },
                  {
                    "mealCode": "SPML",
                    "mealName": "Semi fluid meal",
                    "nameByLocale": "SEMI FLUID MEAL"
                  },
                  {
                    "mealCode": "NLML",
                    "mealName": "LOW LACTOSE MEAL",
                    "nameByLocale": "low lactose meal"
                  },
                  {
                    "mealCode": "SPML",
                    "mealName": "Ulcer diet",
                    "nameByLocale": "ULCER DIET"
                  },
                  {
                    "mealCode": "LFML",
                    "mealName": "LOW FAT MEAL",
                    "nameByLocale": "low fat meal"
                  },
                  {
                    "mealCode": "SPML",
                    "mealName": "Fat free meal",
                    "nameByLocale": "FAT FREE MEAL"
                  },
                  {
                    "mealCode": "FPML",
                    "mealName": "FRUIT PLATTER",
                    "nameByLocale": "fruit platter"
                  },
                  {
                    "mealCode": "GFML",
                    "mealName": "GLUTEN INTOLERANT MEAL",
                    "nameByLocale": "gluten intolerant meal"
                  },
                  {
                    "mealCode": "LSML",
                    "mealName": "LOW SALT MEAL",
                    "nameByLocale": "low salt meal"
                  }
                ]
              },
              {
                "mealCategoryCode": "OT",
                "mealCategoryName": "OTHERS",
                "mealServiceList": [
                  {
                    "mealCode": "SPML",
                    "mealName": "Non seafood meal",
                    "nameByLocale": "NON SEAFOOD MEAL"
                  },
                  {
                    "mealCode": "SFML",
                    "mealName": "SEAFOOD MEAL",
                    "nameByLocale": "seafood meal"
                  }
                ]
              },
              {
                "mealCategoryCode": "RL",
                "mealCategoryName": "RELIGIOUS MEALS",
                "mealServiceList": [
                  {
                    "mealCode": "MOML",
                    "mealName": "MUSLIM MEAL",
                    "nameByLocale": "muslim meal"
                  },
                  {
                    "mealCode": "KSML",
                    "mealName": "KOSHER MEAL",
                    "nameByLocale": "kosher meal"
                  },
                  {
                    "mealCode": "HNML",
                    "mealName": "HINDU NON-VEGETARIAN MEAL",
                    "nameByLocale": "hindu non-vegetarian meal"
                  }
                ]
              },
              {
                "mealCategoryCode": "VG",
                "mealCategoryName": "VEGETARIAN MEALS",
                "mealServiceList": [
                  {
                    "mealCode": "RVML",
                    "mealName": "VEGETARIAN RAW MEAL",
                    "nameByLocale": "vegetarian raw meal"
                  },
                  {
                    "mealCode": "SPML",
                    "mealName": "Vegetarian southern indian meal test",
                    "nameByLocale": "VEGETARIAN SOUTHERN INDIAN MEAL TEST"
                  },
                  {
                    "mealCode": "VOML",
                    "mealName": "VEGETARIAN ORIENTAL MEAL",
                    "nameByLocale": "vegetarian oriental meal"
                  },
                  {
                    "mealCode": "VGML",
                    "mealName": "VEGETARIAN VEGAN MEAL",
                    "nameByLocale": "vegetarian vegan meal"
                  },
                  {
                    "mealCode": "VLML",
                    "mealName": "VEGETARIAN LACTO-OVO MEAL",
                    "nameByLocale": "vegetarian lacto-ovo meal"
                  },
                  {
                    "mealCode": "AVML",
                    "mealName": "VEGETARIAN INDIAN MEAL",
                    "nameByLocale": "vegetarian indian meal"
                  }
                ]
              },
              {
                "mealCategoryCode": "BZ",
                "mealCategoryName": "YUMMY FOR KIDS",
                "mealServiceList": [
                  {
                    "mealCode": "SPML",
                    "mealName": "Chicken and vegetable lasagne",
                    "nameByLocale": "CHICKEN AND VEGETABLE LASAGNE"
                  },
                  {
                    "mealCode": "SPML",
                    "mealName": "Chicken burger and crisps",
                    "nameByLocale": "CHICKEN BURGER AND CRISPS"
                  },
                  {
                    "mealCode": "SPML",
                    "mealName": "Poached eggs on toasted muffin",
                    "nameByLocale": "POACHED EGGS ON TOASTED MUFFIN"
                  },
                  {
                    "mealCode": "SPML",
                    "mealName": "Beef burger and crisps",
                    "nameByLocale": "BEEF BURGER AND CRISPS"
                  },
                  {
                    "mealCode": "SPML",
                    "mealName": "Fried rice surprise",
                    "nameByLocale": "FRIED RICE SURPRISE"
                  },
                  {
                    "mealCode": "SPML",
                    "mealName": "Grilled fish with sweet potato mash",
                    "nameByLocale": "GRILLED FISH WITH SWEET POTATO MASH"
                  },
                  {
                    "mealCode": "SPML",
                    "mealName": "Spaghetti and chicken meatball",
                    "nameByLocale": "SPAGHETTI AND CHICKEN MEATBALL"
                  },
                  {
                    "mealCode": "SPML",
                    "mealName": "Fish finger battalion",
                    "nameByLocale": "FISH FINGER BATTALION"
                  },
                  {
                    "mealCode": "SPML",
                    "mealName": "Macaroni and cheese",
                    "nameByLocale": "MACARONI AND CHEESE"
                  },
                  {
                    "mealCode": "SPML",
                    "mealName": "Seafood fried rice",
                    "nameByLocale": "SEAFOOD FRIED RICE"
                  },
                  {
                    "mealCode": "SPML",
                    "mealName": "Sausages and pancakes",
                    "nameByLocale": "SAUSAGES AND PANCAKES"
                  },
                  {
                    "mealCode": "SPML",
                    "mealName": "Golden scramble eggs in a crepe pocket",
                    "nameByLocale": "GOLDEN SCRAMBLE EGGS IN A CREPE POCKET"
                  },
                  {
                    "mealCode": "SPML",
                    "mealName": "Eggs sunnyside up",
                    "nameByLocale": "EGGS SUNNYSIDE UP"
                  },
                  {
                    "mealCode": "SPML",
                    "mealName": "Spaghetti and beef meatball",
                    "nameByLocale": "SPAGHETTI AND BEEF MEATBALL"
                  },
                  {
                    "mealCode": "SPML",
                    "mealName": "Chicken and vegetable ragout",
                    "nameByLocale": "CHICKEN AND VEGETABLE RAGOUT"
                  },
                  {
                    "mealCode": "SPML",
                    "mealName": "Roasted chicken with basmati rice",
                    "nameByLocale": "ROASTED CHICKEN WITH BASMATI RICE"
                  },
                  {
                    "mealCode": "SPML",
                    "mealName": "Omelette alert",
                    "nameByLocale": "OMELETTE ALERT"
                  }
                ]
              }
            ]
          }
        ],
        "segmentId": "1"
      }
    ]
  }
}
