{
  "fareFamilyCondition": [
    {
      "isAllowed": false,
      "description": "FF21SIN"
    }
  ],
  "fareAvailablityVO": {
    "messages": {
      "O1FF41SIN": " ",
      "O1FF21SIN": " ",
      "O3FF41SIN": " ",
      "O0FF21SIN": " ",
      "O7FF21SIN": " ",
      "O5FF41SIN": " ",
      "O3FF31SIN": " ",
      "O2FF21SIN": " ",
      "O0FF31SIN": " ",
      "O6FF31SIN": " ",
      "O3FF21SIN": " ",
      "O2FF31SIN": " ",
      "O9FF21SIN": " ",
      "O1FF31SIN": " ",
      "O0FF41SIN": " ",
      "O7FF31SIN": " ",
      "O6FF21SIN": " ",
      "O5FF21SIN": " ",
      "O5FF31SIN": " ",
      "O4FF31SIN": " ",
      "O6FF41SIN": " ",
      "O8FF21SIN": " ",
      "R1FF21SIN": " ",
      "O4FF41SIN": " ",
      "O2FF41SIN": " ",
      "O7FF41SIN": " ",
      "O4FF21SIN": " "
    },
    "packageVO": {
      "type": "ATC",
      "currencyCode": "JPY",
      "fareTotal": 741,
      "fare": 355.00,
      "costPaidByCash": 852,
      "costPaidByMiles": 963,
      "tax": 59.60,
      "surcharge": 97.40,
      "total": 512.00
    },
    "defaults": [
      null,
      "R1FF21SIN"
    ]
  },
  "bookingSummary": {
    "adultCount": 1,
    "childCount": 2,
    "infantCount": 3,
    "precision": 2,
    "totalToBePaidCash": 1750,
    "currency": "SGD",
    "fareTotal": 355.00,
    "taxTotal": 59.60,
    "surchargeTotal": 97.40,
    "fareSubTotal": 512.00,
    "grandTotal": 512.00,
    "milesAllocated": 0,
    "totalMilesForORB": 0,
    "rebookingFee": 321,
    "totalToBePaidMiles": 0,
    "cashToBeRefunded": 225.0,
    "milesToBeRefunded": 789,
    "fareTotalInMiles": 147,
    "orbQSurchargeTotal": 258,
    "oldItinerary": {
      "currency": "SGD",
      "fareTotal": 512.0,
      "costPaidByCash": 852,
      "costPaidByMiles": 963,
      "totalMilesForORB": 654,
      "grandTotal": 987
    },
    "locale": "en_UK",
    "scenario": "ATC",
    "flight": [
      {
        "totalTravelTime": "0hrs 55mins",
        "origin": "Singapore",
        "destination": "Kuala Lumpur",
        "cabinMismatch": "true",
        "flightSegments": [
          {
            "carrierCode": "SQ",
            "airCraftType": "Boeing 737-800",
            "flightNumber": "5620",
            "cabinClassDesc": "ECONOMY(Y)",
            "deparure": {
              "time": "16:35",
              "date": "27 Jun (Sat)",
              "airportCode": "SIN",
              "airportName": "Changi Intl",
              "cityCode": "SIN",
              "cityName": "Singapore",
              "terminal": "2"
            },
            "arrival": {
              "time": "17:30",
              "date": "27 Jun (Sat)",
              "airportCode": "KUL",
              "airportName": "Kuala Lumpur Intl",
              "cityCode": "KUL",
              "cityName": "Kuala Lumpur",
              "terminal": "M"
            }
          }
        ]
      },
      {
        "totalTravelTime": "0hrs 55mins",
        "origin": "Kuala Lumpur",
        "destination": "Singapore",
        "cabinMismatch": "false",
        "flightSegments": [
          {
            "carrierCode": "MI",
            "airCraftType": "Airbus A319",
            "flightNumber": "341",
            "cabinClassDesc": "ECONOMY(E)",
            "deparure": {
              "time": "21:45",
              "date": "09 Jul (Thu)",
              "airportCode": "KUL",
              "airportName": "Kuala Lumpur Intl",
              "cityCode": "KUL",
              "cityName": "Kuala Lumpur",
              "terminal": "M"
            },
            "arrival": {
              "time": "22:40",
              "date": "09 Jul (Thu)",
              "airportCode": "SIN",
              "airportName": "Changi Intl",
              "cityCode": "SIN",
              "cityName": "Singapore",
              "terminal": "2"
            }
          }
        ]
      }
    ],
    "paxDetails": [
      {
        "paxType": "Adult",
        "id": 0,
        "paxName": "Mr Anoop Krishnan",
        "fareDetails": {
          "totalCost": 512.00,
          "totalMiles": 0,
          "fareAmount": 355.00,
          "taxAmount": 59.60,
          "surchargeAmount": 97.40,
          "surcharge": [
            {
              "amount": 13.60,
              "code": "YQAD",
              "description": "Airline Insurance"
            },
            {
              "amount": 83.80,
              "code": "YQAC",
              "description": "Airline Fuel Surcharge"
            }
          ],
          "taxes": [
            {
              "amount": 19.90,
              "code": "SG",
              "description": "Passenger Service and Security Charge"
            },
            {
              "amount": 6.10,
              "code": "OP",
              "description": "Aviation Levy"
            },
            {
              "amount": 8.00,
              "code": "OO",
              "description": "Passenger Security Service Charge"
            },
            {
              "amount": 24.10,
              "code": "MY",
              "description": "Passenger Service and Security Charge (Domestic/International)"
            },
            {
              "amount": 1.50,
              "code": "D8",
              "description": "Goods And Services Tax"
            }
          ]
        },
        "detailsPerFlight": [
          {
            "flightNo": "SQ5620",
            "from": "SIN",
            "to": "KUL",
            "addonPerPax": [
              {
                "type": "Seat",
                "description": "44H",
                "category": "Chargable",
                "amount": 50
              },
              {
                "type": "Excess baggage",
                "description": "<b>Free: </b>23kg each",
                "category": "Free"
              },
              {
                "type": "Excess baggage",
                "description": "<b>Additional: </b>45kg",
                "category": "Chargable",
                "amount": 250
              },
              {
                "type": "Meal",
                "description": "Vegetarian Meal",
                "category": "Free"
              }
            ],
            "departureDate": "Sat Jun 27 16:35:00 IST 2015"
          },
          {
            "flightNo": "MI341",
            "from": "KUL",
            "to": "SIN",
            "addonPerPax": [
              {
                "type": "Seat",
                "description": "44H",
                "category": "Chargable",
                "amount": 50
              },
              {
                "type": "Excess baggage",
                "description": "<b>Free: </b>23kg each",
                "category": "Free"
              },
              {
                "type": "Excess baggage",
                "description": "<b>Additional: </b>45kg",
                "category": "Chargable",
                "amount": 250
              },
              {
                "type": "Meal",
                "description": "Vegetarian Meal",
                "category": "Free"
              }
            ],
            "departureDate": "Thu Jul 09 21:45:00 IST 2015"
          },
          {
            "flightNo": "MI342",
            "from": "KUL",
            "to": "SIN",
            "addonPerPax": [
              {
                "type": "Seat",
                "description": "44H",
                "category": "Chargable",
                "amount": 50
              },
              {
                "type": "Excess baggage",
                "description": "<b>Free: </b>23kg each",
                "category": "Free"
              },
              {
                "type": "Excess baggage",
                "description": "<b>Additional: </b>45kg",
                "category": "Chargable",
                "amount": 250
              },
              {
                "type": "Meal",
                "description": "Vegetarian Meal",
                "category": "Free"
              }
            ],
            "departureDate": "Thu Jul 10 21:45:00 IST 2015"
          }
        ]
      }
    ]
  }
}
