{
  "isLast": false,
  "pageId": 2,
  "seemoreLabel": "SEE MORE",
  "result": "<article class=\"promotion-item promotion-item--2\">\r\n  <div class=\"promotion-item__inner\"><a href=\"promotions-fares-details.html\" class=\"flight-item\"><img src=\"images\/promotion-tile-1.jpg\" alt=\"Singapore\" longdesc=\"img-desc.html\">\r\n      <div class=\"flight-item__vignette\">&nbsp;<\/div>\r\n      <table class=\"destination-info\">\r\n        <tbody><tr>\r\n          <td>\r\n            <p class=\"name-city\">Singapore<\/p>\r\n          <\/td>\r\n          <td class=\"class-flight\"><span>Business<\/span><\/td>\r\n        <\/tr>\r\n      <\/tbody><\/table><\/a>\r\n    <div class=\"destination-list\">\r\n      <ul>\r\n        <li><a href=\"#\">\r\n            <p class=\"destination-list__text\">Price from<\/p>\r\n            <p class=\"destination-list__name\">LKR 81,800<sup>*<\/sup><\/p><em class=\"ico-point-r\">&nbsp;<\/em><\/a><\/li>\r\n      <\/ul>\r\n    <\/div>\r\n  <\/div>\r\n<\/article>\r\n<article class=\"promotion-item promotion-item--2\">\r\n  <div class=\"promotion-item__inner\"><a href=\"promotions-fares-details.html\" class=\"flight-item\"><img src=\"images\/promotion-tile-2.jpg\" alt=\"Ho Chi Minh City\" longdesc=\"img-desc.html\">\r\n      <div class=\"flight-item__vignette\">&nbsp;<\/div>\r\n      <table class=\"destination-info\">\r\n        <tbody><tr>\r\n          <td>\r\n            <p class=\"name-city\">Ho Chi Minh City<\/p>\r\n          <\/td>\r\n          <td class=\"class-flight\"><span>Business<\/span><\/td>\r\n        <\/tr>\r\n      <\/tbody><\/table><\/a>\r\n    <div class=\"destination-list\">\r\n      <ul>\r\n        <li><a href=\"#\">\r\n            <p class=\"destination-list__text\">Departing from Adelaide<\/p>\r\n            <p class=\"destination-list__name\">LKR 142,800<sup>*<\/sup><\/p><em class=\"ico-point-r\">&nbsp;<\/em><\/a><\/li>\r\n      <\/ul>\r\n    <\/div>\r\n  <\/div>\r\n<\/article>\r\n<article class=\"promotion-item promotion-item--2\">\r\n  <div class=\"promotion-item__inner\"><a href=\"promotions-fares-details.html\" class=\"flight-item\"><img src=\"images\/promotion-tile-3.jpg\" alt=\"Hanoi\" longdesc=\"img-desc.html\">\r\n      <div class=\"flight-item__vignette\">&nbsp;<\/div>\r\n      <table class=\"destination-info\">\r\n        <tbody><tr>\r\n          <td>\r\n            <p class=\"name-city\">Hanoi<\/p>\r\n          <\/td>\r\n          <td class=\"class-flight\"><span>Business<\/span><\/td>\r\n        <\/tr>\r\n      <\/tbody><\/table><\/a>\r\n    <div class=\"destination-list\">\r\n      <ul>\r\n        <li><a href=\"#\">\r\n            <p class=\"destination-list__text\">Departing from Adelaide<\/p>\r\n            <p class=\"destination-list__name\">LKR 142,800<sup>*<\/sup><\/p><em class=\"ico-point-r\">&nbsp;<\/em><\/a><\/li>\r\n      <\/ul>\r\n    <\/div>\r\n  <\/div>\r\n<\/article>"
}
