{
  "locale": "en_UK",
  "excessBaggage": [
    {
      "id": 2,
      "paxName": "FRSTA LASTA",
      "paxType": "ADT",
      "segmentDetails": [
        {
          "flightNo": "MI 322",
          "from": "SIN",
          "to": "KUL",
          "segmentID": 1,
          "eligible": "true",
          "baggageDetails": [
            {
              "baggageType": "free",
              "name": "30kg"
            }
          ],
          "fromCityName": "Singapore",
          "toCityName": "kuala Lumpur"
        },
        {
          "flightNo": "MI 339",
          "from": "KUL",
          "to": "SIN",
          "segmentID": 2,
          "eligible": "true",
          "baggageDetails": [
            {
              "baggageType": "free",
              "name": "30kg"
            }
          ],
          "fromCityName": "kuala Lumpur",
          "toCityName": "Singapore"
        },
        {
          "flightNo": "SQ 868",
          "from": "SIN",
          "to": "HKG",
          "segmentID": 3,
          "eligible": "true",
          "baggageDetails": [
            {
              "baggageType": "free",
              "name": "30kg"
            }
          ],
          "fromCityName": "Singapore",
          "toCityName": "Hong Kong"
        },
        {
          "flightNo": "SQ 322",
          "from": "SIN",
          "to": "LHR",
          "segmentID": 4,
          "eligible": "true",
          "baggageDetails": [
            {
              "baggageType": "free",
              "name": "30kg"
            }
          ],
          "fromCityName": "Singapore",
          "toCityName": "London"
        },
        {
          "flightNo": "MI 322",
          "from": "SIN",
          "to": "KUL",
          "segmentID": 5,
          "eligible": "true",
          "baggageDetails": [
            {
              "baggageType": "free",
              "name": "30kg"
            }
          ],
          "fromCityName": "Singapore",
          "toCityName": "Kuala Lumpur"
        }
      ]
    },
    {
      "id": 2,
      "paxName": "INFNT INFNTLAST",
      "paxType": "INF",
      "segmentDetails": [
        {
          "flightNo": "MI 322",
          "from": "SIN",
          "to": "KUL",
          "segmentID": 1,
          "eligible": "false",
          "baggageDetails": [
            {
              "baggageType": "free",
              "name": "10kg"
            }
          ],
          "fromCityName": "Singapore",
          "toCityName": "Kuala Lumpur"
        },
        {
          "flightNo": "MI 339",
          "from": "KUL",
          "to": "SIN",
          "segmentID": 2,
          "eligible": "false",
          "baggageDetails": [
            {
              "baggageType": "free",
              "name": "10kg"
            }
          ],
          "fromCityName": "Kuala Lumpur",
          "toCityName": "Singapore"
        },
        {
          "flightNo": "SQ 868",
          "from": "SIN",
          "to": "HKG",
          "segmentID": 3,
          "eligible": "false",
          "baggageDetails": [
            {
              "baggageType": "free",
              "name": "10kg"
            }
          ],
          "fromCityName": "Singapore",
          "toCityName": "Hong Kong"
        },
        {
          "flightNo": "SQ 322",
          "from": "SIN",
          "to": "LHR",
          "segmentID": 4,
          "eligible": "false",
          "baggageDetails": [
            {
              "baggageType": "free",
              "name": "10kg"
            }
          ],
          "fromCityName": "Singapore",
          "toCityName": "London"
        },
        {
          "flightNo": "MI 322",
          "from": "SIN",
          "to": "KUL",
          "segmentID": 5,
          "eligible": "false",
          "baggageDetails": [
            {
              "baggageType": "free",
              "name": "10kg"
            }
          ],
          "fromCityName": "Sinagpore",
          "toCityName": "Kuala Lumpur"
        }
      ]
    },
    {
      "id": 4,
      "paxName": "FRSTB LASTB",
      "paxType": "ADT",
      "segmentDetails": [
        {
          "flightNo": "MI 322",
          "from": "SIN",
          "to": "KUL",
          "segmentID": 1,
          "eligible": "true",
          "baggageDetails": [
            {
              "baggageType": "free",
              "name": "30kg"
            }
          ],
          "fromCityName": "Singapore",
          "toCityName": "Kuala Lumpur"
        },
        {
          "flightNo": "MI 339",
          "from": "KUL",
          "to": "SIN",
          "segmentID": 2,
          "eligible": "true",
          "baggageDetails": [
            {
              "baggageType": "free",
              "name": "30kg"
            }
          ],
          "fromCityName": "Kuala Lumpur",
          "toCityName": "Singapore"
        },
        {
          "flightNo": "SQ 868",
          "from": "SIN",
          "to": "HKG",
          "segmentID": 3,
          "eligible": "true",
          "baggageDetails": [
            {
              "baggageType": "free",
              "name": "30kg"
            }
          ],
          "fromCityName": "Singapore",
          "toCityName": "Hong Kong"
        },
        {
          "flightNo": "SQ 322",
          "from": "SIN",
          "to": "LHR",
          "segmentID": 4,
          "eligible": "true",
          "baggageDetails": [
            {
              "baggageType": "free",
              "name": "30kg"
            }
          ],
          "fromCityName": "Singapore",
          "toCityName": "London"
        },
        {
          "flightNo": "MI 322",
          "from": "SIN",
          "to": "KUL",
          "segmentID": 5,
          "eligible": "true",
          "baggageDetails": [
            {
              "baggageType": "free",
              "name": "30kg"
            }
          ],
          "fromCityName": "Singapore",
          "toCityName": "Kuala Lumpur"
        }
      ]
    },
    {
      "id": 5,
      "paxName": "FRSTC LASTC",
      "paxType": "ADT",
      "segmentDetails": [
        {
          "flightNo": "MI 322",
          "from": "SIN",
          "to": "KUL",
          "segmentID": 1,
          "eligible": "true",
          "baggageDetails": [
            {
              "baggageType": "free",
              "name": "30kg"
            }
          ],
          "fromCityName": "Singapore",
          "toCityName": "Kuala Lumpur"
        },
        {
          "flightNo": "MI 339",
          "from": "KUL",
          "to": "SIN",
          "segmentID": 2,
          "eligible": "true",
          "baggageDetails": [
            {
              "baggageType": "free",
              "name": "30kg"
            }
          ],
          "fromCityName": "Kuala Lumpur",
          "toCityName": "Singapore"
        },
        {
          "flightNo": "SQ 868",
          "from": "SIN",
          "to": "HKG",
          "segmentID": 3,
          "eligible": "true",
          "baggageDetails": [
            {
              "baggageType": "free",
              "name": "30kg"
            }
          ],
          "fromCityName": "Singapore",
          "toCityName": "Hong Kong"
        },
        {
          "flightNo": "SQ 322",
          "from": "SIN",
          "to": "LHR",
          "segmentID": 4,
          "eligible": "true",
          "baggageDetails": [
            {
              "baggageType": "free",
              "name": "30kg"
            }
          ],
          "fromCityName": "Singapore",
          "toCityName": "London"
        },
        {
          "flightNo": "MI 322",
          "from": "SIN",
          "to": "KUL",
          "segmentID": 5,
          "eligible": "true",
          "baggageDetails": [
            {
              "baggageType": "free",
              "name": "30kg"
            }
          ],
          "fromCityName": "singapore",
          "toCityName": "Kuala Lumpur"
        }
      ]
    },
    {
      "id": 6,
      "paxName": "CHLD CHLDLAST",
      "paxType": "CHD",
      "segmentDetails": [
        {
          "flightNo": "MI 322",
          "from": "SIN",
          "to": "KUL",
          "segmentID": 1,
          "eligible": "true",
          "baggageDetails": [
            {
              "baggageType": "free",
              "name": "30kg"
            }
          ],
          "fromCityName": "singapore",
          "toCityName": "Kuala Lumpur"
        },
        {
          "flightNo": "MI 339",
          "from": "KUL",
          "to": "SIN",
          "segmentID": 2,
          "eligible": "true",
          "baggageDetails": [
            {
              "baggageType": "free",
              "name": "30kg"
            }
          ],
          "fromCityName": "Kuala Lumpur",
          "toCityName": "singapore"
        },
        {
          "flightNo": "SQ 868",
          "from": "SIN",
          "to": "HKG",
          "segmentID": 3,
          "eligible": "true",
          "baggageDetails": [
            {
              "baggageType": "free",
              "name": "30kg"
            }
          ],
          "fromCityName": "singapore",
          "toCityName": "Hong Kong"
        },
        {
          "flightNo": "SQ 322",
          "from": "SIN",
          "to": "LHR",
          "segmentID": 4,
          "eligible": "true",
          "baggageDetails": [
            {
              "baggageType": "free",
              "name": "30kg"
            }
          ],
          "fromCityName": "singapore",
          "toCityName": "London"
        },
        {
          "flightNo": "MI 322",
          "from": "SIN",
          "to": "KUL",
          "segmentID": 5,
          "eligible": "true",
          "baggageDetails": [
            {
              "baggageType": "free",
              "name": "30kg"
            }
          ],
          "fromCityName": "singapore",
          "toCityName": "Kuala Lumpur"
        }
      ]
    }
  ]
}
