{
  "fareFamilyCondition": [
    {
      "isAllowed": false,
      "description": "FF21SIN"
    }
  ],
  "fareAvailablityVO": {
    "messages": {
      "O0FF41SIN": " ",
      "R1FF21SIN": "A few seats left",
      "O1FF21SIN": " ",
      "O0FF21SIN": " "
    },
    "packageVO": {
      "type": "ATC",
      "currencyCode": "SGD",
      "fare": 720.00,
      "tax": 34.00,
      "surcharge": 144.40,
      "total": 898.40
    }
  },
  "bookingSummary": {
    "adultCount": 1,
    "childCount": 0,
    "infantCount": 0,
    "precision": 2,
    "currency": "SGD",
    "fareTotal": 720.00,
    "taxTotal": 34.00,
    "surchargeTotal": 144.40,
    "fareSubTotal": 898.40,
    "grandTotal": 898.40,
    "milesAllocated": 0,
    "totalMilesForORB": 0,
    "rebookingFee": 67.0,
    "totalToBePaidCash": 0.0,
    "totalToBePaidMiles": 0,
    "milesToBeRefunded": 0,
    "oldItinerary": {
      "currency": "SGD",
      "fareTotal": 460.4,
      "totalMilesForORB": 0
    },
    "locale": "en_UK",
    "scenario": "ATC",
    "flight": [
      {
        "totalTravelTime": "4hrs 5mins",
        "origin": "Singapore",
        "destination": "Chennai",
        "flightSegments": [
          {
            "carrierCode": "SQ",
            "airCraftType": "Airbus A330-300",
            "flightNumber": "528",
            "cabinClassDesc": "ECONOMY(Y)",
            "deparure": {
              "time": "20:25",
              "date": "08 Jun (Mon)",
              "airportCode": "SIN",
              "airportName": "Changi Intl",
              "cityCode": "SIN",
              "cityName": "Singapore",
              "terminal": "2"
            },
            "arrival": {
              "time": "22:00",
              "date": "08 Jun (Mon)",
              "airportCode": "MAA",
              "airportName": "Chennai International Airport",
              "cityCode": "MAA",
              "cityName": "Chennai",
              "terminal": "3"
            }
          }
        ]
      }
    ],
    "paxDetails": [
      {
        "paxType": "Adult",
        "id": 0,
        "paxName": "Mr Anoop Krishnan",
        "fareDetails": {
          "totalCost": 898.40,
          "totalMiles": 0,
          "fareAmount": 720.00,
          "taxAmount": 34.00,
          "surchargeAmount": 144.40,
          "surcharge": [
            {
              "amount": 6.70,
              "code": "YQAD",
              "description": "Airline Insurance"
            },
            {
              "amount": 137.70,
              "code": "YQAC",
              "description": "Airline Fuel Surcharge"
            }
          ],
          "taxes": [
            {
              "amount": 19.90,
              "code": "SG",
              "description": "Passenger Service and Security Charge"
            },
            {
              "amount": 6.10,
              "code": "OP",
              "description": "Aviation Levy"
            },
            {
              "amount": 8.00,
              "code": "OO",
              "description": "Passenger Security Service Charge"
            }
          ]
        },
        "detailsPerFlight": [
          {
            "flightNo": "SQ528",
            "from": "SIN",
            "to": "MAA",
            "departureDate": "Mon Jun 08 20:25:00 IST 2015"
          }
        ]
      }
    ]
  }
}