{
  "fareFamilyCondition": [
    {
      "isAllowed": false,
      "description": "FF41SIN"
    }
  ],
  "fareAvailablityVO": {
    "messages": {
      "R6FF41SIN": " ",
      "O1FF41SIN": " ",
      "R4FF31SIN": " ",
      "R1FF41SIN": " ",
      "O1FF21SIN": " ",
      "O3FF41SIN": " ",
      "O0FF21SIN": " ",
      "O7FF21SIN": " ",
      "O5FF41SIN": " ",
      "R7FF31SIN": " ",
      "O3FF31SIN": " ",
      "O2FF21SIN": " ",
      "O0FF31SIN": " ",
      "R1FF31SIN": " ",
      "O6FF31SIN": " ",
      "O3FF21SIN": " ",
      "R8FF41SIN": " ",
      "R0FF41SIN": " ",
      "O2FF31SIN": " ",
      "O9FF21SIN": " ",
      "R3FF41SIN": " ",
      "O1FF31SIN": " ",
      "R5FF31SIN": " ",
      "R8FF31SIN": " ",
      "R4FF41SIN": " ",
      "O0FF41SIN": " ",
      "O6FF21SIN": " ",
      "O7FF31SIN": " ",
      "O5FF21SIN": " ",
      "R2FF31SIN": " ",
      "O5FF31SIN": " ",
      "R9FF31SIN": " ",
      "R0FF31SIN": " ",
      "O4FF31SIN": " ",
      "R10FF31SIN": " ",
      "O6FF41SIN": " ",
      "O8FF21SIN": " ",
      "R2FF41SIN": " ",
      "R3FF31SIN": " ",
      "O4FF41SIN": " ",
      "O2FF41SIN": " ",
      "R6FF31SIN": " ",
      "R5FF41SIN": " ",
      "O7FF41SIN": " ",
      "R7FF41SIN": " ",
      "O4FF21SIN": " "
    },
    "packageVO": {
      "type": "ATC",
      "currencyCode": "SGD",
      "fare": 130.00,
      "tax": 59.60,
      "surcharge": 97.40,
      "total": 287.00
    },
    "defaults": [
      "O0FF41SIN",
      "R0FF41SIN"
    ]
  },
  "bookingSummary": {
    "adultCount": 1,
    "childCount": 0,
    "infantCount": 0,
    "precision": 2,
    "currency": "SGD",
    "fareTotal": 130.00,
    "taxTotal": 59.60,
    "surchargeTotal": 97.40,
    "fareSubTotal": 287.00,
    "grandTotal": 287.00,
    "milesAllocated": 0,
    "totalMilesForORB": 0,
    "rebookingFee": 0.0,
    "totalToBePaidMiles": 0,
    "cashToBeRefunded": 225.0,
    "milesToBeRefunded": 0,
    "oldItinerary": {
      "currency": "SGD",
      "fareTotal": 512.0,
      "totalMilesForORB": 0
    },
    "locale": "en_UK",
    "scenario": "ATC",
    "flight": [
      {
        "totalTravelTime": "0hrs 55mins",
        "origin": "Singapore",
        "destination": "Kuala Lumpur",
        "flightSegments": [
          {
            "carrierCode": "MI",
            "airCraftType": "Airbus A320",
            "flightNumber": "322",
            "cabinClassDesc": "ECONOMY(N)",
            "deparure": {
              "time": "07:10",
              "date": "27 Jun (Sat)",
              "airportCode": "SIN",
              "airportName": "Changi Intl",
              "cityCode": "SIN",
              "cityName": "Singapore",
              "terminal": "2"
            },
            "arrival": {
              "time": "08:05",
              "date": "27 Jun (Sat)",
              "airportCode": "KUL",
              "airportName": "Kuala Lumpur Intl",
              "cityCode": "KUL",
              "cityName": "Kuala Lumpur",
              "terminal": "M"
            }
          }
        ]
      },
      {
        "totalTravelTime": "0hrs 55mins",
        "origin": "Kuala Lumpur",
        "destination": "Singapore",
        "flightSegments": [
          {
            "carrierCode": "MI",
            "airCraftType": "Boeing 737-800",
            "flightNumber": "321",
            "cabinClassDesc": "ECONOMY(N)",
            "deparure": {
              "time": "08:55",
              "date": "09 Jul (Thu)",
              "airportCode": "KUL",
              "airportName": "Kuala Lumpur Intl",
              "cityCode": "KUL",
              "cityName": "Kuala Lumpur",
              "terminal": "M"
            },
            "arrival": {
              "time": "09:50",
              "date": "09 Jul (Thu)",
              "airportCode": "SIN",
              "airportName": "Changi Intl",
              "cityCode": "SIN",
              "cityName": "Singapore",
              "terminal": "2"
            }
          }
        ]
      }
    ],
    "paxDetails": [
      {
        "paxType": "Adult",
        "id": 0,
        "paxName": "Mr Anoop Krishnan",
        "fareDetails": {
          "totalCost": 287.00,
          "totalMiles": 0,
          "fareAmount": 130.00,
          "taxAmount": 59.60,
          "surchargeAmount": 97.40,
          "surcharge": [
            {
              "amount": 13.60,
              "code": "YQAD",
              "description": "Airline Insurance"
            },
            {
              "amount": 83.80,
              "code": "YQAC",
              "description": "Airline Fuel Surcharge"
            }
          ],
          "taxes": [
            {
              "amount": 19.90,
              "code": "SG",
              "description": "Passenger Service and Security Charge"
            },
            {
              "amount": 6.10,
              "code": "OP",
              "description": "Aviation Levy"
            },
            {
              "amount": 8.00,
              "code": "OO",
              "description": "Passenger Security Service Charge"
            },
            {
              "amount": 24.10,
              "code": "MY",
              "description": "Passenger Service and Security Charge (Domestic/International)"
            },
            {
              "amount": 1.50,
              "code": "D8",
              "description": "Goods And Services Tax"
            }
          ]
        },
        "detailsPerFlight": [
          {
            "flightNo": "MI322",
            "from": "SIN",
            "to": "KUL",
            "departureDate": "Sat Jun 27 07:10:00 IST 2015"
          },
          {
            "flightNo": "MI321",
            "from": "KUL",
            "to": "SIN",
            "departureDate": "Thu Jul 09 08:55:00 IST 2015"
          }
        ]
      }
    ]
  }
}