<?xml version="1.0" standalone="no"?>
<!DOCTYPE svg PUBLIC "-//W3C//DTD SVG 1.1//EN" "http://www.w3.org/Graphics/SVG/1.1/DTD/svg11.dtd" >
<svg xmlns="http://www.w3.org/2000/svg">
<metadata>Generated by IcoMoon</metadata>
<defs>
<font id="sia-meals" horiz-adv-x="1024">
<font-face units-per-em="1024" ascent="960" descent="-64" />
<missing-glyph horiz-adv-x="1024" />
<glyph unicode="&#x20;" horiz-adv-x="512" d="" />
<glyph unicode="&#xe900;" glyph-name="amet" d="M596.992 829.952c-8.192 3.072-16.384 5.12-24.576 8.192-70.656 26.624-142.336 44.032-218.112 41.984-67.584-2.048-129.024-19.456-177.152-68.608-35.84-36.864-55.296-80.896-59.392-131.072-8.192-100.352 25.6-189.44 73.728-277.504 2.048 6.144 4.096 9.216 5.12 13.312 25.6 73.728 71.68 132.096 122.88 188.416 70.656 76.8 155.648 128 256 154.624 29.696 8.192 60.416 10.24 91.136 4.096 38.912-7.168 61.44-35.84 62.464-74.752 1.024-62.464-26.624-112.64-65.536-158.72-52.224-61.44-121.856-98.304-197.632-119.808-34.816-10.24-70.656-15.36-106.496-22.528-23.552-4.096-39.936-15.36-49.152-36.864-26.624-60.416-32.768-123.904-29.696-188.416 0-4.096 0-7.168 0-11.264 0-1.024-1.024-2.048-1.024-3.072-2.048 1.024-4.096 1.024-5.12 2.048-92.16 78.848-168.96 168.96-214.016 283.648-25.6 65.536-38.912 134.144-32.768 204.8 10.24 128 97.28 227.328 224.256 254.976 113.664 25.6 223.232 7.168 327.68-43.008 7.168-3.072 13.312-9.216 20.48-14.336-1.024-2.048-2.048-4.096-3.072-6.144zM624.64 660.992c0 1.024-1.024 6.144-2.048 11.264-4.096 21.504-15.36 30.72-36.864 26.624-13.312-3.072-27.648-7.168-39.936-13.312-36.864-18.432-65.536-47.104-92.16-77.824-35.84-41.984-66.56-87.040-87.040-138.24-2.048-5.12-1.024-11.264-2.048-16.384 5.12 0 11.264 0 16.384 1.024 11.264 3.072 21.504 7.168 31.744 11.264 50.176 18.432 99.328 37.888 142.336 69.632 41.984 29.696 68.608 69.632 69.632 125.952zM826.368 668.16c7.168-6.144 14.336-11.264 20.48-18.432 68.608-80.896 119.808-169.984 141.312-274.432 15.36-71.68 13.312-142.336-15.36-210.944-40.96-95.232-116.736-147.456-217.088-165.888-114.688-21.504-223.232 4.096-326.656 53.248-32.768 15.36-64.512 35.84-96.256 54.272-4.096 2.048-7.168 5.12-13.312 10.24 8.192 2.048 13.312 4.096 18.432 5.12 80.896 19.456 154.624 52.224 214.016 112.64 23.552 24.576 45.056 51.2 66.56 76.8 5.12 6.144 9.216 12.288 15.36 17.408 3.072 3.072 9.216 6.144 13.312 5.12 3.072-1.024 6.144-8.192 5.12-12.288-2.048-19.456-4.096-38.912-9.216-57.344-19.456-60.416-55.296-110.592-104.448-151.552-3.072-2.048-5.12-4.096-8.192-7.168-1.024-1.024-1.024-1.024-3.072-5.12 29.696-6.144 58.368-14.336 88.064-19.456 54.272-9.216 109.568-10.24 162.816 5.12 97.28 26.624 150.528 94.208 167.936 191.488 15.36 83.968-4.096 163.84-35.84 240.64-20.48 50.176-47.104 98.304-81.92 140.288-2.048 2.048-3.072 4.096-4.096 7.168 1.024 1.024 1.024 2.048 2.048 3.072z" />
<glyph unicode="&#xe901;" glyph-name="coffee" d="M83.968 250.368c16.384 3.072 30.72 7.168 46.080 9.216 64.512 9.216 129.024 8.192 193.536 7.168 13.312 0 26.624 0 39.936 0s24.576-4.096 34.816-12.288c0-1.024 0-2.048 0-3.072-16.384 0-32.768 0-49.152 0-63.488 2.048-126.976 2.048-189.44-7.168-44.032-7.168-40.96-6.144-21.504-40.96 65.536-115.712 161.792-192.512 292.864-219.136 125.952-24.576 237.568 10.24 336.896 90.112 44.032 35.84 79.872 79.872 107.52 130.048 2.048 3.072 3.072 6.144 7.168 13.312-92.16-49.152-187.392-73.728-286.72-78.848-119.808-6.144-273.408 11.264-294.912 32.768 14.336-3.072 26.624-5.12 38.912-7.168 82.944-15.36 165.888-20.48 249.856-13.312 104.448 9.216 201.728 38.912 290.816 95.232 2.048 1.024 3.072 2.048 8.192 5.12-18.432 2.048-34.816 3.072-51.2 4.096-56.32 4.096-111.616 3.072-167.936-3.072-14.336-2.048-26.624 4.096-38.912 14.336 14.336 1.024 28.672 3.072 43.008 4.096 80.896 5.12 160.768 1.024 239.616-12.288 31.744-6.144 32.768-7.168 19.456-36.864-64.512-129.024-163.84-217.088-308.224-249.856-87.040-19.456-172.032-8.192-254.976 20.48-99.328 34.816-183.296 93.184-246.784 178.176-16.384 23.552-29.696 49.152-38.912 79.872zM465.92 934.4c16.384-16.384 32.768-31.744 48.128-49.152 84.992-95.232 135.168-206.848 154.624-332.8 9.216-62.464 9.216-123.904-9.216-185.344-20.48-67.584-60.416-122.88-113.664-167.936-14.336-12.288-31.744-11.264-49.152-4.096-21.504 8.192-37.888 23.552-53.248 39.936-48.128 54.272-82.944 116.736-96.256 188.416-9.216 48.128-3.072 95.232 13.312 140.288 18.432 52.224 40.96 104.448 61.44 155.648 17.408 43.008 33.792 86.016 38.912 132.096 2.048 25.6 0 52.224 0 78.848 3.072 3.072 4.096 3.072 5.12 4.096zM481.28 910.848c0-4.096 0-6.144 0-8.192 5.12-51.2-3.072-100.352-21.504-147.456s-38.912-94.208-58.368-141.312c-19.456-46.080-34.816-92.16-37.888-142.336-5.12-87.040 26.624-160.768 80.896-226.304 11.264-13.312 26.624-23.552 40.96-31.744 15.36-8.192 32.768-6.144 46.080 6.144 28.672 25.6 55.296 53.248 75.776 87.040 50.176 82.944 59.392 173.056 45.056 266.24-11.264 75.776-37.888 146.432-73.728 214.016-24.576 46.080-54.272 89.088-97.28 123.904zM498.688 729.6c8.192-8.192 15.36-14.336 21.504-22.528 26.624-35.84 52.224-72.704 66.56-115.712 28.672-90.112 27.648-178.176-15.36-263.168-9.216-18.432-23.552-34.816-35.84-52.224-5.12-7.168-9.216-8.192-17.408-4.096-41.984 20.48-67.584 54.272-84.992 95.232-21.504 51.2-18.432 102.4-3.072 153.6 12.288 41.984 29.696 81.92 43.008 122.88 8.192 24.576 14.336 50.176 21.504 75.776 1.024 2.048 2.048 4.096 4.096 10.24zM515.072 698.88c-5.12-18.432-9.216-34.816-15.36-51.2-15.36-44.032-32.768-87.040-48.128-131.072-16.384-48.128-21.504-98.304-6.144-148.48 10.24-31.744 25.6-59.392 53.248-79.872 8.192-5.12 13.312-5.12 19.456 3.072 8.192 13.312 18.432 24.576 25.6 37.888 43.008 73.728 50.176 153.6 32.768 236.544-9.216 50.176-29.696 93.184-61.44 133.12zM433.152 595.456c-7.168-26.624-10.24-29.696-31.744-20.48 8.192 26.624 5.12 28.672 31.744 20.48zM479.232 773.632c-1.024 26.624-1.024 26.624 22.528 29.696 4.096-19.456 0-26.624-22.528-29.696zM492.544 850.432c21.504 4.096 23.552 2.048 26.624-20.48-21.504-6.144-26.624-2.048-26.624 20.48zM637.952 487.936c-19.456 4.096-22.528 8.192-24.576 28.672 18.432 0 23.552-6.144 24.576-28.672zM465.92 723.456c2.048 23.552 4.096 26.624 22.528 29.696 3.072-16.384-3.072-24.576-22.528-29.696zM638.976 443.904c-20.48-1.024-22.528 1.024-23.552 18.432 17.408 3.072 24.576-3.072 23.552-18.432zM380.928 482.816c0 17.408 4.096 21.504 22.528 22.528 0-14.336-4.096-19.456-22.528-22.528zM397.312 550.4c7.168-4.096 14.336-7.168 20.48-11.264-8.192-15.36-14.336-15.36-28.672 1.024 2.048 3.072 4.096 6.144 8.192 10.24zM420.864 631.296c3.072 14.336 9.216 16.384 26.624 9.216-3.072-14.336-7.168-16.384-26.624-9.216zM558.080 752.128c-16.384 0-25.6 7.168-31.744 20.48 15.36 1.024 23.552-4.096 31.744-20.48zM598.016 667.136c-16.384 5.12-22.528 12.288-26.624 30.72 15.36-4.096 21.504-15.36 26.624-30.72zM622.592 548.352c-13.312 10.24-15.36 23.552-15.36 37.888 12.288-5.12 14.336-10.24 15.36-37.888zM449.536 672.256c-5.12 13.312-3.072 25.6 7.168 35.84 6.144-14.336 4.096-24.576-7.168-35.84zM606.208 646.656c-1.024-11.264-1.024-22.528-2.048-33.792-1.024 0-2.048 0-4.096 0-3.072 11.264-5.12 23.552 2.048 33.792 2.048 0 3.072 0 4.096 0zM556.032 735.744c4.096-8.192 8.192-16.384 12.288-25.6-2.048-1.024-3.072-2.048-5.12-2.048-4.096 8.192-8.192 16.384-13.312 24.576 3.072 1.024 5.12 2.048 6.144 3.072zM521.216 815.616c5.12-6.144 9.216-13.312 14.336-19.456-1.024-1.024-3.072-2.048-4.096-3.072-5.12 6.144-9.216 13.312-14.336 19.456 2.048 1.024 3.072 2.048 4.096 3.072zM515.072 569.856c50.176-73.728 56.32-173.056-5.12-239.616-45.056 32.768-57.344 84.992-30.72 133.12 5.12 10.24 12.288 20.48 17.408 30.72 14.336 22.528 25.6 47.104 18.432 75.776z" />
<glyph unicode="&#xe902;" glyph-name="cook" d="M205.824 56.832c13.312 36.864 24.576 70.656 36.864 105.472 4.096 0 8.192 0 12.288 0 171.008 0 343.040 0 514.048 0 9.216 0 13.312-2.048 16.384-12.288 10.24-30.72 21.504-61.44 32.768-94.208-204.8-14.336-407.552-14.336-612.352 1.024zM649.216 571.904c25.6-12.288 49.152-24.576 74.752-36.864 25.6 33.792 48.128 68.608 48.128 113.664 0 43.008-12.288 81.92-36.864 119.808 29.696-10.24 58.368-72.704 59.392-121.856 2.048-50.176-19.456-89.088-52.224-124.928 10.24-8.192 20.48-16.384 30.72-24.576 65.536-55.296 112.64-122.88 145.408-200.704 6.144-14.336 2.048-19.456-13.312-20.48-36.864-4.096-59.392 10.24-73.728 45.056-25.6 59.392-61.44 111.616-106.496 157.696-4.096 4.096-6.144 9.216-10.24 13.312-27.648-27.648-51.2-54.272-68.608-83.968-18.432-30.72-27.648-63.488-32.768-99.328-2.048 0-3.072 1.024-5.12 1.024 0 4.096-1.024 9.216 0 13.312 8.192 54.272 32.768 101.376 64.512 145.408 8.192 11.264 17.408 22.528 26.624 35.84-22.528 15.36-45.056 29.696-67.584 45.056-29.696-37.888-59.392-72.704-81.92-112.64s-34.816-82.944-44.032-126.976c-2.048 0-4.096 1.024-5.12 1.024 0 4.096-1.024 8.192 0 12.288 10.24 61.44 33.792 118.784 66.56 172.032 12.288 20.48 25.6 40.96 38.912 64.512-13.312 4.096-25.6 8.192-37.888 11.264-82.944 17.408-162.816 11.264-236.544-34.816-48.128-29.696-81.92-73.728-109.568-121.856-17.408-30.72-31.744-63.488-46.080-96.256-13.312-29.696-37.888-44.032-69.632-40.96-10.24 1.024-7.168 7.168-5.12 13.312 19.456 44.032 41.984 84.992 71.68 122.88 58.368 76.8 129.024 135.168 222.208 164.864 26.624 8.192 55.296 13.312 82.944 19.456-10.24 21.504-8.192 41.984 14.336 56.32 16.384 10.24 36.864 8.192 51.2-4.096 15.36-13.312 18.432-28.672 8.192-54.272 21.504-4.096 44.032-8.192 66.56-13.312 47.104 89.088 34.816 179.2-1.024 268.288 27.648-9.216 75.776-89.088 78.848-131.072 3.072-55.296-15.36-103.424-47.104-147.456zM25.6 243.2c324.608 0 648.192 0 970.752 0 1.024-1.024 1.024-2.048 2.048-3.072-8.192-8.192-16.384-17.408-25.6-23.552-26.624-19.456-56.32-25.6-88.064-27.648-7.168-1.024-14.336 0-21.504 0-234.496 0-467.968 0-702.464 0-29.696 0-59.392 4.096-87.040 16.384-19.456 7.168-35.84 19.456-48.128 37.888z" />
<glyph unicode="&#xe903;" glyph-name="fork" d="M647.168 416.256c14.336-6.144 29.696-6.144 45.056-1.024 27.648 8.192 39.936 28.672 33.792 56.32 0 1.024 0 3.072-1.024 4.096 43.008 7.168 70.656 51.2 74.752 90.112 2.048 24.576-3.072 48.128-18.432 67.584s-35.84 30.72-60.416 37.888c2.048 2.048 4.096 4.096 6.144 6.144 30.72 34.816 43.008 74.752 30.72 119.808-12.288 43.008-44.032 67.584-87.040 74.752-36.864 6.144-69.632-4.096-97.28-28.672-1.024-1.024-2.048-2.048-3.072-2.048 0 0-1.024 0 0 0-12.288 10.24-22.528 21.504-35.84 30.72-67.584 48.128-150.528 22.528-186.368-16.384-20.48-21.504-30.72-47.104-33.792-75.776-3.072-23.552-2.048-47.104 3.072-70.656 0-1.024 0-1.024 0-2.048-17.408-1.024-33.792-3.072-49.152-10.24-44.032-18.432-60.416-68.608-33.792-108.544 13.312-20.48 31.744-36.864 55.296-45.056-9.216-23.552-13.312-48.128 2.048-70.656 14.336-22.528 37.888-29.696 62.464-32.768-26.624-6.144-50.176-3.072-70.656 16.384-25.6 23.552-27.648 51.2-11.264 81.92-6.144 3.072-12.288 5.12-17.408 7.168-18.432 9.216-34.816 20.48-46.080 38.912-26.624 40.96-11.264 115.712 54.272 133.12 5.12 1.024 11.264 2.048 17.408 3.072 5.12 1.024 11.264 0 17.408 0-1.024 3.072-1.024 4.096-2.048 6.144-13.312 38.912-14.336 77.824 1.024 115.712 18.432 43.008 51.2 70.656 95.232 83.968 56.32 17.408 109.568 8.192 156.672-32.768 9.216-7.168 16.384-17.408 23.552-25.6 8.192 6.144 17.408 13.312 26.624 19.456 48.128 29.696 107.52 26.624 150.528-8.192 28.672-22.528 41.984-53.248 43.008-89.088 1.024-29.696-3.072-57.344-19.456-82.944-6.144-9.216-14.336-18.432-20.48-26.624 54.272-21.504 80.896-61.44 75.776-120.832-5.12-53.248-40.96-78.848-89.088-91.136 1.024-2.048 1.024-5.12 2.048-7.168 7.168-27.648-8.192-52.224-35.84-58.368-22.528-7.168-41.984-3.072-58.368 13.312zM539.648-38.4c-18.432 0-36.864 0-55.296 0 0 3.072-1.024 6.144 0 9.216 1.024 88.064 1.024 106.496 2.048 195.584 0 26.624-2.048 53.248-2.048 78.848 0 5.12-2.048 7.168-7.168 9.216-18.432 8.192-36.864 16.384-54.272 26.624-16.384 9.216-24.576 23.552-23.552 44.032 3.072 59.392 4.096 119.808 5.12 180.224 1.024 66.56 0 87.040 1.024 153.6 0 20.48 3.072 39.936 7.168 60.416 1.024 5.12 6.144 13.312 9.216 14.336 8.192 1.024 9.216-8.192 10.24-14.336 3.072-18.432 6.144-36.864 7.168-55.296 1.024-70.656 0-94.208 0-164.864 0-13.312 5.12-20.48 18.432-22.528 6.144-1.024 13.312-1.024 20.48 0 12.288 2.048 17.408 9.216 17.408 21.504 0 71.68 0 96.256 0 166.912 0 18.432 3.072 36.864 6.144 54.272 1.024 5.12 6.144 9.216 9.216 14.336 4.096-5.12 9.216-9.216 10.24-14.336 3.072-19.456 7.168-38.912 7.168-59.392 1.024-69.632 0-93.184 0-163.84 0-11.264 4.096-17.408 14.336-19.456 8.192-2.048 17.408-1.024 26.624 0 10.24 2.048 14.336 9.216 14.336 19.456 0 74.752 0 102.4 0 177.152 0 14.336 3.072 27.648 5.12 40.96 1.024 4.096 2.048 9.216 4.096 12.288 1.024 2.048 4.096 5.12 7.168 5.12 2.048 0 5.12-3.072 6.144-5.12 3.072-11.264 7.168-23.552 8.192-34.816 2.048-15.36 2.048-30.72 2.048-46.080 0-60.416 0-74.752 1.024-135.168 1.024-64.512 4.096-128 6.144-192.512 0-14.336-5.12-24.576-15.36-33.792-18.432-15.36-38.912-24.576-61.44-31.744-8.192-3.072-10.24-6.144-10.24-14.336 0-88.064 0-106.496 0-195.584 0-25.6 1.024-51.2 2.048-77.824 2.048 1.024 1.024 0 1.024-3.072z" />
<glyph unicode="&#xe904;" glyph-name="fork-1" d="M662.528 359.936c16.384-6.144 32.768-6.144 50.176-2.048 30.72 9.216 44.032 31.744 37.888 62.464 0 1.024 0 3.072-1.024 5.12 48.128 8.192 78.848 57.344 82.944 100.352 2.048 27.648-3.072 53.248-20.48 74.752s-39.936 34.816-66.56 41.984c3.072 3.072 5.12 5.12 7.168 7.168 33.792 38.912 47.104 82.944 33.792 133.12-13.312 48.128-48.128 74.752-97.28 82.944-40.96 6.144-76.8-5.12-107.52-31.744-1.024-1.024-2.048-2.048-3.072-3.072 0 0-1.024 0 0 0-13.312 11.264-25.6 23.552-38.912 33.792-76.8 54.272-168.96 24.576-208.896-18.432-22.528-23.552-33.792-52.224-37.888-83.968-3.072-26.624-2.048-52.224 3.072-78.848 0-1.024 0-2.048 0-3.072-19.456-1.024-37.888-4.096-55.296-11.264-49.152-20.48-66.56-75.776-37.888-120.832 15.36-23.552 34.816-40.96 61.44-50.176-10.24-26.624-14.336-53.248 2.048-78.848 16.384-24.576 41.984-32.768 69.632-36.864-28.672-7.168-56.32-3.072-78.848 18.432-27.648 26.624-30.72 57.344-12.288 91.136-7.168 3.072-13.312 5.12-19.456 8.192-20.48 10.24-38.912 23.552-51.2 43.008-29.696 45.056-13.312 128 60.416 147.456 6.144 2.048 12.288 3.072 19.456 3.072 6.144 1.024 12.288 0 19.456 0-1.024 3.072-1.024 5.12-2.048 7.168-14.336 43.008-16.384 86.016 1.024 129.024 19.456 48.128 57.344 77.824 105.472 93.184 64.512 20.48 123.904 9.216 175.104-34.816 10.24-8.192 17.408-19.456 26.624-28.672 9.216 7.168 19.456 14.336 29.696 21.504 53.248 33.792 119.808 29.696 166.912-9.216 31.744-25.6 46.080-59.392 48.128-98.304 2.048-32.768-4.096-64.512-21.504-92.16-6.144-10.24-15.36-19.456-23.552-29.696 59.392-23.552 90.112-67.584 83.968-134.144-6.144-59.392-45.056-87.040-99.328-101.376 1.024-3.072 1.024-5.12 2.048-8.192 7.168-30.72-8.192-57.344-39.936-65.536-23.552-6.144-45.056-1.024-63.488 17.408zM531.456-38.4c-12.288 0-24.576 0-37.888 0 0 2.048 0 4.096 0 6.144 0 60.416 1.024 120.832 1.024 181.248 0 18.432-1.024 35.84-1.024 54.272 0 4.096-1.024 5.12-5.12 6.144-12.288 6.144-24.576 11.264-36.864 18.432-11.264 6.144-16.384 16.384-16.384 29.696 2.048 40.96 3.072 81.92 3.072 122.88 1.024 45.056 0 91.136 0 136.192 0 13.312 2.048 27.648 4.096 40.96 1.024 4.096 4.096 9.216 6.144 9.216 5.12 1.024 6.144-5.12 7.168-9.216 2.048-12.288 4.096-25.6 4.096-37.888 1.024-48.128 0-96.256 0-143.36 0-9.216 3.072-14.336 12.288-15.36 4.096-1.024 9.216-1.024 13.312 0 8.192 1.024 11.264 6.144 11.264 14.336 0 48.128 0 97.28 0 145.408 0 12.288 2.048 24.576 4.096 36.864 1.024 3.072 4.096 6.144 6.144 9.216 2.048-3.072 6.144-6.144 7.168-9.216 2.048-13.312 5.12-26.624 5.12-39.936 1.024-48.128 0-95.232 0-143.36 0-7.168 3.072-12.288 10.24-13.312 6.144-1.024 12.288-1.024 17.408 0 7.168 1.024 9.216 6.144 9.216 13.312 0 51.2 0 101.376 0 152.576 0 9.216 2.048 18.432 3.072 28.672 0 3.072 1.024 6.144 3.072 8.192 1.024 2.048 3.072 3.072 5.12 4.096 1.024 0 4.096-2.048 4.096-3.072 2.048-8.192 5.12-16.384 6.144-23.552 1.024-10.24 1.024-20.48 1.024-31.744 0-40.96 0-82.944 1.024-123.904 1.024-44.032 2.048-87.040 4.096-131.072 0-9.216-3.072-16.384-10.24-22.528-12.288-10.24-26.624-16.384-41.984-21.504-5.12-2.048-7.168-4.096-7.168-10.24 0-60.416 0-120.832 0-181.248 0-17.408 1.024-34.816 1.024-53.248 6.144-1.024 6.144-2.048 6.144-4.096z" />
<glyph unicode="&#xe905;" glyph-name="heart" d="M547.84 776.704c4.096 5.12 8.192 10.24 12.288 14.336 32.768 30.72 71.68 48.128 114.688 58.368 53.248 13.312 107.52 14.336 160.768-1.024 89.088-25.6 148.48-94.208 158.72-186.368 15.36-140.288-25.6-265.216-110.592-375.808-76.8-100.352-177.152-172.032-284.672-234.496-52.224-30.72-99.328-27.648-150.528 1.024-77.824 45.056-155.648 89.088-224.256 148.48-92.16 79.872-159.744 174.080-186.368 294.912-12.288 56.32-19.456 113.664-6.144 171.008 19.456 86.016 72.704 144.384 153.6 175.104 105.472 39.936 204.8 29.696 292.864-46.080 35.84-30.72 57.344-71.68 69.632-115.712 2.048-5.12-2.048-12.288-3.072-18.432-5.12 4.096-12.288 6.144-15.36 11.264-9.216 14.336-15.36 28.672-24.576 43.008-50.176 79.872-122.88 111.616-216.064 92.16-98.304-20.48-167.936-95.232-174.080-190.464-4.096-62.464 3.072-124.928 23.552-184.32 30.72-93.184 86.016-169.984 156.672-235.52 59.392-55.296 125.952-100.352 198.656-137.216 25.6-13.312 51.2-15.36 76.8 0 174.080 100.352 295.936 240.64 342.016 440.32 12.288 53.248 19.456 108.544 9.216 162.816-16.384 101.376-101.376 167.936-205.824 165.888-56.32-1.024-107.52-18.432-153.6-51.2-3.072-2.048-7.168-4.096-11.264-6.144-1.024 1.024-2.048 3.072-3.072 4.096z" />
<glyph unicode="&#xe906;" glyph-name="info" d="M25.6 454.144c1.024 3.072 1.024 5.12 2.048 8.192 3.072 8.192 8.192 16.384 15.36 22.528 15.36 14.336 29.696 28.672 45.056 44.032 33.792 32.768 68.608 66.56 102.4 99.328 21.504 20.48 43.008 41.984 64.512 62.464 31.744 30.72 63.488 61.44 94.208 92.16 22.528 21.504 44.032 43.008 66.56 63.488 23.552 22.528 47.104 45.056 69.632 66.56 7.168 7.168 15.36 12.288 24.576 14.336 3.072 0 6.144 0 9.216 0 12.288-2.048 19.456-10.24 27.648-18.432 28.672-28.672 57.344-57.344 86.016-84.992 31.744-31.744 63.488-63.488 95.232-95.232 30.72-30.72 61.44-61.44 92.16-92.16 31.744-31.744 64.512-64.512 96.256-96.256 23.552-22.528 46.080-46.080 69.632-68.608 9.216-9.216 14.336-21.504 10.24-34.816-2.048-6.144-5.12-11.264-10.24-16.384-17.408-17.408-34.816-34.816-51.2-51.2-125.952-126.976-253.952-253.952-380.928-380.928-7.168-7.168-14.336-13.312-23.552-16.384-18.432-7.168-34.816-2.048-48.128 11.264-29.696 28.672-58.368 57.344-88.064 86.016-40.96 39.936-80.896 78.848-121.856 118.784-34.816 34.816-70.656 68.608-105.472 103.424-39.936 38.912-79.872 77.824-119.808 116.736-10.24 10.24-19.456 21.504-22.528 36.864 1.024 2.048 1.024 5.12 1.024 9.216zM515.072 23.040c2.048 0 5.12 0 7.168 1.024 11.264 2.048 20.48 8.192 28.672 16.384 18.432 17.408 36.864 35.84 55.296 53.248 22.528 21.504 45.056 44.032 67.584 65.536 33.792 32.768 68.608 65.536 102.4 99.328 26.624 25.6 53.248 51.2 79.872 76.8 32.768 31.744 65.536 63.488 98.304 95.232 3.072 3.072 5.12 7.168 6.144 12.288 1.024 8.192-3.072 14.336-8.192 20.48-23.552 24.576-47.104 49.152-71.68 72.704-39.936 38.912-79.872 78.848-120.832 117.76-24.576 23.552-48.128 47.104-72.704 70.656-30.72 29.696-61.44 59.392-93.184 89.088-20.48 19.456-41.984 39.936-62.464 59.392-10.24 9.216-21.504 9.216-31.744 0-66.56-62.464-134.144-124.928-200.704-187.392-71.68-66.56-143.36-133.12-215.040-200.704-6.144-5.12-11.264-11.264-15.36-17.408-9.216-14.336-7.168-30.72 5.12-41.984 62.464-57.344 124.928-114.688 187.392-173.056 50.176-46.080 99.328-92.16 148.48-139.264 26.624-25.6 52.224-51.2 78.848-76.8 8.192-8.192 16.384-13.312 26.624-13.312zM567.296 531.968c4.096-2.048 7.168-4.096 11.264-6.144 47.104-25.6 93.184-51.2 138.24-80.896 33.792-21.504 68.608-38.912 106.496-50.176 9.216-3.072 18.432-5.12 28.672-8.192 3.072-1.024 5.12-2.048 8.192-3.072 4.096-2.048 4.096-4.096 1.024-8.192 0 0 0-1.024-1.024-1.024-14.336-12.288-28.672-23.552-47.104-26.624-23.552-5.12-46.080-1.024-64.512 15.36-10.24 9.216-20.48 18.432-30.72 28.672-30.72 28.672-63.488 53.248-98.304 76.8-33.792 22.528-68.608 43.008-104.448 61.44-3.072 1.024-4.096 1.024-6.144-1.024-39.936-49.152-86.016-91.136-140.288-122.88-36.864-21.504-74.752-39.936-116.736-53.248-15.36-5.12-31.744-7.168-48.128-5.12-7.168 1.024-14.336 3.072-20.48 6.144-8.192 5.12-11.264 11.264-10.24 19.456 1.024 9.216 6.144 14.336 15.36 17.408 4.096 1.024 9.216 1.024 13.312 2.048 23.552 3.072 46.080 8.192 68.608 15.36 37.888 12.288 73.728 25.6 108.544 44.032 26.624 14.336 51.2 30.72 71.68 52.224 7.168 7.168 13.312 14.336 19.456 21.504 0 0 0 1.024-1.024 1.024-6.144 0-11.264-1.024-17.408-1.024-23.552-3.072-47.104-5.12-70.656-8.192s-48.128-7.168-70.656-14.336c-8.192-2.048-16.384-3.072-24.576-5.12-1.024 0-2.048 0-3.072 0-10.24 1.024-13.312 6.144-10.24 15.36 11.264 25.6 25.6 35.84 51.2 36.864 21.504 0 41.984-1.024 63.488 0 26.624 1.024 54.272 2.048 80.896 3.072 5.12 0 11.264 0 16.384 0 0 16.384 0 31.744 0 47.104-6.144 0-13.312 0-19.456 0-22.528-1.024-45.056-2.048-67.584-4.096-15.36-1.024-29.696-4.096-44.032-6.144-7.168-1.024-13.312-1.024-20.48 0-9.216 2.048-12.288 10.24-6.144 18.432 5.12 7.168 13.312 11.264 21.504 14.336 13.312 4.096 26.624 5.12 40.96 5.12 30.72 0 62.464 0 93.184-1.024 3.072 0 4.096 1.024 4.096 4.096 0 13.312 0 26.624 0 39.936-4.096 0-8.192 0-12.288 0-25.6-1.024-52.224-2.048-77.824-4.096-13.312-1.024-26.624-3.072-39.936-5.12-8.192-1.024-16.384-1.024-24.576 1.024-7.168 2.048-11.264 7.168-10.24 14.336 0 3.072 2.048 5.12 3.072 8.192 1.024 1.024 2.048 3.072 4.096 3.072 15.36 8.192 30.72 14.336 49.152 12.288 20.48-3.072 40.96-2.048 61.44-3.072 14.336 0 28.672-1.024 43.008-1.024 2.048 0 4.096 0 6.144 0 1.024 7.168 1.024 14.336 2.048 21.504 1.024 8.192 2.048 17.408 7.168 24.576 5.12 8.192 13.312 10.24 21.504 5.12 3.072-2.048 5.12-5.12 7.168-7.168 7.168-9.216 9.216-20.48 9.216-31.744 0-4.096 0-8.192 0-12.288 2.048 0 3.072 0 4.096 0 45.056 0 89.088 0 134.144 0 9.216 0 19.456-2.048 28.672-2.048 1.024 0 2.048 0 3.072-1.024 6.144-2.048 8.192-4.096 8.192-9.216 0-7.168-3.072-12.288-9.216-13.312-10.24-1.024-19.456-2.048-29.696-2.048-21.504 0-43.008 1.024-64.512 1.024-24.576 1.024-49.152 1.024-73.728 2.048-1.024 0-2.048 0-3.072 0-1.024-14.336-2.048-28.672-2.048-43.008 7.168 0 13.312 0 20.48 0 19.456 0 38.912 1.024 58.368 1.024s38.912 1.024 58.368 1.024c5.12 0 10.24 0 15.36-1.024 6.144-1.024 9.216-3.072 10.24-9.216 1.024-7.168-1.024-13.312-7.168-16.384-4.096-2.048-9.216-3.072-14.336-3.072-11.264 0-20.48 0-30.72 0-16.384 0-33.792 1.024-50.176 1.024-19.456 0-37.888 0-57.344 0-1.024 0-3.072 0-5.12 0-1.024-15.36-1.024-30.72-2.048-45.056 7.168 0 13.312 0 19.456 0 20.48 0 41.984 0 62.464 0 11.264 0 22.528 0 32.768 0 31.744-1.024 62.464-1.024 94.208-3.072 9.216 0 19.456-2.048 28.672-4.096 12.288-3.072 14.336-9.216 5.12-18.432-3.072-3.072-6.144-6.144-9.216-9.216-9.216-8.192-19.456-11.264-31.744-8.192s-24.576 6.144-36.864 8.192c-23.552 5.12-48.128 7.168-72.704 8.192-16.384 1.024-32.768 1.024-50.176 1.024 1.024 0 0 0-2.048 0 0 0 0 0 0 0zM387.072 217.6c1.024 14.336 2.048 26.624 3.072 38.912 0 17.408 0 34.816-1.024 53.248-1.024 21.504-4.096 43.008-6.144 64.512-1.024 5.12-2.048 11.264-2.048 16.384-1.024 16.384 6.144 26.624 22.528 30.72 8.192 2.048 17.408 2.048 26.624 2.048 30.72 0 60.416 0 91.136 0 19.456 0 39.936 1.024 59.392 1.024 12.288 0 23.552 1.024 35.84 1.024 10.24 0 20.48-1.024 29.696-4.096 15.36-5.12 22.528-16.384 21.504-32.768-1.024-11.264-3.072-22.528-6.144-33.792-4.096-19.456-6.144-39.936-6.144-59.392 0-14.336 1.024-28.672 2.048-43.008 0-9.216 0-18.432-3.072-27.648-5.12-15.36-16.384-23.552-32.768-22.528-7.168 1.024-14.336 2.048-21.504 4.096-11.264 4.096-23.552 6.144-35.84 6.144-35.84 1.024-71.68-2.048-106.496-11.264-11.264-3.072-21.504-7.168-31.744-11.264-6.144-2.048-11.264-3.072-17.408-4.096-10.24-1.024-17.408 4.096-20.48 13.312-1.024 8.192-1.024 14.336-1.024 18.432zM423.936 305.664c0-1.024 0-2.048 0-3.072 0-8.192 0-16.384 1.024-24.576 1.024-11.264 1.024-22.528 3.072-33.792 1.024-6.144 5.12-10.24 11.264-11.264 6.144 0 11.264 0 17.408 0 11.264 1.024 23.552 3.072 34.816 4.096 31.744 2.048 63.488 3.072 96.256 5.12 6.144 0 13.312 1.024 19.456 2.048 5.12 1.024 8.192 4.096 9.216 9.216 1.024 4.096 1.024 8.192 1.024 11.264 0 11.264 0 22.528 0 33.792 0 4.096 0 8.192 0 13.312-65.536 0-129.024-3.072-193.536-6.144zM616.448 337.408c0 1.024 0 1.024 0 2.048 0 11.264 1.024 22.528 1.024 33.792 1.024 13.312-5.12 21.504-18.432 24.576-14.336 4.096-29.696 4.096-45.056 4.096-31.744 0-62.464-2.048-94.208-5.12-9.216-1.024-18.432-3.072-27.648-5.12-4.096-1.024-7.168-4.096-8.192-8.192 0-2.048-1.024-4.096-1.024-5.12 0-14.336-1.024-28.672-1.024-43.008 0-2.048 1.024-2.048 3.072-2.048 39.936 1.024 80.896 3.072 120.832 4.096 21.504 1.024 44.032 0 65.536 0 2.048 0 3.072 0 5.12 0z" />
<glyph unicode="&#xe907;" glyph-name="leaf" d="M202.752 261.632c-25.6-55.296-43.008-110.592-56.32-166.912-4.096-17.408-7.168-34.816-11.264-52.224-9.216-38.912-51.2-75.776-93.184-80.896 6.144 118.784 33.792 232.448 84.992 338.944 66.56 139.264 165.888 247.808 301.056 321.536 79.872 43.008 165.888 71.68 254.976 86.016 1.024-2.048 2.048-4.096 3.072-6.144-6.144-3.072-11.264-8.192-17.408-9.216-53.248-15.36-104.448-34.816-153.6-61.44-113.664-60.416-204.8-143.36-262.144-260.096-10.24-20.48-17.408-41.984-26.624-63.488-8.192-21.504-6.144-41.984 4.096-61.44 29.696-56.32 77.824-86.016 140.288-93.184 50.176-6.144 96.256 9.216 138.24 35.84 166.912 107.52 284.672 250.88 342.016 441.344 18.432 59.392 28.672 120.832 29.696 182.272 0 5.12 0 10.24 0 18.432-15.36-1.024-28.672-2.048-41.984-4.096-139.264-16.384-277.504-39.936-411.648-80.896-58.368-17.408-114.688-38.912-167.936-67.584-49.152-27.648-93.184-62.464-126.976-108.544-44.032-60.416-57.344-124.928-21.504-194.56 1.024-2.048 1.024-3.072 2.048-5.12 0-1.024 0-2.048-1.024-6.144-7.168 5.12-13.312 9.216-17.408 14.336-29.696 31.744-44.032 70.656-50.176 112.64-13.312 87.040 21.504 155.648 90.112 208.896 57.344 45.056 124.928 69.632 194.56 87.040 96.256 25.6 195.584 35.84 294.912 38.912 76.8 3.072 148.48 22.528 218.112 51.2 35.84 15.36 70.656 32.768 105.472 49.152 10.24 4.096 20.48 12.288 30.72 4.096 10.24-9.216 4.096-21.504 0-31.744-41.984-116.736-81.92-233.472-125.952-349.184-36.864-98.304-83.968-191.488-148.48-274.432-48.128-61.44-105.472-113.664-181.248-140.288-62.464-21.504-124.928-23.552-188.416-5.12-62.464 18.432-105.472 59.392-126.976 120.832 0 3.072-1.024 6.144-4.096 11.264z" />
<glyph unicode="&#xe908;" glyph-name="pine" d="M526.336 934.4c0-25.6 0-51.2 0-78.848 44.032 0 83.968 0 124.928 0 0-2.048 1.024-3.072 1.024-5.12-34.816-12.288-69.632-24.576-105.472-37.888 6.144-26.624 12.288-51.2 17.408-77.824-21.504 17.408-41.984 34.816-62.464 53.248-21.504-17.408-40.96-33.792-64.512-53.248 10.24 30.72 19.456 57.344 28.672 86.016-20.48 6.144-37.888 12.288-56.32 18.432 0 1.024 0 2.048 0 3.072 20.48 6.144 40.96 10.24 61.44 17.408 7.168 2.048 15.36 8.192 19.456 15.36 11.264 18.432 21.504 38.912 32.768 59.392 1.024 0 2.048 0 3.072 0zM361.472 296.448c-34.816 6.144-66.56 13.312-98.304 18.432-24.576 4.096-40.96 18.432-56.32 38.912 82.944 20.48 156.672 56.32 208.896 133.12-31.744 0-59.392 0-87.040 0-26.624 0-44.032 14.336-59.392 35.84 103.424 44.032 192.512 102.4 223.232 224.256 14.336-17.408 27.648-31.744 37.888-48.128 33.792-52.224 71.68-101.376 124.928-136.192 12.288-8.192 24.576-17.408 38.912-20.48 24.576-6.144 31.744-23.552 39.936-45.056-37.888 0-74.752 0-111.616 0-1.024-2.048-2.048-3.072-3.072-5.12 20.48-20.48 38.912-43.008 61.44-59.392 27.648-20.48 58.368-37.888 89.088-54.272 25.6-13.312 29.696-16.384 36.864-51.2-44.032 0-88.064 0-131.072 0 0-3.072-1.024-4.096-1.024-5.12 45.056-49.152 94.208-93.184 155.648-120.832 5.12-2.048 11.264-5.12 17.408-6.144 19.456-2.048 26.624-14.336 29.696-28.672-96.256-11.264-191.488-22.528-286.72-32.768 0-56.32 0-108.544 0-165.888-37.888-2.048-78.848-3.072-122.88-5.12 0 52.224 0 102.4 0 152.576-26.624-1.024-50.176-2.048-73.728-3.072-62.464-3.072-123.904 3.072-184.32 15.36-26.624 5.12-52.224 8.192-65.536 36.864 78.848-13.312 126.976 37.888 175.104 86.016 16.384 14.336 28.672 30.72 41.984 46.080zM798.72 183.808c-59.392 35.84-107.52 83.968-151.552 135.168-11.264 12.288-15.36 25.6-10.24 40.96 35.84-3.072 69.632-5.12 104.448-8.192 0 2.048 1.024 4.096 1.024 5.12-7.168 4.096-14.336 7.168-20.48 12.288-28.672 23.552-58.368 47.104-86.016 72.704-14.336 13.312-23.552 31.744-36.864 46.080-11.264 12.288-11.264 24.576-7.168 40.96 20.48 0 39.936 0 64.512 0-59.392 41.984-100.352 94.208-136.192 153.6-28.672-77.824-84.992-125.952-151.552-165.888 19.456 2.048 39.936 4.096 57.344 11.264 19.456 7.168 27.648-8.192 38.912-16.384 10.24-8.192 6.144-17.408 2.048-26.624-18.432-45.056-49.152-79.872-89.088-105.472-25.6-16.384-53.248-29.696-79.872-44.032 31.744-6.144 62.464-2.048 92.16 11.264 10.24 5.12 17.408 3.072 24.576-3.072 5.12-5.12 11.264-9.216 15.36-14.336 3.072-4.096 4.096-12.288 2.048-15.36-40.96-63.488-89.088-120.832-153.6-162.816-8.192-5.12-16.384-9.216-27.648-15.36 18.432-1.024 32.768-3.072 47.104-4.096 86.016-4.096 171.008 5.12 256 18.432 79.872 11.264 161.792 22.528 244.736 33.792z" />
<glyph unicode="&#xe909;" glyph-name="salmon" d="M483.328 934.4c1.024-2.048 2.048-3.072 3.072-4.096 81.92-69.632 86.016-180.224 37.888-260.096-20.48-34.816-47.104-66.56-72.704-98.304-40.96-51.2-77.824-104.448-96.256-167.936-4.096-14.336-7.168-27.648-10.24-41.984-1.024-4.096-3.072-8.192-5.12-12.288-1.024 0-3.072 1.024-4.096 1.024 0 6.144 0 12.288 1.024 18.432 12.288 58.368 33.792 113.664 66.56 163.84 19.456 29.696 38.912 58.368 58.368 88.064 30.72 47.104 52.224 98.304 51.2 156.672-3.072 52.224-12.288 103.424-37.888 151.552-1.024 2.048-1.024 4.096-2.048 5.12 4.096 0 7.168 0 10.24 0zM377.856 698.88c-4.096-4.096-8.192-8.192-12.288-11.264-63.488-47.104-113.664-104.448-147.456-176.128-25.6-53.248-39.936-109.568-35.84-168.96 2.048-21.504 7.168-41.984 11.264-63.488 1.024-3.072 4.096-7.168 7.168-8.192 38.912-18.432 80.896-28.672 124.928-36.864 3.072 27.648-4.096 55.296 6.144 80.896 1.024 0 3.072 0 4.096 0 1.024-5.12 1.024-9.216 1.024-14.336 1.024-20.48 1.024-40.96 3.072-61.44 0-3.072 4.096-9.216 7.168-9.216 51.2-4.096 101.376-8.192 152.576-12.288 1.024 0 1.024 1.024 2.048 1.024 6.144 20.48 1.024 45.056 14.336 63.488 2.048 0 3.072 0 5.12-1.024-2.048-20.48-4.096-41.984-6.144-64.512 17.408 0 33.792-1.024 50.176 0 56.32 4.096 111.616 9.216 167.936 13.312 9.216 1.024 11.264 5.12 12.288 13.312 0 7.168 2.048 14.336 3.072 20.48 2.048 0 3.072 0 5.12 0 0-10.24 0-19.456 0-30.72 20.48 3.072 37.888 5.12 56.32 7.168 0-1.024 0-2.048 1.024-2.048-16.384-4.096-32.768-8.192-49.152-13.312-4.096-1.024-8.192-5.12-9.216-8.192-7.168-27.648-13.312-56.32-20.48-84.992 15.36 4.096 30.72 9.216 47.104 13.312 0-1.024 1.024-2.048 1.024-2.048-15.36-6.144-30.72-11.264-46.080-18.432-4.096-2.048-8.192-4.096-10.24-8.192-16.384-26.624-32.768-54.272-48.128-78.848 18.432 2.048 69.632 33.792 101.376 64.512 30.72 29.696 54.272 63.488 72.704 102.4 17.408 37.888 25.6 78.848 27.648 121.856 2.048 0 3.072 0 5.12 0 1.024-3.072 2.048-7.168 2.048-10.24-4.096-120.832-45.056-224.256-149.504-293.888-61.44-40.96-130.048-56.32-202.752-60.416-165.888-7.168-309.248 93.184-365.568 256-62.464 182.272 12.288 379.904 180.224 472.064 9.216 5.12 20.48 9.216 30.72 13.312-2.048-1.024-1.024-2.048 0-4.096zM740.352 221.696c-34.816-6.144-68.608-13.312-102.4-17.408-37.888-5.12-75.776-7.168-113.664-10.24-3.072 0-9.216-5.12-9.216-6.144 3.072-28.672 7.168-56.32 10.24-84.992 4.096 0 6.144 0 7.168 0 57.344 2.048 112.64 10.24 168.96 23.552 3.072 1.024 6.144 3.072 8.192 6.144 14.336 27.648 24.576 57.344 30.72 89.088zM346.112 201.216c7.168-19.456 13.312-37.888 21.504-55.296 14.336-32.768 14.336-33.792 49.152-37.888 29.696-4.096 60.416-5.12 91.136-7.168-3.072 31.744-5.12 61.44-7.168 91.136-51.2 3.072-101.376 6.144-154.624 9.216zM699.392 113.152c-55.296-10.24-109.568-20.48-165.888-30.72 9.216-20.48 18.432-43.008 27.648-64.512 1.024-2.048 6.144-4.096 9.216-3.072 16.384 2.048 31.744 4.096 47.104 7.168 5.12 1.024 10.24 2.048 13.312 5.12 27.648 25.6 50.176 54.272 68.608 86.016zM353.28 120.32c-7.168 26.624-15.36 52.224-22.528 78.848-1.024 3.072-5.12 7.168-8.192 7.168-38.912 7.168-76.8 14.336-114.688 33.792 14.336-31.744 29.696-58.368 49.152-82.944 1.024-1.024 2.048-2.048 3.072-2.048 29.696-15.36 61.44-26.624 93.184-34.816zM398.336 90.624c17.408-25.6 36.864-48.128 59.392-67.584 1.024-1.024 3.072-2.048 4.096-2.048 25.6-5.12 52.224-8.192 77.824-7.168-9.216 22.528-17.408 44.032-26.624 65.536-1.024 3.072-6.144 5.12-9.216 5.12-15.36 1.024-31.744 1.024-47.104 2.048-18.432 0-36.864 2.048-58.368 4.096zM421.888 31.232c-16.384 20.48-32.768 40.96-49.152 61.44-1.024 2.048-3.072 4.096-5.12 4.096-28.672 9.216-56.32 18.432-83.968 27.648 37.888-40.96 83.968-72.704 138.24-93.184zM636.928 815.616c5.12-3.072 9.216-5.12 12.288-8.192 64.512-54.272 80.896-148.48 36.864-222.208-17.408-28.672-39.936-54.272-61.44-79.872-36.864-44.032-69.632-91.136-83.968-147.456-2.048-9.216-4.096-19.456-6.144-28.672-1.024-4.096-3.072-7.168-5.12-10.24-1.024 0-3.072 1.024-4.096 1.024 0 5.12 0 11.264 1.024 16.384 11.264 66.56 41.984 123.904 77.824 180.224 17.408 26.624 35.84 54.272 50.176 81.92 33.792 65.536 29.696 130.048-7.168 193.536-4.096 7.168-8.192 13.312-12.288 20.48 1.024-1.024 2.048 0 2.048 3.072zM750.592 301.568c0 4.096-1.024 9.216-1.024 13.312 0 52.224 14.336 102.4 31.744 151.552 10.24 27.648 20.48 56.32 24.576 86.016 7.168 44.032-4.096 86.016-28.672 124.928-3.072 4.096-5.12 9.216-7.168 15.36 3.072-2.048 6.144-4.096 9.216-7.168 30.72-28.672 44.032-66.56 48.128-107.52 3.072-30.72-3.072-59.392-15.36-87.040-10.24-22.528-21.504-44.032-31.744-66.56-15.36-34.816-23.552-71.68-23.552-109.568 0-4.096-1.024-9.216-1.024-13.312-2.048 0-4.096 0-5.12 0z" />
<glyph unicode="&#xe90a;" glyph-name="sandwich" d="M420.864 833.024c126.976-3.072 242.688-30.72 347.136-94.208 26.624-16.384 51.2-35.84 72.704-58.368 60.416-63.488 64.512-137.216 10.24-206.848-20.48-25.6-32.768-54.272-37.888-86.016-4.096-28.672-7.168-57.344-9.216-86.016-5.12-67.584-8.192-135.168-25.6-201.728-5.12-18.432-12.288-37.888-21.504-55.296-19.456-40.96-53.248-61.44-98.304-65.536-59.392-6.144-118.784 2.048-176.128 15.36-135.168 28.672-265.216 72.704-388.096 136.192-12.288 6.144-25.6 14.336-36.864 22.528-29.696 20.48-35.84 37.888-28.672 72.704 10.24 46.080 32.768 86.016 52.224 128 24.576 50.176 49.152 101.376 71.68 152.576 13.312 29.696 22.528 61.44 16.384 95.232-1.024 8.192-4.096 15.36-7.168 23.552-17.408 48.128-7.168 90.112 28.672 125.952 46.080 47.104 103.424 70.656 167.936 77.824 22.528 2.048 45.056 3.072 62.464 4.096zM378.88 786.944c-57.344 0-103.424-4.096-146.432-21.504-40.96-17.408-56.32-46.080-49.152-90.112 1.024-6.144 2.048-13.312 4.096-19.456 16.384-48.128 13.312-97.28-4.096-143.36-23.552-60.416-51.2-118.784-76.8-178.176-13.312-30.72-27.648-61.44-37.888-93.184-11.264-33.792-4.096-49.152 25.6-68.608 14.336-9.216 29.696-18.432 45.056-25.6 133.12-60.416 270.336-103.424 412.672-129.024 39.936-7.168 81.92-7.168 122.88-9.216 23.552-1.024 39.936 11.264 46.080 35.84 5.12 21.504 10.24 43.008 14.336 64.512 11.264 71.68 20.48 143.36 32.768 215.040 7.168 43.008 17.408 84.992 45.056 120.832 49.152 64.512 46.080 124.928-9.216 184.32-26.624 28.672-58.368 51.2-93.184 69.632-107.52 57.344-222.208 84.992-331.776 88.064zM809.984 78.336c6.144 21.504 14.336 40.96 17.408 61.44 6.144 48.128 10.24 96.256 14.336 145.408 6.144 70.656 22.528 139.264 56.32 202.752 52.224 96.256 35.84 185.344-45.056 259.072-58.368 53.248-129.024 83.968-203.776 103.424-92.16 24.576-185.344 31.744-279.552 8.192-2.048-1.024-4.096-1.024-7.168-1.024-1.024 0-3.072 1.024-7.168 2.048 7.168 4.096 11.264 8.192 16.384 10.24 82.944 40.96 169.984 56.32 262.144 47.104 96.256-9.216 183.296-41.984 260.096-101.376 40.96-31.744 73.728-69.632 92.16-119.808 20.48-54.272 15.36-107.52-21.504-152.576-39.936-48.128-55.296-103.424-62.464-162.816-7.168-64.512-13.312-129.024-20.48-193.536-3.072-28.672-11.264-57.344-29.696-81.92-11.264-18.432-24.576-25.6-41.984-26.624zM519.168 403.968c-17.408 54.272-33.792 105.472-51.2 155.648 11.264 5.12 16.384 1.024 19.456-8.192 10.24-32.768 20.48-64.512 34.816-97.28 16.384 38.912 32.768 77.824 50.176 120.832 17.408-41.984 33.792-80.896 51.2-123.904 3.072 10.24 6.144 17.408 8.192 24.576 8.192 25.6 16.384 50.176 24.576 75.776 3.072 10.24 8.192 13.312 19.456 9.216-16.384-51.2-32.768-101.376-51.2-156.672-18.432 44.032-35.84 84.992-53.248 129.024-17.408-44.032-34.816-84.992-52.224-129.024zM386.048 413.184c-40.96 0-75.776 35.84-75.776 75.776 0 40.96 34.816 74.752 75.776 74.752s75.776-34.816 75.776-74.752c0-40.96-34.816-75.776-75.776-75.776zM387.072 429.568c31.744 0 59.392 26.624 59.392 58.368s-27.648 60.416-59.392 60.416c-31.744 0-59.392-27.648-59.392-58.368-1.024-33.792 26.624-60.416 59.392-60.416zM599.040 363.008c16.384-1.024 33.792 0 49.152-3.072 25.6-6.144 32.768-37.888 17.408-62.464 6.144-8.192 14.336-15.36 18.432-23.552 11.264-24.576-6.144-53.248-33.792-56.32-16.384-1.024-32.768 0-50.176 0-1.024 47.104-1.024 95.232-1.024 145.408zM614.4 232.96c28.672-4.096 46.080-1.024 51.2 12.288 3.072 8.192 3.072 21.504-1.024 27.648-12.288 16.384-31.744 9.216-49.152 10.24-1.024-18.432-1.024-33.792-1.024-50.176zM614.4 299.52c14.336 1.024 29.696-5.12 37.888 9.216 4.096 7.168 4.096 19.456 0 26.624-8.192 14.336-23.552 10.24-37.888 10.24 0-15.36 0-29.696 0-46.080zM519.168 216.576c-7.168 0-11.264 0-17.408 0 0 14.336 0 28.672 0 43.008 0 29.696 1.024 58.368 0 88.064 0 12.288 4.096 15.36 15.36 14.336 3.072 0 7.168 0 10.24 0 27.648-1.024 41.984-12.288 46.080-34.816 3.072-22.528-7.168-36.864-34.816-47.104 14.336-21.504 28.672-41.984 43.008-62.464-12.288-4.096-19.456-1.024-25.6 9.216-10.24 16.384-22.528 32.768-35.84 52.224-1.024-23.552-1.024-41.984-1.024-62.464zM519.168 297.472c14.336-1.024 28.672-2.048 33.792 12.288 3.072 8.192 2.048 19.456-2.048 26.624-7.168 11.264-19.456 11.264-31.744 8.192 0-15.36 0-30.72 0-47.104zM489.472 217.6c-12.288-4.096-17.408 0-21.504 10.24-13.312 33.792-13.312 32.768-49.152 33.792-14.336 0-23.552-3.072-26.624-18.432-1.024-5.12-4.096-10.24-6.144-16.384-3.072-10.24-9.216-14.336-21.504-10.24 20.48 51.2 40.96 101.376 62.464 155.648 21.504-52.224 41.984-103.424 62.464-154.624zM447.488 278.016c-7.168 18.432-13.312 33.792-21.504 53.248-8.192-19.456-14.336-35.84-21.504-53.248 15.36 0 27.648 0 43.008 0zM353.28 253.44c5.12-15.36-1.024-24.576-13.312-30.72-31.744-16.384-70.656-8.192-94.208 20.48-22.528 27.648-22.528 66.56 1.024 94.208s61.44 34.816 93.184 18.432c13.312-7.168 18.432-15.36 13.312-31.744-16.384 17.408-34.816 29.696-58.368 22.528-13.312-4.096-27.648-12.288-36.864-22.528-20.48-22.528-16.384-56.32 6.144-76.8 25.6-24.576 56.32-22.528 89.088 6.144zM253.952 561.664c5.12 0 9.216 0 15.36 0 0-43.008 0-86.016 0-130.048 12.288 0 22.528 0 34.816 0 0-6.144 0-10.24 1.024-15.36-17.408 0-33.792 0-50.176 0-1.024 48.128-1.024 96.256-1.024 145.408z" />
<glyph unicode="&#xe90b;" glyph-name="70-anniversary" d="M662.528 890.368l-550.912-877.568c0 0-14.336 20.48-22.528 32.768-5.12 7.168-7.168 16.384 0 29.696l479.232 762.88h-463.872c-16.384 1.024-24.576 8.192-27.648 16.384-4.096 11.264-15.36 35.84-15.36 35.84h601.088zM889.856 714.24h-227.328c-6.144 0-12.288-1.024-18.432-2.048s-11.264-3.072-17.408-5.12c-5.12-2.048-10.24-5.12-15.36-8.192s-9.216-7.168-13.312-11.264c-4.096-4.096-8.192-8.192-11.264-13.312l-144.384-231.424c-2.048-3.072-4.096-7.168-6.144-11.264s-3.072-9.216-4.096-13.312c-1.024-5.12-1.024-9.216-1.024-14.336s0-9.216 1.024-14.336c1.024-4.096 2.048-9.216 4.096-13.312v-1.024c2.048-4.096 4.096-8.192 6.144-11.264s5.12-7.168 8.192-10.24v0c3.072-3.072 7.168-6.144 10.24-8.192 4.096-3.072 8.192-5.12 12.288-6.144 4.096-2.048 9.216-3.072 13.312-4.096s9.216-1.024 14.336-1.024h167.936c6.144 0 12.288 1.024 18.432 2.048s11.264 3.072 17.408 5.12c5.12 2.048 10.24 5.12 15.36 8.192s9.216 7.168 13.312 11.264c4.096 4.096 11.264 14.336 11.264 14.336l137.216 220.16c11.264 19.456 25.6 25.6 37.888 25.6 9.216 0 31.744 0 31.744 0l-61.44 93.184zM845.824 633.344l-144.384-231.424c-1.024-2.048-3.072-4.096-5.12-5.12-2.048-2.048-3.072-3.072-5.12-4.096s-4.096-2.048-6.144-3.072c-2.048-1.024-5.12-2.048-7.168-2.048s-5.12-1.024-7.168-1.024h-168.96c-1.024 0-3.072 0-4.096 0s-2.048 1.024-3.072 1.024c-1.024 0-2.048 1.024-3.072 2.048s-2.048 1.024-3.072 2.048c-1.024 1.024-2.048 2.048-2.048 3.072-1.024 1.024-1.024 2.048-2.048 3.072 0 1.024-1.024 2.048-1.024 3.072s0 2.048 0 4.096c0 1.024 0 3.072 0 4.096s1.024 2.048 1.024 3.072c0 1.024 1.024 2.048 2.048 3.072l145.408 231.424c1.024 2.048 3.072 4.096 4.096 5.12 2.048 2.048 3.072 3.072 5.12 4.096s4.096 2.048 6.144 3.072c2.048 1.024 5.12 2.048 7.168 2.048 2.048 1.024 5.12 1.024 7.168 1.024h221.184v-2.048c-13.312-3.072-26.624-11.264-36.864-26.624zM97.28 264.704c-7.168-13.312-5.12-22.528 0-29.696 8.192-12.288 22.528-32.768 22.528-32.768l354.304 564.224h-358.4c0 0 10.24-24.576 15.36-34.816 4.096-8.192 11.264-15.36 27.648-16.384h221.184l-282.624-450.56z" />
<glyph unicode="&#xe90c;" glyph-name="hariraya" d="M761.856 500.224c1.024 1.024 1.024 2.048 1.024 3.072 5.12 13.312 4.096 26.624-5.12 38.912-54.272 71.68-113.664 119.808-182.272 149.504-5.12 2.048-6.144 3.072-6.144 4.096s0 2.048 3.072 6.144c28.672 44.032 34.816 88.064 19.456 133.12-5.12 16.384-14.336 24.576-29.696 28.672-5.12 1.024-10.24 3.072-15.36 4.096-20.48 5.12-41.984 11.264-61.44 20.48h-15.36l-1.024-2.048c-19.456-33.792-30.72-65.536-34.816-98.304-1.024-5.12-2.048-8.192-5.12-11.264-33.792-39.936-58.368-84.992-86.016-135.168-7.168-13.312-13.312-26.624-19.456-39.936-7.168-16.384-15.36-33.792-24.576-49.152-19.456-32.768-33.792-65.536-41.984-99.328-4.096-18.432-2.048-33.792 9.216-48.128 7.168-9.216 13.312-17.408 22.528-24.576 10.24-9.216 21.504-17.408 32.768-25.6 19.456-15.36 39.936-30.72 58.368-49.152 3.072-3.072 6.144-5.12 9.216-7.168 19.456-10.24 33.792-26.624 48.128-43.008 4.096-5.12 8.192-9.216 12.288-13.312 7.168-8.192 7.168-13.312 1.024-23.552-16.384-25.6-31.744-52.224-46.080-77.824l-12.288-20.48c-3.072-6.144-10.24-17.408 3.072-26.624 20.48-14.336 39.936-30.72 58.368-47.104 16.384-14.336 32.768-30.72 50.176-44.032l1.024-4.096h12.288l1.024 5.12c4.096 10.24 5.12 21.504 7.168 31.744 1.024 5.12 1.024 10.24 2.048 15.36 2.048 8.192 3.072 10.24 11.264 9.216 17.408-2.048 35.84-2.048 53.248-3.072 10.24 0 21.504-1.024 31.744-1.024 10.24-1.024 15.36-1.024 19.456 2.048s4.096 8.192 4.096 18.432c1.024 22.528-1.024 46.080-3.072 67.584-1.024 14.336-2.048 29.696-3.072 45.056 0 11.264 1.024 16.384 12.288 19.456 21.504 5.12 34.816 19.456 40.96 40.96 1.024 5.12 4.096 9.216 7.168 14.336 13.312 21.504 21.504 45.056 28.672 68.608 3.072 9.216 6.144 18.432 9.216 27.648 7.168 20.48 12.288 43.008 17.408 64.512 2.048 9.216 4.096 17.408 6.144 26.624l1.024 4.096c3.072 12.288 6.144 26.624-2.048 39.936-2.048 2.048-2.048 3.072 0 5.12zM414.72 117.248c11.264 23.552 25.6 45.056 39.936 66.56 7.168 11.264 15.36 22.528 22.528 34.816 0 1.024 1.024 2.048 1.024 2.048s0 0 1.024-1.024c4.096-3.072 5.12-3.072 4.096-7.168-7.168-18.432-13.312-37.888-19.456-56.32l-6.144-17.408c-1.024-4.096-3.072-9.216-2.048-15.36l2.048-15.36 40.96 91.136 1.024 2.048c1.024 2.048 2.048 4.096 3.072 6.144s1.024 2.048 5.12 1.024c0 0 0 0 1.024 0 0 0 0-1.024 0-1.024 0-1.024-1.024-1.024-1.024-2.048l-21.504-75.776c-1.024-2.048-1.024-4.096-1.024-5.12l-1.024-6.144 9.216-5.12 10.24 24.576c8.192 20.48 16.384 40.96 24.576 60.416 0 1.024 1.024 2.048 1.024 3.072 2.048 5.12 2.048 5.12 4.096 4.096 1.024 0 1.024-1.024 2.048-1.024 0-1.024 0-3.072-1.024-4.096 0-1.024-1.024-2.048-1.024-3.072-8.192-44.032-16.384-89.088-24.576-135.168l-7.168-25.6-50.176 41.984c-11.264 9.216-22.528 19.456-34.816 28.672-4.096 2.048-5.12 4.096-2.048 10.24zM415.744 305.664c0 0-1.024 0-4.096 2.048-11.264 7.168-20.48 16.384-30.72 25.6-7.168 6.144-13.312 12.288-20.48 18.432-2.048 1.024-2.048 1.024-1.024 4.096 7.168 28.672 18.432 62.464 38.912 91.136l1.024 1.024c1.024 2.048 3.072 4.096 4.096 5.12v0c1.024-1.024 3.072-2.048 4.096-3.072 5.12-4.096 10.24-8.192 15.36-13.312 11.264-9.216 23.552-19.456 34.816-28.672 4.096-3.072 5.12-5.12 2.048-9.216-18.432-28.672-32.768-59.392-43.008-90.112 0-2.048-1.024-3.072-1.024-3.072zM566.272 223.744l-51.2 3.072c1.024 1.024 1.024 1.024 2.048 2.048 5.12 5.12 9.216 10.24 13.312 15.36 17.408 22.528 27.648 43.008 31.744 64.512 1.024 7.168 3.072 4.096 7.168 4.096 22.528-1.024 43.008-5.12 62.464-5.12 0 0 0 0 0 0 2.048 0 3.072 4.096 3.072 4.096 0-1.024 0 0-1.024-2.048-12.288-30.72-31.744-55.296-52.224-80.896-3.072-6.144-8.192-6.144-15.36-5.12zM493.568 403.968c11.264 29.696 24.576 59.392 43.008 93.184 2.048 4.096 4.096 4.096 4.096 4.096s0 0 0 0 2.048 1.024 5.12-2.048c13.312-13.312 28.672-28.672 40.96-48.128 0-1.024 1.024-1.024 1.024-2.048 1.024-2.048 3.072-4.096 2.048-5.12v0c-5.12-33.792-12.288-69.632-34.816-99.328-2.048-2.048-2.048-2.048-2.048-2.048s-1.024 0-3.072 3.072c-18.432 17.408-36.864 34.816-54.272 50.176-3.072 1.024-3.072 3.072-2.048 8.192zM627.712 336.384c-5.12 1.024-9.216 1.024-14.336 0-2.048 0-4.096 0-6.144 0v0c-3.072 0-7.168-1.024-11.264-1.024-10.24-1.024-17.408-2.048-19.456 2.048-2.048 3.072 4.096 11.264 8.192 16.384 2.048 3.072 5.12 6.144 6.144 9.216 10.24 17.408 14.336 36.864 17.408 53.248 2.048 10.24 6.144 15.36 16.384 16.384 12.288 2.048 24.576 4.096 36.864 7.168 1.024 0 1.024 0 2.048 0 0 0 0-1.024 0-2.048l-4.096-20.48c-4.096-21.504-8.192-43.008-11.264-64.512-2.048-13.312-8.192-17.408-20.48-16.384zM670.72 468.48c-17.408-6.144-34.816-12.288-52.224-17.408-2.048 0-6.144-2.048-10.24 5.12-14.336 24.576-29.696 45.056-47.104 62.464-2.048 2.048-2.048 2.048 0 6.144 15.36 16.384 33.792 32.768 58.368 49.152 2.048 1.024 3.072 2.048 4.096 2.048 0 0 0 0 0 0 1.024 0 1.024-1.024 2.048-2.048 4.096-6.144 8.192-12.288 12.288-19.456 14.336-22.528 28.672-45.056 39.936-69.632 1.024-1.024 1.024-3.072 1.024-4.096v-1.024c-1.024-6.144-3.072-9.216-8.192-11.264zM610.304 593.408c0-1.024-2.048-3.072-5.12-4.096-22.528-12.288-41.984-28.672-58.368-46.080-3.072-3.072-4.096-4.096-4.096-4.096s0-1.024-3.072 3.072c-14.336 17.408-29.696 33.792-45.056 50.176l-1.024 1.024c-4.096 5.12-5.12 8.192-1.024 13.312 15.36 23.552 32.768 44.032 52.224 62.464 1.024 1.024 2.048 2.048 3.072 2.048 1.024-1.024 3.072-2.048 4.096-3.072 18.432-18.432 40.96-40.96 57.344-68.608 0-2.048 1.024-5.12 1.024-6.144zM415.744 479.744c1.024 3.072 2.048 6.144 2.048 10.24 2.048 9.216 4.096 18.432 7.168 27.648 8.192 23.552 20.48 46.080 38.912 69.632 1.024 1.024 2.048 3.072 2.048 3.072s1.024 0 2.048-2.048c4.096-4.096 7.168-8.192 11.264-12.288 14.336-15.36 28.672-30.72 38.912-49.152 3.072-5.12 3.072-7.168 1.024-10.24-20.48-26.624-32.768-58.368-43.008-88.064-2.048-5.12-3.072-6.144-3.072-6.144s-1.024 0-5.12 3.072c-9.216 8.192-19.456 17.408-28.672 25.6-5.12 4.096-10.24 9.216-16.384 13.312-4.096 4.096-7.168 7.168-7.168 15.36zM743.424 504.32c-2.048-7.168-9.216-13.312-21.504-18.432-10.24-4.096-17.408-7.168-20.48-6.144s-6.144 8.192-10.24 18.432c-13.312 31.744-27.648 58.368-43.008 82.944l8.192 1.024c11.264 1.024 22.528 2.048 32.768 3.072 3.072 0 6.144-1.024 8.192-3.072 3.072-4.096 6.144-7.168 10.24-11.264 11.264-12.288 22.528-24.576 30.72-38.912 5.12-11.264 7.168-20.48 5.12-27.648zM610.304 628.224c-8.192 13.312-19.456 25.6-29.696 36.864-2.048 2.048-3.072 3.072-5.12 5.12 39.936-19.456 71.68-41.984 99.328-68.608-29.696-7.168-49.152 1.024-64.512 26.624zM483.328 638.464c-4.096-5.12-8.192-11.264-12.288-16.384s-5.12-5.12-10.24-1.024c-22.528 16.384-45.056 32.768-66.56 48.128-5.12 3.072-5.12 5.12-2.048 10.24 13.312 26.624 30.72 52.224 50.176 77.824 0 1.024 1.024 1.024 1.024 2.048 0 0 1.024 1.024 1.024 2.048 0 0 1.024 0 1.024-1.024 25.6-24.576 52.224-48.128 81.92-71.68-17.408-15.36-30.72-32.768-44.032-50.176zM450.56 603.648c0 0 0-1.024-2.048-3.072-30.72-36.864-48.128-70.656-54.272-108.544 0 0 0-1.024 0-1.024-1.024 1.024-2.048 2.048-3.072 3.072l-16.384 15.36c-14.336 13.312-28.672 26.624-44.032 39.936-3.072 3.072-4.096 5.12-2.048 10.24 11.264 30.72 26.624 60.416 45.056 91.136 1.024 2.048 2.048 4.096 3.072 4.096 0 0 0 0 0 0s1.024 0 3.072-1.024c22.528-16.384 45.056-31.744 66.56-46.080 3.072-3.072 4.096-4.096 4.096-4.096zM315.392 536.064c1.024 1.024 1.024 1.024 1.024 2.048 0 0 1.024-1.024 2.048-2.048 4.096-4.096 8.192-8.192 12.288-12.288 16.384-16.384 32.768-32.768 53.248-46.080 2.048-1.024 3.072-2.048 3.072-4.096s-1.024-5.12-4.096-8.192c-17.408-22.528-28.672-43.008-35.84-63.488-3.072-9.216-6.144-19.456-8.192-29.696v-2.048c0-1.024 0-1.024 0-2.048 0 0 0 0-1.024 0-22.528 13.312-41.984 33.792-58.368 61.44 0 0 0 2.048 0 3.072s0 2.048 0 2.048l1.024 4.096c5.12 33.792 13.312 68.608 34.816 97.28zM438.272 292.352c7.168 30.72 22.528 58.368 36.864 86.016l2.048 5.12c0 0 0 1.024 1.024 1.024 0 0 0 0 0 0l56.32-56.32c1.024-1.024 2.048-3.072 2.048-9.216-2.048-8.192-6.144-19.456-12.288-32.768s-15.36-25.6-23.552-37.888c-3.072-4.096-6.144-8.192-9.216-12.288 0-1.024 0-1.024 0-2.048 0 0-1.024 1.024-2.048 2.048-14.336 14.336-28.672 28.672-43.008 43.008l-4.096 4.096c-4.096 3.072-5.12 5.12-4.096 9.216zM536.576 93.696c5.12 23.552 9.216 47.104 13.312 71.68l6.144 32.768c0 1.024 0 2.048 0 3.072s0 3.072 0 3.072h1.024c0-1.024 0-2.048 0-3.072s-3.072-2.048-3.072-3.072c0-18.432-2.048-36.864-2.048-56.32v-49.152l10.24 28.672c4.096 15.36 7.168 30.72 8.192 45.056 1.024 8.192 2.048 16.384 3.072 24.576 0 2.048 1.024 3.072 1.024 5.12 0 1.024 0 2.048 0 4.096v2.048c0 1.024 0 2.048 1.024 3.072 0 0 0-2.048 0-3.072l-2.048-2.048c0-18.432-2.048-36.864-2.048-56.32v-49.152l10.24 28.672c4.096 15.36 7.168 29.696 8.192 44.032 1.024 8.192 2.048 17.408 3.072 25.6 0 2.048 1.024 3.072 1.024 5.12 0 1.024 0 2.048 0 3.072 0 0 0 1.024 0 1.024 0-1.024 4.096-1.024 4.096-1.024 0-15.36 4.096-30.72 4.096-45.056v-15.36c0-6.144-4.096-13.312-2.048-19.456l4.096-19.456 10.24 99.328v2.048c0 1.024 0 3.072 0 3.072s0 0 1.024 0c0 0 0 0 0 0s0 0 0 0 0-2.048 0-2.048l2.048-35.84c1.024-25.6 2.048-51.2 4.096-77.824 0-4.096 0-7.168-1.024-8.192 2.048-2.048 0-3.072-6.144-3.072-25.6 2.048-49.152 4.096-70.656 4.096-5.12 0-7.168 1.024-7.168 2.048-1.024 1.024 0 6.144 0 8.192zM610.304 227.84c5.12 7.168 10.24 14.336 15.36 21.504 13.312 18.432 27.648 41.984 34.816 68.608 1.024 4.096 3.072 5.12 7.168 6.144l6.144 1.024c8.192 1.024 16.384 3.072 24.576 5.12 1.024 0 2.048 0 2.048 0s0-1.024 0-3.072c-1.024-5.12-2.048-10.24-4.096-14.336-6.144-12.288-11.264-23.552-16.384-35.84l-15.36-31.744c-3.072-6.144-6.144-9.216-10.24-11.264-14.336-6.144-28.672-8.192-47.104-10.24l3.072 4.096zM670.72 346.624c7.168 37.888 11.264 69.632 11.264 100.352 0 3.072 1.024 4.096 3.072 5.12 15.36 6.144 29.696 11.264 45.056 17.408l11.264 4.096c-4.096-26.624-11.264-52.224-17.408-76.8-2.048-6.144-3.072-12.288-5.12-18.432-1.024-2.048-1.024-4.096-1.024-6.144-1.024-7.168-2.048-11.264-6.144-13.312-11.264-5.12-23.552-8.192-35.84-11.264l-5.12-1.024c0-1.024 0 0 0 0zM555.008 839.168c-15.36-29.696-25.6-55.296-32.768-80.896-2.048-9.216-3.072-19.456-3.072-30.72-2.048 4.096-3.072 14.336-5.12 41.984l-1.024 9.216-6.144-6.144c-8.192-7.168-9.216-16.384-10.24-25.6-4.096 6.144-4.096 13.312-3.072 21.504 1.024 6.144 1.024 13.312-1.024 19.456l-2.048 6.144-4.096-5.12c-5.12-5.12-6.144-6.144-9.216-18.432-1.024 5.12-2.048 14.336-3.072 29.696l-1.024 9.216-6.144-7.168c-5.12-6.144-6.144-12.288-6.144-17.408 0-2.048 0-3.072-1.024-5.12-2.048 1.024-2.048 3.072-1.024 5.12 1.024 5.12 2.048 10.24 3.072 14.336 4.096 19.456 8.192 38.912 16.384 57.344 4.096 8.192 7.168 10.24 15.36 7.168 19.456-7.168 40.96-13.312 58.368-17.408 5.12-1.024 5.12-2.048 5.12-2.048s0-1.024-2.048-5.12z" />
</font></defs></svg>