{
  "bookingSummary": {
    "locale": "en_UK",
    "adultCount": 1,
    "childCount": 0,
    "infantCount": 0,
    "precision": 2,
    "currency": "MYR",
    "taxTotal": 320.90,
    "surchargeTotal": 1876.00,
    "fareSubTotal": 2196.90,
    "grandTotal": 2196.90,
    "milesAllocated": 0,
    "totalMilesForORB": 89250,
    "orbQSurchargeTotal": 0.00,
    "oldItinerary": {
      "currency": "MYR",
      "taxTotal": 332.90,
      "surchargeTotal": 304.00,
      "grandTotal": 636.90,
      "costPaidBymiles": 0,
      "totalMilesForORB": 51000
    },
    "rebookingFee": 44.00,
    "totalToBePaidCash": 1604.00,
    "totalToBePaidMiles": 38250,
    "milesToBeRefunded": 0,
    "scenario": "ORC",
    "flight": [{
      "totalTravelTime": "20hrs",
      "origin": "Kuala Lumpur",
      "destination": "San Francisco",
      "flightSegments": [{
        "carrierCode": "MI",
        "airCraftType": "Airbus A320",
        "flightNumber": "319",
        "cabinClassDesc": "Economy(X)",
        "layoverTime": "0hrs 50mins",
        "deparure": {
          "time": "07:35",
          "date": "17 Sep (Thu)",
          "airportCode": "KUL",
          "airportName": "Kuala Lumpur Intl",
          "cityCode": "KUL",
          "cityName": "Kuala Lumpur",
          "terminal": "M"
        },
        "arrival": {
          "time": "08:35",
          "date": "17 Sep (Thu)",
          "airportCode": "SIN",
          "airportName": "Changi Intl",
          "cityCode": "SIN",
          "cityName": "Singapore",
          "terminal": "2"
        }
      }, {
        "carrierCode": "SQ",
        "airCraftType": "Boeing 777-300ER",
        "flightNumber": "16",
        "cabinClassDesc": "Economy(X)",
        "layoverTime": "1hrs 5mins",
        "deparure": {
          "time": "09:25",
          "date": "17 Sep (Thu)",
          "airportCode": "SIN",
          "airportName": "Changi Intl",
          "cityCode": "SIN",
          "cityName": "Singapore",
          "terminal": "3"
        },
        "arrival": {
          "time": "16:45",
          "date": "17 Sep (Thu)",
          "airportCode": "ICN",
          "airportName": "Incheon Intl",
          "cityName": "Incheon Intl"
        }
      }, {
        "carrierCode": "SQ",
        "airCraftType": "Boeing 777-300ER",
        "flightNumber": "16",
        "cabinClassDesc": "Economy(X)",
        "deparure": {
          "time": "17:50",
          "date": "17 Sep (Thu)",
          "airportCode": "ICN",
          "airportName": "Incheon Intl",
          "cityName": "Incheon Intl"
        },
        "arrival": {
          "time": "12:35",
          "date": "17 Sep (Thu)",
          "airportCode": "SFO",
          "airportName": "San Francisco Intl",
          "cityCode": "SFO",
          "cityName": "San Francisco",
          "terminal": "I"
        }
      }]
    }, {
      "totalTravelTime": "27hrs 30mins",
      "origin": "San Francisco",
      "destination": "Kuala Lumpur",
      "flightSegments": [{
        "carrierCode": "SQ",
        "airCraftType": "Boeing 777-300ER",
        "flightNumber": "1",
        "cabinClassDesc": "Economy(B)",
        "layoverTime": "1hrs 25mins",
        "deparure": {
          "time": "01:15",
          "date": "26 Sep (Sat)",
          "airportCode": "SFO",
          "airportName": "San Francisco Intl",
          "cityCode": "SFO",
          "cityName": "San Francisco",
          "terminal": "I"
        },
        "arrival": {
          "time": "06:35",
          "date": "27 Sep (Sun)",
          "airportCode": "HKG",
          "airportName": "Hong Kong",
          "cityCode": "HKG",
          "cityName": "Hong Kong"
        }
      }, {
        "carrierCode": "SQ",
        "airCraftType": "Boeing 777-300ER",
        "flightNumber": "1",
        "cabinClassDesc": "Economy(B)",
        "layoverTime": "7hrs",
        "deparure": {
          "time": "08:00",
          "date": "27 Sep (Sun)",
          "airportCode": "HKG",
          "airportName": "Hong Kong",
          "cityCode": "HKG",
          "cityName": "Hong Kong"
        },
        "arrival": {
          "time": "11:45",
          "date": "27 Sep (Sun)",
          "airportCode": "SIN",
          "airportName": "Changi Intl",
          "cityCode": "SIN",
          "cityName": "Singapore"
        }
      }, {
        "carrierCode": "SQ",
        "airCraftType": "Airbus A330-300",
        "flightNumber": "118",
        "cabinClassDesc": "Economy(B)",
        "deparure": {
          "time": "18:45",
          "date": "27 Sep (Sun)",
          "airportCode": "SIN",
          "airportName": "Changi Intl",
          "cityCode": "SIN",
          "cityName": "Singapore",
          "terminal": "2"
        },
        "arrival": {
          "time": "19:45",
          "date": "27 Sep (Sun)",
          "airportCode": "KUL",
          "airportName": "Kuala Lumpur Intl",
          "cityCode": "KUL",
          "cityName": "Kuala Lumpur",
          "terminal": "M"
        }
      }]
    }],
    "waitListFlights": [],
    "paxDetails": [{
      "paxType": "Adult",
      "id": 2,
      "paxName": "TWO TESTA",
      "fareDetails": {
        "totalCost": 1561.90,
        "totalMiles": 89250,
        "fareAmount": 0.00,
        "taxAmount": 255.90,
        "surchargeAmount": 1306.00,
        "qSurchargeAmount": 0.00,
        "surcharge": [{
          "amount": 1306.00,
          "code": "YQ",
          "description": "Airline Fuel and Insurance Surcharge"
        }],
        "taxes": [{
          "amount": 19.00,
          "code": "XA",
          "description": "APHIS User Fee - Passengers"
        }, {
          "amount": 65.00,
          "code": "US",
          "description": "Transportation Tax (Domestic/International)"
        }, {
          "amount": 3.90,
          "code": "D8",
          "description": "Goods And Services Tax"
        }, {
          "amount": 18.00,
          "code": "SG",
          "description": "Passenger Service and Security Charge"
        }, {
          "amount": 65.00,
          "code": "MY",
          "description": "Passenger Service and Security Charge (Domestic/International)"
        }, {
          "amount": 26.00,
          "code": "XY",
          "description": "Immigration User Fee"
        }, {
          "amount": 21.00,
          "code": "AY",
          "description": "September 11th Security Fee"
        }, {
          "amount": 20.00,
          "code": "YC",
          "description": "Customs User Fee"
        }, {
          "amount": 18.00,
          "code": "OO",
          "description": "Passenger Security Service Charge"
        }],
        "orbQSurcharge": []
      },
      "detailsPerFlight": [{
        "flightNo": "MI319",
        "from": "KUL",
        "to": "SIN",
        "departureDate": "Thu Sep 17 07:35:00 IST 2015"
      }, {
        "flightNo": "SQ16",
        "from": "SIN",
        "to": "SFO",
        "departureDate": "Thu Sep 17 09:25:00 IST 2015"
      }, {
        "flightNo": "SQ1",
        "from": "SFO",
        "to": "SIN",
        "departureDate": "Sat Sep 26 01:15:00 IST 2015"
      }, {
        "flightNo": "SQ118",
        "from": "SIN",
        "to": "KUL",
        "departureDate": "Sun Sep 27 18:45:00 IST 2015"
      }]
    }]
  }
}
