{
  "locale": "en_UK",
  "ErrorVO": {},
  "MealVO": {
    "passengerAndMealAssociationVO": [
      {
        "passengerName": "TWO TESTA",
        "passengerId": 2,
        "passengerType": "ADT",
        "flightDateInformationVO": [
          {
            "departureDate": "2015-08-03",
            "departureTime": "9:5:0",
            "departureCityCode": "HKG",
            "arrivalCityCode": "SIN",
            "marketingAirlineCode": "SQ",
            "flightNumber": "857",
            "classOfService": "BUSINESS",
            "selected": "true",
            "SectorMealSelectedInfo": [
              {
                "origin": "HKG",
                "destination": "SIN",
                "departureDate": "2015-08-03",
                "departureTime": "9:5:0",
                "type": "BRUNCH",
                "mealServiceCode": "BNCH",
                "categoryName": "BOOK THE COOK",
                "mealCategoryCode": "BC",
                "Name": "Grilled fillet beef",
                "iataMealCode": "SPML"
              }
            ]
          },
          {
            "departureDate": "2015-08-05",
            "departureTime": "0:45:0",
            "departureCityCode": "SIN",
            "arrivalCityCode": "SYD",
            "marketingAirlineCode": "SQ",
            "flightNumber": "231",
            "classOfService": "BUSINESS",
            "selected": "true",
            "SectorMealSelectedInfo": [
              {
                "origin": "SIN",
                "destination": "SYD",
                "departureDate": "2015-08-05",
                "departureTime": "0:45:0",
                "type": "SUPPER",
                "mealServiceCode": "SUPR",
                "categoryName": "VEGETARIAN MEALS",
                "mealCategoryCode": "VG",
                "Name": "Vegetarian Indian Meal",
                "iataMealCode": "AVML"
              }
            ]
          }
        ]
      },
      {
        "passengerName": "THREE TESTA",
        "passengerId": 3,
        "passengerType": "CHD",
        "flightDateInformationVO": [
          {
            "departureDate": "2015-08-03",
            "departureTime": "9:5:0",
            "departureCityCode": "HKG",
            "arrivalCityCode": "SIN",
            "marketingAirlineCode": "SQ",
            "flightNumber": "857",
            "classOfService": "BUSINESS",
            "selected": "true",
            "SectorMealSelectedInfo": [
              {
                "origin": "HKG",
                "destination": "SIN",
                "departureDate": "2015-08-03",
                "departureTime": "9:5:0",
                "type": "BRUNCH",
                "mealServiceCode": "BNCH",
                "categoryName": "CHILD MEAL",
                "mealCategoryCode": "CH",
                "Name": "Child Meal",
                "iataMealCode": "CHML"
              }
            ]
          },
          {
            "departureDate": "2015-08-05",
            "departureTime": "0:45:0",
            "departureCityCode": "SIN",
            "arrivalCityCode": "SYD",
            "marketingAirlineCode": "SQ",
            "flightNumber": "231",
            "classOfService": "BUSINESS",
            "selected": "true",
            "SectorMealSelectedInfo": [
              {
                "origin": "SIN",
                "destination": "SYD",
                "departureDate": "2015-08-05",
                "departureTime": "0:45:0",
                "type": "SUPPER",
                "mealServiceCode": "SUPR",
                "categoryName": "BOOK THE COOK",
                "mealCategoryCode": "BC",
                "Name": "Baked king prawn",
                "iataMealCode": "SPML"
              }
            ]
          }
        ]
      }
    ],
    "passengerStartingPoint": "1"
  },
  "segmentMealVO": {
    "sectorMealListInformationVO": [
      {
        "departureDate": "2015-08-03",
        "departureTime": "9:5:0",
        "departureCityCode": "HKG",
        "arrivalCityCode": "SIN",
        "marketingAirlineCode": "SQ",
        "flightNumber": "857",
        "classOfService": "BUSINESS",
        "selected": "true",
        "mealService": [
          {
            "origin": "HKG",
            "destination": "SIN",
            "departureDate": "2015-08-03",
            "departureTime": "9:5:0",
            "type": "BRUNCH",
            "code": "BNCH",
            "mealList": [
              {
                "mealCategoryCode": "BC",
                "mealCategoryName": "BOOK THE COOK",
                "mealServiceList": [
                  {
                    "mealCode": "SPML",
                    "mealName": "Stir fried chicken and abalone"
                  },
                  {
                    "mealCode": "SPML",
                    "mealName": "Grilled fillet beef"
                  },
                  {
                    "mealCode": "SPML",
                    "mealName": "Pan fried seabass with tomato pesto"
                  }
                ]
              },
              {
                "mealCategoryCode": "CH",
                "mealCategoryName": "CHILD MEAL",
                "mealServiceList": [
                  {
                    "mealCode": "CHML",
                    "mealName": "Child meal"
                  }
                ]
              },
              {
                "mealCategoryCode": "DM",
                "mealCategoryName": "DIETARY MEALS",
                "mealServiceList": [
                  {
                    "mealCode": "SPML",
                    "mealName": "Semi fluid meal"
                  },
                  {
                    "mealCode": "FPML",
                    "mealName": "Fruit platter"
                  },
                  {
                    "mealCode": "LFML",
                    "mealName": "Low fat meal"
                  },
                  {
                    "mealCode": "NLML",
                    "mealName": "Low lactose meal"
                  },
                  {
                    "mealCode": "SPML",
                    "mealName": "Ulcer diet"
                  },
                  {
                    "mealCode": "LSML",
                    "mealName": "Low salt meal"
                  },
                  {
                    "mealCode": "SPML",
                    "mealName": "Soft fluid meal"
                  },
                  {
                    "mealCode": "LCML",
                    "mealName": "Low calorie meal"
                  },
                  {
                    "mealCode": "SPML",
                    "mealName": "Nil carbohydrate meal"
                  },
                  {
                    "mealCode": "BLML",
                    "mealName": "Bland meal"
                  },
                  {
                    "mealCode": "SPML",
                    "mealName": "Fat free meal"
                  },
                  {
                    "mealCode": "SPML",
                    "mealName": "Non strict nut free meal"
                  },
                  {
                    "mealCode": "SPML",
                    "mealName": "Low fibre residue meal"
                  },
                  {
                    "mealCode": "GFML",
                    "mealName": "Gluten intolerant meal"
                  },
                  {
                    "mealCode": "DBML",
                    "mealName": "Diabetic meal"
                  }
                ]
              },
              {
                "mealCategoryCode": "IF",
                "mealCategoryName": "INFANT MEALS",
                "mealServiceList": [
                  {
                    "mealCode": "BBML",
                    "mealName": "Baby meal"
                  },
                  {
                    "mealCode": "SPML",
                    "mealName": "Postweaning meal"
                  }
                ]
              },
              {
                "mealCategoryCode": "OT",
                "mealCategoryName": "OTHERS",
                "mealServiceList": [
                  {
                    "mealCode": "SFML",
                    "mealName": "Seafood meal"
                  }
                ]
              },
              {
                "mealCategoryCode": "RL",
                "mealCategoryName": "RELIGIOUS MEALS",
                "mealServiceList": [
                  {
                    "mealCode": "KSML",
                    "mealName": "Kosher meals"
                  },
                  {
                    "mealCode": "HNML",
                    "mealName": "Hindu non-vegetarian meal"
                  },
                  {
                    "mealCode": "MOML",
                    "mealName": "Muslim meal"
                  }
                ]
              },
              {
                "mealCategoryCode": "VG",
                "mealCategoryName": "VEGETARIAN MEALS",
                "mealServiceList": [
                  {
                    "mealCode": "VLML",
                    "mealName": "Vegetarian lacto-ovo meal"
                  },
                  {
                    "mealCode": "VGML",
                    "mealName": "Vegetarian vegan meal"
                  },
                  {
                    "mealCode": "VOML",
                    "mealName": "Vegetarian oriental meal"
                  },
                  {
                    "mealCode": "SPML",
                    "mealName": "Vegetarian southern indian meal"
                  },
                  {
                    "mealCode": "AVML",
                    "mealName": "Vegetarian indian meal"
                  },
                  {
                    "mealCode": "RVML",
                    "mealName": "Vegetarian raw meal"
                  }
                ]
              },
              {
                "mealCategoryCode": "BZ",
                "mealCategoryName": "YUMMY! (FOR KIDS)",
                "mealServiceList": [
                  {
                    "mealCode": "SPML",
                    "mealName": "Beef burger and crisps"
                  },
                  {
                    "mealCode": "SPML",
                    "mealName": "Spaghetti and chicken meatball"
                  },
                  {
                    "mealCode": "SPML",
                    "mealName": "Chicken burger and crisps"
                  },
                  {
                    "mealCode": "SPML",
                    "mealName": "Roasted chicken with basmati rice"
                  },
                  {
                    "mealCode": "SPML",
                    "mealName": "Spaghetti and beef meatball"
                  },
                  {
                    "mealCode": "SPML",
                    "mealName": "Omelette alert"
                  },
                  {
                    "mealCode": "SPML",
                    "mealName": "Fish finger battalion"
                  },
                  {
                    "mealCode": "SPML",
                    "mealName": "Macaroni and cheese"
                  },
                  {
                    "mealCode": "SPML",
                    "mealName": "Chicken and vegetable ragout"
                  },
                  {
                    "mealCode": "SPML",
                    "mealName": "Eggs sunnyside up"
                  },
                  {
                    "mealCode": "SPML",
                    "mealName": "Chicken and vegetable lasagne"
                  },
                  {
                    "mealCode": "SPML",
                    "mealName": "Golden scramble eggs in a crepe pocket"
                  },
                  {
                    "mealCode": "SPML",
                    "mealName": "Grilled fish with sweet potato mash"
                  },
                  {
                    "mealCode": "SPML",
                    "mealName": "Sausages and pancakes"
                  },
                  {
                    "mealCode": "SPML",
                    "mealName": "Fried rice surprise"
                  },
                  {
                    "mealCode": "SPML",
                    "mealName": "Poached eggs on toasted muffin"
                  },
                  {
                    "mealCode": "SPML",
                    "mealName": "Seafood fried rice"
                  }
                ]
              }
            ]
          }
        ],
        "segmentId": "1"
      },
      {
        "departureDate": "2015-08-05",
        "departureTime": "0:45:0",
        "departureCityCode": "SIN",
        "arrivalCityCode": "SYD",
        "marketingAirlineCode": "SQ",
        "flightNumber": "231",
        "classOfService": "BUSINESS",
        "selected": "true",
        "mealService": [
          {
            "origin": "SIN",
            "destination": "SYD",
            "departureDate": "2015-08-05",
            "departureTime": "0:45:0",
            "type": "SUPPER",
            "code": "SUPR",
            "mealList": [
              {
                "mealCategoryCode": "BC",
                "mealCategoryName": "BOOK THE COOK",
                "mealServiceList": [
                  {
                    "mealCode": "SPML",
                    "mealName": "Cod with fried rice"
                  },
                  {
                    "mealCode": "SPML",
                    "mealName": "Lontong chicken rendang"
                  },
                  {
                    "mealCode": "SPML",
                    "mealName": "Seared nut veal fillet"
                  },
                  {
                    "mealCode": "SPML",
                    "mealName": "Lamb shank"
                  },
                  {
                    "mealCode": "SPML",
                    "mealName": "Nonya assam fish"
                  },
                  {
                    "mealCode": "SPML",
                    "mealName": "Chilean bass and kalamata olive potato"
                  },
                  {
                    "mealCode": "SPML",
                    "mealName": "Steamed cod fish"
                  },
                  {
                    "mealCode": "SPML",
                    "mealName": "Red duck curry"
                  },
                  {
                    "mealCode": "SPML",
                    "mealName": "Duck with yam rice"
                  },
                  {
                    "mealCode": "SPML",
                    "mealName": "Grilled chilean seabass"
                  },
                  {
                    "mealCode": "SPML",
                    "mealName": "Beef rendang"
                  },
                  {
                    "mealCode": "SPML",
                    "mealName": "Steamed chinese herbal chicken"
                  },
                  {
                    "mealCode": "SPML",
                    "mealName": "Baked king prawn"
                  },
                  {
                    "mealCode": "SPML",
                    "mealName": "U s grilled beef fillet"
                  },
                  {
                    "mealCode": "SPML",
                    "mealName": "Nasi biryani"
                  },
                  {
                    "mealCode": "SPML",
                    "mealName": "Boston lobster thermidor"
                  },
                  {
                    "mealCode": "SPML",
                    "mealName": "Chargrilled soya beef"
                  },
                  {
                    "mealCode": "SPML",
                    "mealName": "Six oz US rib eye steak"
                  },
                  {
                    "mealCode": "SPML",
                    "mealName": "Nasi lemak testing for maximum character for meal in pmss system"
                  },
                  {
                    "mealCode": "SPML",
                    "mealName": "Seared black cod a la nicoise"
                  },
                  {
                    "mealCode": "SPML",
                    "mealName": "Seared salmon"
                  },
                  {
                    "mealCode": "SPML",
                    "mealName": "Roast lamb chop"
                  },
                  {
                    "mealCode": "SPML",
                    "mealName": "Seared lamb loin"
                  },
                  {
                    "mealCode": "SPML",
                    "mealName": "Chicken rice"
                  },
                  {
                    "mealCode": "SPML",
                    "mealName": "Chicken tikka khurchan masala"
                  },
                  {
                    "mealCode": "SPML",
                    "mealName": "Chicken lamb satay"
                  },
                  {
                    "mealCode": "SPML",
                    "mealName": "Roasted vegetables"
                  },
                  {
                    "mealCode": "SPML",
                    "mealName": "Classic lobster thermidor"
                  },
                  {
                    "mealCode": "SPML",
                    "mealName": "Oven roasted corn fed chicken breast"
                  },
                  {
                    "mealCode": "SPML",
                    "mealName": "Gyu don"
                  },
                  {
                    "mealCode": "SPML",
                    "mealName": "Cajun spiced chicken salad"
                  }
                ]
              },
              {
                "mealCategoryCode": "CH",
                "mealCategoryName": "CHILD MEAL",
                "mealServiceList": [
                  {
                    "mealCode": "CHML",
                    "mealName": "Child meal"
                  }
                ]
              },
              {
                "mealCategoryCode": "DM",
                "mealCategoryName": "DIETARY MEALS",
                "mealServiceList": [
                  {
                    "mealCode": "SPML",
                    "mealName": "Soft fluid meal"
                  },
                  {
                    "mealCode": "BLML",
                    "mealName": "Bland meal"
                  },
                  {
                    "mealCode": "SPML",
                    "mealName": "Fat free meal"
                  },
                  {
                    "mealCode": "FPML",
                    "mealName": "Fruit platter"
                  },
                  {
                    "mealCode": "NLML",
                    "mealName": "Low lactose meal"
                  },
                  {
                    "mealCode": "SPML",
                    "mealName": "Non strict nut free meal"
                  },
                  {
                    "mealCode": "SPML",
                    "mealName": "Low fibre residue meal"
                  },
                  {
                    "mealCode": "LSML",
                    "mealName": "Low salt meal"
                  },
                  {
                    "mealCode": "LCML",
                    "mealName": "Low calorie meal"
                  },
                  {
                    "mealCode": "SPML",
                    "mealName": "Semi fluid meal"
                  },
                  {
                    "mealCode": "SPML",
                    "mealName": "Ulcer diet"
                  },
                  {
                    "mealCode": "LFML",
                    "mealName": "Low fat meal"
                  },
                  {
                    "mealCode": "DBML",
                    "mealName": "Diabetic meal"
                  },
                  {
                    "mealCode": "SPML",
                    "mealName": "Nil carbohydrate meal"
                  },
                  {
                    "mealCode": "GFML",
                    "mealName": "Gluten intolerant meal"
                  }
                ]
              },
              {
                "mealCategoryCode": "IF",
                "mealCategoryName": "INFANT MEALS",
                "mealServiceList": [
                  {
                    "mealCode": "BBML",
                    "mealName": "Baby meal"
                  },
                  {
                    "mealCode": "SPML",
                    "mealName": "Postweaning meal"
                  }
                ]
              },
              {
                "mealCategoryCode": "OT",
                "mealCategoryName": "OTHERS",
                "mealServiceList": [
                  {
                    "mealCode": "SFML",
                    "mealName": "Seafood meal"
                  }
                ]
              },
              {
                "mealCategoryCode": "RL",
                "mealCategoryName": "RELIGIOUS MEALS",
                "mealServiceList": [
                  {
                    "mealCode": "MOML",
                    "mealName": "Muslim meal"
                  },
                  {
                    "mealCode": "KSML",
                    "mealName": "Kosher meals"
                  },
                  {
                    "mealCode": "HNML",
                    "mealName": "Hindu non-vegetarian meal"
                  }
                ]
              },
              {
                "mealCategoryCode": "VG",
                "mealCategoryName": "VEGETARIAN MEALS",
                "mealServiceList": [
                  {
                    "mealCode": "VOML",
                    "mealName": "Vegetarian oriental meal"
                  },
                  {
                    "mealCode": "SPML",
                    "mealName": "Vegetarian southern indian meal"
                  },
                  {
                    "mealCode": "RVML",
                    "mealName": "Vegetarian raw meal"
                  },
                  {
                    "mealCode": "VLML",
                    "mealName": "Vegetarian lacto-ovo meal"
                  },
                  {
                    "mealCode": "AVML",
                    "mealName": "Vegetarian indian meal"
                  },
                  {
                    "mealCode": "VGML",
                    "mealName": "Vegetarian vegan meal"
                  }
                ]
              },
              {
                "mealCategoryCode": "BZ",
                "mealCategoryName": "YUMMY! (FOR KIDS)",
                "mealServiceList": [
                  {
                    "mealCode": "SPML",
                    "mealName": "Macaroni and cheese"
                  },
                  {
                    "mealCode": "SPML",
                    "mealName": "Sausages and pancakes"
                  },
                  {
                    "mealCode": "SPML",
                    "mealName": "Grilled fish with sweet potato mash"
                  },
                  {
                    "mealCode": "SPML",
                    "mealName": "Roasted chicken with basmati rice"
                  },
                  {
                    "mealCode": "SPML",
                    "mealName": "Spaghetti and beef meatball"
                  },
                  {
                    "mealCode": "SPML",
                    "mealName": "Poached eggs on toasted muffin"
                  },
                  {
                    "mealCode": "SPML",
                    "mealName": "Chicken and vegetable lasagne"
                  },
                  {
                    "mealCode": "SPML",
                    "mealName": "Fried rice surprise"
                  },
                  {
                    "mealCode": "SPML",
                    "mealName": "Golden scramble eggs in a crepe pocket"
                  },
                  {
                    "mealCode": "SPML",
                    "mealName": "Beef burger and crisps"
                  },
                  {
                    "mealCode": "SPML",
                    "mealName": "Spaghetti and chicken meatball"
                  },
                  {
                    "mealCode": "SPML",
                    "mealName": "Eggs sunnyside up"
                  },
                  {
                    "mealCode": "SPML",
                    "mealName": "Chicken burger and crisps"
                  },
                  {
                    "mealCode": "SPML",
                    "mealName": "Chicken and vegetable ragout"
                  },
                  {
                    "mealCode": "SPML",
                    "mealName": "Fish finger battalion"
                  },
                  {
                    "mealCode": "SPML",
                    "mealName": "Seafood fried rice"
                  },
                  {
                    "mealCode": "SPML",
                    "mealName": "Omelette alert"
                  }
                ]
              }
            ]
          }
        ],
        "segmentId": "2"
      }
    ]
  }
}
