{
  "title": "Mr",
  "firstName": "Sin Chin",
  "lastName": "Tey",
  "paxType": "ADT",
  "gender": "M",
  "kfNumber": "8000172743",
  "dob": "Sep 7, 1977 12:00:00 AM",
  "passportNumber": "G123456",
  "passportExpiryDate": "Oct 4, 2015 12:00:00 AM",
  "nationality": "SG",
  "countryOfResidence": "US",
  "nomineeList": [
    {
      "title": "Miss",
      "firstName": "Shu En Natasha",
      "lastName": "Tey",
      "paxType": "ADT",
      "gender": "F",
      "dob": "Sep 9, 2000 12:00:00 AM",
      "passportNumber": "G123456",
      "passportExpiryDate": "Mar 5, 2019 12:00:00 AM",
      "passportCountryOfIssuance": "SG"
    },
    {
      "title": "Miss",
      "firstName": "Child",
      "lastName": "Nimmy",
      "paxType": "CHD",
      "gender": "F",
      "dob": "Mar 11, 2010 12:00:00 AM",
      "passportNumber": "J468489",
      "passportCountryOfIssuance": "SG"
    },
    {
      "title": "Mr",
      "firstName": "bigbiggerfirstnameeeee",
      "lastName": "bigbiggerlastnameeewhichhastob",
      "paxType": "ADT",
      "gender": "M",
      "dob": "Mar 3, 1992 12:00:00 AM",
      "passportNumber": "sdtge45dg",
      "passportExpiryDate": "Mar 3, 2027 12:00:00 AM"
    },
    {
      "title": "Miss",
      "firstName": "trwet",
      "lastName": "etygqwe",
      "paxType": "CHD",
      "gender": "F",
      "dob": "May 6, 2010 12:00:00 AM",
      "passportNumber": "wgftrfs31242",
      "passportCountryOfIssuance": "SG"
    }
  ],
  "email": "CUS_EMAIL@DOMAIN.COM",
  "phoneNumber": {
    "countryCode": "65",
    "phoneNumber": "98765432"
  },
  "offpList": [
    {
      "programCode": "SK",
      "number": "EBB065896565"
    },
    {
      "programCode": "UA",
      "number": "03073814900"
    },
    {
      "programCode": "VA",
      "number": "8075681913"
    },
    {
      "programCode": "LH",
      "number": "992002301130031"
    }
  ]
}