{
  "title": "Mr",
  "firstName": "Samin",
  "lastName": "Tan",
  "paxType": "ADT",
  "gender": "M",
  "kfNumber": "8100416895",
  "dob": "Sep 9, 1977 12:00:00 AM",
  "passportNumber": "G123456",
  "passportExpiryDate": "Oct 18, 2015 12:00:00 AM",
  "nationality": "ID",
  "countryOfResidence": "CA",
  "nomineeList": [
    {
      "title": "Mr",
      "firstName": "Arul",
      "lastName": "Nathan",
      "paxType": "ADT",
      "gender": "M",
      "dob": "Jun 4, 1987 12:00:00 AM",
      "passportNumber": "H221234626"
    },
    {
      "title": "Mr",
      "firstName": "Raviraj",
      "lastName": "Velupillai",
      "paxType": "ADT",
      "gender": "M",
      "kfNumber": "8932700036",
      "dob": "May 7, 1949 12:00:00 AM",
      "passportNumber": "H23462",
      "passportExpiryDate": "Apr 4, 2020 12:00:00 AM",
      "passportCountryOfIssuance": "SG"
    },
    {
      "title": "Dr",
      "firstName": "adult",
      "lastName": "nominee",
      "paxType": "ADT",
      "gender": "B",
      "dob": "Feb 2, 1985 12:00:00 AM",
      "passportNumber": "SAFF6546",
      "passportCountryOfIssuance": "SG"
    },
    {
      "title": "Dr",
      "firstName": "test",
      "lastName": "nominee",
      "paxType": "ADT",
      "gender": "B",
      "dob": "Feb 2, 1981 12:00:00 AM",
      "passportNumber": "SDAFF5",
      "passportCountryOfIssuance": "SG"
    },
    {
      "title": "Mr",
      "lastName": "varun",
      "paxType": "ADT",
      "gender": "M",
      "dob": "Feb 2, 1986 12:00:00 AM",
      "passportNumber": "sdf234",
      "passportExpiryDate": "Mar 2, 2016 12:00:00 AM",
      "passportCountryOfIssuance": "AD"
    }
  ],
  "email": "saa_devmail@sqdev.com.sg",
  "phoneNumber": {
    "countryCode": "062",
    "phoneNumber": "8198765432"
  },
  "offpList": []
}