{
  "title": "Miss",
  "firstName": "Bhavana",
  "lastName": "Soni",
  "paxType": "ADT",
  "gender": "F",
  "kfNumber": "8230067229",
  "dob": "May 13, 1980 12:00:00 AM",
  "nationality": "AF",
  "countryOfResidence": "AF",
  "nomineeList": [
    {
      "title": "Dr",
      "firstName": "Test",
      "lastName": "Test",
      "paxType": "ADT",
      "gender": "B",
      "dob": "Mar 4, 1992 12:00:00 AM",
      "passportNumber": "456636hgg",
      "passportCountryOfIssuance": "SG"
    },
    {
      "title": "Miss",
      "firstName": "Bhavana",
      "lastName": "Soni",
      "paxType": "ADT",
      "gender": "F",
      "kfNumber": "8230067229",
      "dob": "May 13, 1980 12:00:00 AM",
      "passportNumber": "AUJPP233234",
      "passportCountryOfIssuance": "SG"
    },
    {
      "title": "Mr",
      "lastName": "test",
      "paxType": "ADT",
      "gender": "M",
      "dob": "May 4, 1980 12:00:00 AM",
      "passportNumber": "asdf123",
      "passportExpiryDate": "May 6, 2020 12:00:00 AM",
      "passportCountryOfIssuance": "IN"
    },
    {
      "title": "Mr",
      "lastName": "karthi",
      "paxType": "ADT",
      "gender": "M",
      "dob": "Feb 3, 1992 12:00:00 AM",
      "passportNumber": "dsd22",
      "passportCountryOfIssuance": "SG"
    },
    {
      "title": "Mr",
      "lastName": "Vinay",
      "paxType": "ADT",
      "gender": "M",
      "dob": "Jan 1, 1992 12:00:00 AM",
      "passportNumber": "sdaf3r4",
      "passportCountryOfIssuance": "SG"
    }
  ],
  "email": "saa_devmail@sqdev.com.sg",
  "phoneNumber": {
    "countryCode": "65",
    "phoneNumber": "963852741"
  },
  "offpList": []
}