[{
	"referenceNumber": "EE172X",
	"flightNumber": "SQ 2",
	"checkingStatus": 1,
	"aircraft": "Boeing A330-300",
	"from": {
		"name": "San Francisco",
		"code": "SFO",
		"time": "00:05",
		"date": "21 Feb (Sat)",
		"airport": "San Francisco Int'l"
	},
	"to": {
		"name": "Singapore",
		"code": "SIN",
		"time": "22:15",
		"date": "21 Feb (Sat)",
		"airport": "Changi Int'l"
	},
	"delay": "This flight has been delayed, and is scheduled to depart at 07:45."
}, {
	"referenceNumber": "EE206X",
	"flightNumber": "SQ 106",
	"checkingStatus": 2,
	"aircraft": "Boeing A330-300",
	"from": {
		"name": "Singapore",
		"code": "SIN",
		"time": "00:05",
		"date": "22 Feb (Sun)",
		"airport": "Changi Int'l"
	},
	"to": {
		"name": "Kuala Lumpur",
		"code": "KUL",
		"time": "22:15",
		"date": "22 Feb (Sun)",
		"airport": "Kuala Lumpur Intl'l"
	}
}]