{
	"selectedSegmentListJson": [
		{
			"selectFlightSegment": {
				"segment": [
					{
						"segmentId": "1",
						"segmentDropDownValue": "Singapore to San Francisco",
						"itinerary": {
							"flight": "SQ 2",
							"cabin": "Economy (N)",
							"cityCode": "SFO",
							"departureTime": "00:05",
							"departuteDate": "21 Feb (Sat)",
							"upgradeTo": {
								"upgradeCabinClass": "Premium Economy",
								"upgradeCondition": "Description"
							}
						}
					}
				]
			}
		}
	]
}