[
  {
    "trips": [
      "San Francisco",
      "Singapore"
    ],
    "type": "Return",
    "url": "ajax/sqc-booking-upcoming-flight-01.json",
    "departureDate": "21 Feb 2015 (Sat)",
    "dateFrom": "Saturday",
    "dateTo": "Monday",
    "passengers": ["Peter Lim", "Dennis Wong", "David Lee", "Simon Yao", "Eve Tan", "Jasmine Sim", "Thomas Tan", "Fiona Ong", "Prentice Porter"]
  },
  {
    "trips": [
      "Singapore",
      "Hong Kong"
    ],
    "type": "Return",
    "url": "ajax/sqc-booking-upcoming-flight-02.json",
    "dateFrom": "Friday",
    "dateTo": "Sunday",
    "passengers": ["Simon Yao", "Eve Tan", "Jasmine Sim", "Thomas Tan", "Fiona Ong", "Prentice Porter"]
  },
  {
    "trips": [
      "Singapore",
      "Kuala Lumpur",
      "Sydney"
    ],
    "type": "Return",
    "url": "ajax/sqc-booking-upcoming-flight-03.json",
    "dateFrom": "Friday",
    "dateTo": "Sunday",
    "passengers": ["Peter Lim", "Dennis Wong", "David Lee", "Simon Yao", "Eve Tan", "Jasmine Sim", "Thomas Tan", "Fiona Ong", "Prentice Porter"]
  },
  {
    "trips": [
      "San Francisco",
      "Singapore"
    ],
    "type": "Return",
    "url": "ajax/sqc-booking-upcoming-flight-01.json",
    "departureDate": "21 Feb 2015 (Sat)",
    "dateFrom": "Saturday",
    "dateTo": "Monday",
    "passengers": ["Peter Lim", "Dennis Wong", "David Lee", "Simon Yao", "Eve Tan", "Jasmine Sim", "Thomas Tan", "Fiona Ong", "Prentice Porter"]
  },
  {
    "trips": [
      "Singapore",
      "Hong Kong"
    ],
    "type": "Return",
    "url": "ajax/sqc-booking-upcoming-flight-02.json",
    "dateFrom": "Friday",
    "dateTo": "Sunday",
    "passengers": ["Simon Yao", "Eve Tan", "Jasmine Sim", "Thomas Tan", "Fiona Ong", "Prentice Porter"]
  },
  {
    "trips": [
      "Singapore",
      "Kuala Lumpur",
      "Sydney"
    ],
    "type": "Return",
    "url": "ajax/sqc-booking-upcoming-flight-03.json",
    "dateFrom": "Friday",
    "dateTo": "Sunday",
    "passengers": ["Peter Lim", "Dennis Wong", "David Lee", "Simon Yao", "Eve Tan", "Jasmine Sim", "Thomas Tan", "Fiona Ong", "Prentice Porter"]
  }
]