{
	"referenceNumber": "EE172X",
	"flightNumber": "2",
	"aircraft": "Boeing A330-300",
	"carrierCode": "SQ",
	"ticketStatus": 3,
	"flyingTime": "18hrs 50mins",
	"lastName": "Paxname",
	"btnLabel": "Search flights",
	"flightClass": "Premium Economy (N)",
	"origin": "SIN",
	"date": "02/22/2014",
	"from": {
		"code": "SIN",
		"date" : "22 Feb (Sun)",
		"time" : "01:55",
		"airport" : "Changi Int'l",
		"terminal": "3",
		"cityName": "Singapore"
	},
	"to": {
		"code": "KUL",
		"date" : "22 Feb (Sun)",
		"time" : "22:55",
		"airport" : "Kuala Lumpur Intl'l",
		"terminal": "M",
		"cityName": "Kuala Lumpur"
	},
	"layoverMessage": "Layover time 1hr 1hr"
}