<?xml version="1.0" standalone="no"?>
<!DOCTYPE svg PUBLIC "-//W3C//DTD SVG 1.1//EN" "http://www.w3.org/Graphics/SVG/1.1/DTD/svg11.dtd" >
<svg xmlns="http://www.w3.org/2000/svg">
<metadata>Generated by IcoMoon</metadata>
<defs>
<font id="sia-2" horiz-adv-x="1024">
<font-face units-per-em="1024" ascent="960" descent="-64" />
<missing-glyph horiz-adv-x="1024" />
<glyph unicode="&#x20;" horiz-adv-x="512" d="" />
<glyph unicode="&#xe674;" glyph-name="zip" d="M542.72 145.919l38.912 73.728h-35.84v26.624h73.728v-23.552l-38.912-73.728h38.912v-26.624h-76.8v23.552zM646.144 246.271h31.744v-123.904h-31.744v123.904zM708.608 246.271h48.128c24.576 0 35.84-16.384 35.84-37.888 0-25.6-14.336-37.888-40.96-37.888h-11.264v-47.104h-31.744v122.88zM741.376 193.023h6.144c8.192 0 12.288 5.12 12.288 15.36s-4.096 15.36-12.288 15.36h-6.144v-30.72zM835.584 934.399h-777.216v-972.8h908.288v841.728l-131.072 131.072zM901.12 26.111h-778.24v843.776h645.12v-135.168h133.12v-708.608zM475.136 613.887h36.864v-36.864h-36.864v36.864zM475.136 686.591h36.864v-36.864h-36.864v36.864zM475.136 541.183h36.864v-36.864h-36.864v36.864zM475.136 833.023h36.864v-36.864h-36.864v36.864zM475.136 760.319h36.864v-36.864h-36.864v36.864zM548.864 468.479h-36.864v36.864h36.864v-36.864zM548.864 541.183h-36.864v36.864h36.864v-36.864zM548.864 613.887h-36.864v36.864h36.864v-36.864zM548.864 687.615h-36.864v36.864h36.864v-36.864zM548.864 760.319h-36.864v36.864h36.864v-36.864zM548.864 834.047h-36.864v35.84h36.864v-35.84zM475.136 461.311h72.704v-30.72h-72.704v30.72zM475.136 422.399v-108.544h72.704v108.544h-72.704zM531.456 381.439h-39.936v22.528h39.936v-22.528z" />
<glyph unicode="&#xe900;" glyph-name="icon-4-in" d="M966.656 179.712c10.24 1.024 15.36 7.168 15.36 16.384 0 11.264-7.168 17.408-20.48 17.408h-22.528v-60.416h8.192v26.624h10.24l16.384-26.624h9.216l-17.408 26.624h1.024zM956.416 185.856h-10.24v20.48h12.288c6.144 0 14.336-1.024 14.336-10.24s-7.168-10.24-16.384-10.24zM957.44 241.152c-31.744 0-56.32-25.6-56.32-57.344 0-32.768 24.576-57.344 56.32-57.344s56.32 25.6 56.32 57.344c0 31.744-24.576 57.344-56.32 57.344zM957.44 133.632c-26.624 0-48.128 21.504-48.128 50.176s21.504 50.176 48.128 50.176c26.624 0 48.128-21.504 48.128-50.176s-21.504-50.176-48.128-50.176zM801.792 884.224h-728.064c-34.816 0-63.488-27.648-63.488-62.464v-746.496c0-34.816 28.672-62.464 63.488-62.464h728.064c34.816 0 63.488 28.672 63.488 62.464v746.496c0 34.816-28.672 62.464-63.488 62.464zM264.192 140.8h-126.976v416.768h126.976v-416.768zM200.704 613.888c-40.96 0-73.728 33.792-73.728 74.752s32.768 74.752 73.728 74.752c40.96 0 73.728-33.792 73.728-74.752-1.024-40.96-33.792-74.752-73.728-74.752zM738.304 140.8h-126.976v202.752c0 48.128-1.024 110.592-65.536 110.592-65.536 0-75.776-52.224-75.776-106.496v-206.848h-126.976v416.768h121.856v-57.344h2.048c17.408 32.768 58.368 67.584 119.808 67.584 128 0 151.552-86.016 151.552-198.656v-228.352z" />
<glyph unicode="&#xe901;" glyph-name="icon-4-in-1" d="M948.224 960h-872.448c-41.984 0-75.776-32.768-75.776-73.728v-876.544c0-40.96 33.792-73.728 75.776-73.728h872.448c41.984 0 75.776 32.768 75.776 73.728v876.544c0 40.96-33.792 73.728-75.776 73.728zM304.128 87.552h-152.576v488.448h151.552v-488.448zM227.328 642.56c-49.152 0-88.064 39.936-88.064 88.064s38.912 88.064 88.064 88.064c48.128 0 88.064-39.936 88.064-88.064s-38.912-88.064-88.064-88.064zM872.448 87.552h-151.552v237.568c0 56.32-1.024 130.048-78.848 130.048-78.848 0-91.136-61.44-91.136-125.952v-241.664h-151.552v488.448h145.408v-66.56h2.048c20.48 38.912 69.632 78.848 143.36 78.848 153.6 0 182.272-101.376 182.272-232.448v-268.288z" />
<glyph unicode="&#xe902;" glyph-name="ico-voucher" d="M848.896 803.328l-839.68-196.608 86.016-369.664v360.448h801.792zM271.36 310.784c-2.048 2.048-5.12 3.072-7.168 4.096-1.024 0-2.048 1.024-4.096 1.024v-38.912c1.024 0 3.072 1.024 4.096 1.024 3.072 1.024 5.12 2.048 7.168 4.096s3.072 4.096 5.12 6.144c1.024 2.048 2.048 5.12 2.048 8.192s-1.024 5.12-2.048 7.168c-1.024 4.096-3.072 6.144-5.12 7.168zM887.808 366.080c-2.048-2.048-3.072-3.072-4.096-6.144-1.024-2.048-2.048-5.12-2.048-8.192s1.024-6.144 2.048-8.192c1.024-2.048 3.072-4.096 4.096-5.12 2.048-2.048 4.096-3.072 7.168-4.096 1.024 0 2.048-1.024 3.072-1.024v36.864c-1.024 0-2.048-1.024-3.072-1.024-3.072 0-5.12-1.024-7.168-3.072zM238.592 366.080c-2.048-2.048-3.072-3.072-4.096-6.144-1.024-2.048-2.048-5.12-2.048-8.192s1.024-6.144 2.048-8.192c1.024-2.048 3.072-4.096 4.096-5.12 2.048-2.048 4.096-3.072 7.168-4.096 1.024 0 2.048-1.024 3.072-1.024v36.864c-1.024 0-2.048-1.024-3.072-1.024-3.072 0-5.12-1.024-7.168-3.072zM921.6 310.784c-2.048 2.048-5.12 3.072-7.168 4.096-1.024 0-2.048 1.024-4.096 1.024v-38.912c1.024 0 3.072 1.024 4.096 1.024 3.072 1.024 5.12 2.048 7.168 4.096s3.072 4.096 5.12 6.144c1.024 2.048 2.048 5.12 2.048 8.192s-1.024 5.12-2.048 7.168-3.072 6.144-5.12 7.168zM969.728 556.544h-825.344v-463.872h871.424v463.872h-46.080zM287.744 284.16c-2.048-4.096-4.096-7.168-7.168-10.24s-7.168-5.12-11.264-6.144c-3.072-1.024-6.144-2.048-9.216-2.048v-18.432c0-3.072-2.048-5.12-5.12-5.12h-3.072c-2.048 0-5.12 2.048-5.12 5.12v18.432c-5.12 1.024-10.24 2.048-14.336 4.096-5.12 3.072-10.24 6.144-14.336 10.24-2.048 2.048-1.024 5.12 0 6.144l2.048 2.048c2.048 2.048 5.12 1.024 6.144 0 3.072-3.072 7.168-6.144 11.264-8.192 3.072-1.024 5.12-2.048 8.192-3.072v43.008c-3.072 1.024-6.144 2.048-8.192 3.072-4.096 2.048-7.168 4.096-10.24 6.144-3.072 3.072-5.12 6.144-7.168 9.216s-2.048 8.192-2.048 13.312c0 4.096 1.024 9.216 2.048 12.288 2.048 4.096 4.096 7.168 7.168 9.216 3.072 3.072 6.144 5.12 10.24 6.144 3.072 1.024 5.12 2.048 8.192 2.048v19.456c0 3.072 2.048 5.12 5.12 5.12h5.12c3.072 0 5.12-2.048 5.12-5.12v-18.432c4.096 0 9.216-1.024 13.312-3.072 6.144-2.048 10.24-5.12 14.336-10.24 2.048-2.048 1.024-5.12-1.024-6.144l-2.048-2.048c-1.024-1.024-2.048-1.024-3.072-1.024s-2.048 1.024-3.072 2.048c-2.048 3.072-5.12 5.12-9.216 7.168-3.072 1.024-5.12 2.048-8.192 2.048v-41.984c3.072-1.024 6.144-2.048 9.216-3.072 4.096-2.048 8.192-4.096 11.264-6.144s6.144-6.144 8.192-9.216c2.048-4.096 3.072-8.192 3.072-13.312-3.072-4.096-4.096-9.216-6.144-13.312zM769.024 410.112c0-10.24-17.408-25.6-17.408-25.6l-88.064-41.984-29.696-185.344-23.552-9.216-12.288 139.264-12.288 20.48-104.448-50.176-23.552-72.704-5.12-3.072-13.312 68.608-7.168 2.048h-2.048l4.096 8.192-44.032 54.272 6.144 2.048 70.656-27.648 104.448 49.152-7.168 22.528-101.376 97.28 21.504 12.288 162.816-94.208 88.064 41.984c0-1.024 33.792 5.12 33.792-8.192 0 0 0 0 0 0zM937.984 284.16c-2.048-4.096-4.096-7.168-7.168-10.24s-7.168-5.12-11.264-6.144c-3.072-1.024-6.144-2.048-9.216-2.048v-18.432c0-3.072-2.048-5.12-5.12-5.12h-3.072c-3.072 0-5.12 2.048-5.12 5.12v18.432c-5.12 1.024-10.24 2.048-14.336 4.096-6.144 3.072-10.24 6.144-14.336 10.24-2.048 2.048-1.024 5.12 0 6.144l3.072 2.048c2.048 2.048 5.12 1.024 6.144 0 3.072-3.072 7.168-6.144 11.264-8.192 3.072-1.024 5.12-2.048 8.192-3.072v43.008c-3.072 1.024-6.144 2.048-8.192 3.072-4.096 2.048-7.168 4.096-10.24 6.144-3.072 3.072-5.12 6.144-7.168 9.216s-2.048 8.192-2.048 13.312c0 4.096 1.024 9.216 2.048 12.288 2.048 4.096 4.096 7.168 7.168 9.216 3.072 3.072 6.144 5.12 10.24 6.144 3.072 1.024 5.12 2.048 8.192 2.048v19.456c0 3.072 2.048 5.12 5.12 5.12h3.072c3.072 0 5.12-2.048 5.12-5.12v-18.432c4.096 0 9.216-1.024 13.312-3.072 6.144-2.048 10.24-5.12 14.336-10.24 2.048-2.048 1.024-5.12-1.024-6.144l-2.048-2.048c-1.024-1.024-2.048-1.024-3.072-1.024s-2.048 1.024-3.072 2.048c-2.048 3.072-5.12 5.12-9.216 7.168-3.072 1.024-5.12 2.048-8.192 2.048v-41.984c3.072-1.024 6.144-2.048 9.216-3.072 4.096-2.048 8.192-4.096 11.264-6.144s6.144-6.144 8.192-9.216c2.048-4.096 3.072-8.192 3.072-13.312-2.048-4.096-3.072-9.216-5.12-13.312z" />
</font></defs></svg>