{
  "searchSuggests": [
    "AppleScript",
    "Asp",
    "BASIC",
    "C",
    "C++",
    "Clojure",
    "COBOL",
    "ColdFusion",
    "Erlang",
    "Fortran",
    "Groovy",
    "Haskell",
    "Java",
    "JavaScript",
    "JavaScript1",
    "JavaScript2",
    "JavaScript3",
    "JavaScript4",
    "JavaScript5",
    "JavaScript6",
    "JavaScript7",
    "JavaScript8",
    "JavaScript9",
    "Lisp",
    "Perl",
    "PHP",
    "Python",
    "Ruby",
    "Scala",
    "Scheme"
  ]
}
