{
  "locale": "en_UK",
  "errorVO": {},
  "MealVO": {
    "passengerAndMealAssociationVO": [
      {
        "passengerName": "TEST PAXONE",
        "passengerId": 2,
        "passengerType": "ADT",
        "mealSelected": "false",
        "flightDateInformationVO": [
          {
            "departureDate": "2017-03-10",
            "departureTime": "8:30:0",
            "departureCityCode": "SIN",
            "arrivalCityCode": "SFO",
            "marketingAirlineCode": "SQ",
            "flightNumber": "32",
            "classOfService": "BUSINESS",
            "isMealselected": "false",
            "eligible": "true",
            "segmentID": "1",
            "SectorMealSelectedInfo": []
          }
        ]
      }
    ],
    "passengerStartingPoint": "0"
  },
  "segmentMealVO": {
    "sectorMealListInformationVO": [
      {
        "departureDate": "2017-03-10",
        "departureTime": "8:30:0",
        "departureCityCode": "SIN",
        "arrivalCityCode": "SFO",
        "marketingAirlineCode": "SQ",
        "flightNumber": "32",
        "classOfService": "BUSINESS",
        "selected": "true",
        "partiallyFlown": false,
        "mealService": [
          {
            "origin": "SIN",
            "destination": "SFO",
            "departureDate": "2017-03-10",
            "departureTime": "8:30:0",
            "type": "LUNCH",
            "code": "LNCH",
            "nameByLocale": "LUNCH",
            "popupJson": "booking-detail-JCL_SIN-SFO_All-Day_Dining.json",
            "mealList": [
              {
                "mealCategoryCode": "BC",
                "mealCategoryName": "BOOK THE COOK",
                "mealCategoryLocaleName": "BOOK THE COOK",
                "mealServiceList": [
                  {
                    "mealCode": "SPML",
                    "mealName": "Red duck curry",
                    "nameByLocale": "Red duck curry"
                  },
                  {
                    "mealCode": "SPML",
                    "mealName": "Nasi biryani",
                    "nameByLocale": "Nasi biryani"
                  },
                  {
                    "mealCode": "SPML",
                    "mealName": "Chilean bass and kalamata olive potato",
                    "nameByLocale": "Chilean bass and kalamata olive potato"
                  },
                  {
                    "mealCode": "SPML",
                    "mealName": "Duck with yam rice",
                    "nameByLocale": "Duck with yam rice"
                  },
                  {
                    "mealCode": "SPML",
                    "mealName": "Seared black cod a la nicoise",
                    "nameByLocale": "Seared black cod a la nicoise"
                  },
                  {
                    "mealCode": "SPML",
                    "mealName": "Test meal",
                    "nameByLocale": "Test meal"
                  },
                  {
                    "mealCode": "SPML",
                    "mealName": "Seared salmon",
                    "nameByLocale": "Seared salmon"
                  },
                  {
                    "mealCode": "SPML",
                    "mealName": "Indian style braised lamb shank",
                    "nameByLocale": "Indian style braised lamb shank"
                  },
                  {
                    "mealCode": "SPML",
                    "mealName": "Chicken tikka khurchan masala",
                    "nameByLocale": "Chicken tikka khurchan masala"
                  },
                  {
                    "mealCode": "SPML",
                    "mealName": "Steamed cod fish",
                    "nameByLocale": "Steamed cod fish"
                  },
                  {
                    "mealCode": "SPML",
                    "mealName": "Cajun spiced chicken salad",
                    "nameByLocale": "Cajun spiced chicken salad"
                  },
                  {
                    "mealCode": "SPML",
                    "mealName": "Wholesome baked pistachio crusted lamb chops",
                    "nameByLocale": "Wholesome baked pistachio crusted lamb chops"
                  },
                  {
                    "mealCode": "SPML",
                    "mealName": "Assorted sushi",
                    "nameByLocale": "Assorted sushi"
                  },
                  {
                    "mealCode": "SPML",
                    "mealName": "U s grilled beef fillet",
                    "nameByLocale": "U s grilled beef fillet"
                  },
                  {
                    "mealCode": "SPML",
                    "mealName": "Nasi lemak meal",
                    "nameByLocale": "Nasi lemak meal"
                  },
                  {
                    "mealCode": "SPML",
                    "mealName": "Seared lamb loin",
                    "nameByLocale": "Seared lamb loin"
                  },
                  {
                    "mealCode": "SPML",
                    "mealName": "Boston lobster thermidor",
                    "nameByLocale": "Boston lobster thermidor"
                  },
                  {
                    "mealCode": "SPML",
                    "mealName": "Nonya assam fish",
                    "nameByLocale": "Nonya assam fish"
                  },
                  {
                    "mealCode": "SPML",
                    "mealName": "Chicken lamb satay",
                    "nameByLocale": "Chicken lamb satay"
                  },
                  {
                    "mealCode": "SPML",
                    "mealName": "Roast lamb chop",
                    "nameByLocale": "Roast lamb chop"
                  },
                  {
                    "mealCode": "SPML",
                    "mealName": "Classic lobster thermidor",
                    "nameByLocale": "Classic lobster thermidor"
                  },
                  {
                    "mealCode": "SPML",
                    "mealName": "Gyu don",
                    "nameByLocale": "Gyu don"
                  },
                  {
                    "mealCode": "SPML",
                    "mealName": "Roasted vegetables",
                    "nameByLocale": "Roasted vegetables"
                  },
                  {
                    "mealCode": "SPML",
                    "mealName": "Cod with fried rice",
                    "nameByLocale": "Cod with fried rice"
                  },
                  {
                    "mealCode": "SPML",
                    "mealName": "Lontong chicken rendang",
                    "nameByLocale": "Lontong chicken rendang"
                  },
                  {
                    "mealCode": "SPML",
                    "mealName": "Seared nut veal fillet",
                    "nameByLocale": "Seared nut veal fillet"
                  },
                  {
                    "mealCode": "SPML",
                    "mealName": "Steamed chinese herbal chicken",
                    "nameByLocale": "Steamed chinese herbal chicken"
                  },
                  {
                    "mealCode": "SPML",
                    "mealName": "Opor chicken",
                    "nameByLocale": "Opor chicken"
                  },
                  {
                    "mealCode": "SPML",
                    "mealName": "Oven roasted corn fed chicken breast",
                    "nameByLocale": "Oven roasted corn fed chicken breast"
                  },
                  {
                    "mealCode": "SPML",
                    "mealName": "Grilled chilean seabass",
                    "nameByLocale": "Grilled chilean seabass"
                  },
                  {
                    "mealCode": "SPML",
                    "mealName": "Six oz US rib eye steak",
                    "nameByLocale": "Six oz US rib eye steak"
                  },
                  {
                    "mealCode": "SPML",
                    "mealName": "Beef rendang",
                    "nameByLocale": "Beef rendang"
                  }
                ]
              },
              {
                "mealCategoryCode": "CH",
                "mealCategoryName": "CHILD MEAL",
                "mealCategoryLocaleName": "CHILD MEAL",
                "mealServiceList": [
                  {
                    "mealCode": "CHML",
                    "mealName": "CHILD MEAL",
                    "nameByLocale": "Child meal"
                  }
                ]
              },
              {
                "mealCategoryCode": "DM",
                "mealCategoryName": "DIETARY MEALS",
                "mealCategoryLocaleName": "DIETARY MEALS",
                "mealServiceList": [
                  {
                    "mealCode": "LFML",
                    "mealName": "LOW FAT MEAL",
                    "nameByLocale": "Low fat meal"
                  },
                  {
                    "mealCode": "SPML",
                    "mealName": "Non strict nut free meal",
                    "nameByLocale": "Non strict nut free meal"
                  },
                  {
                    "mealCode": "SPML",
                    "mealName": "Fat free meal",
                    "nameByLocale": "Fat free meal"
                  },
                  {
                    "mealCode": "SPML",
                    "mealName": "Nil carbohydrate meal",
                    "nameByLocale": "Nil carbohydrate meal"
                  },
                  {
                    "mealCode": "LSML",
                    "mealName": "LOW SALT MEAL",
                    "nameByLocale": "Low salt meal"
                  },
                  {
                    "mealCode": "SPML",
                    "mealName": "Semi fluid meal",
                    "nameByLocale": "Semi fluid meal"
                  },
                  {
                    "mealCode": "FPML",
                    "mealName": "FRUIT PLATTER",
                    "nameByLocale": "Fruit platter"
                  },
                  {
                    "mealCode": "LCML",
                    "mealName": "LOW CALORIE MEAL",
                    "nameByLocale": "Low calorie meal"
                  },
                  {
                    "mealCode": "GFML",
                    "mealName": "GLUTEN INTOLERANT MEAL",
                    "nameByLocale": "Gluten intolerant meal"
                  },
                  {
                    "mealCode": "NLML",
                    "mealName": "LOW LACTOSE MEAL",
                    "nameByLocale": "Low lactose meal"
                  },
                  {
                    "mealCode": "SPML",
                    "mealName": "Ulcer diet",
                    "nameByLocale": "Ulcer diet"
                  },
                  {
                    "mealCode": "SPML",
                    "mealName": "Low fibre residue meal",
                    "nameByLocale": "Low fibre residue meal"
                  },
                  {
                    "mealCode": "BLML",
                    "mealName": "BLAND MEAL",
                    "nameByLocale": "Bland meal"
                  },
                  {
                    "mealCode": "SPML",
                    "mealName": "Soft fluid meal",
                    "nameByLocale": "Soft fluid meal"
                  }
                ]
              },
              {
                "mealCategoryCode": "OT",
                "mealCategoryName": "OTHERS",
                "mealCategoryLocaleName": "OTHERS",
                "mealServiceList": [
                  {
                    "mealCode": "SFML",
                    "mealName": "SEAFOOD MEAL",
                    "nameByLocale": "Seafood meal"
                  },
                  {
                    "mealCode": "SPML",
                    "mealName": "Non seafood meal",
                    "nameByLocale": "Non seafood meal"
                  },
                  {
                    "mealCode": "SPML",
                    "mealName": "Fast lunch",
                    "nameByLocale": "Fast lunch"
                  }
                ]
              },
              {
                "mealCategoryCode": "RL",
                "mealCategoryName": "RELIGIOUS MEALS",
                "mealCategoryLocaleName": "RELIGIOUS MEALS",
                "mealServiceList": [
                  {
                    "mealCode": "MOML",
                    "mealName": "MUSLIM MEAL",
                    "nameByLocale": "Muslim meal"
                  },
                  {
                    "mealCode": "KSML",
                    "mealName": "KOSHER MEAL",
                    "nameByLocale": "Kosher meal"
                  },
                  {
                    "mealCode": "HNML",
                    "mealName": "HINDU NON-VEGETARIAN MEAL",
                    "nameByLocale": "Hindu non-vegetarian meal"
                  }
                ]
              },
              {
                "mealCategoryCode": "VG",
                "mealCategoryName": "VEGETARIAN MEALS",
                "mealCategoryLocaleName": "VEGETARIAN MEALS",
                "mealServiceList": [
                  {
                    "mealCode": "RVML",
                    "mealName": "VEGETARIAN RAW MEAL",
                    "nameByLocale": "Vegetarian raw meal"
                  },
                  {
                    "mealCode": "VOML",
                    "mealName": "VEGETARIAN ORIENTAL MEAL",
                    "nameByLocale": "Vegetarian oriental meal"
                  },
                  {
                    "mealCode": "VGML",
                    "mealName": "VEGETARIAN VEGAN MEAL",
                    "nameByLocale": "Vegetarian vegan meal"
                  },
                  {
                    "mealCode": "VLML",
                    "mealName": "VEGETARIAN LACTO-OVO MEAL",
                    "nameByLocale": "Vegetarian lacto-ovo meal"
                  },
                  {
                    "mealCode": "AVML",
                    "mealName": "VEGETARIAN INDIAN MEAL",
                    "nameByLocale": "Vegetarian indian meal"
                  }
                ]
              },
              {
                "mealCategoryCode": "BZ",
                "mealCategoryName": "YUMMY! (FOR KIDS)",
                "mealCategoryLocaleName": "YUMMY FOR KIDS",
                "mealServiceList": [
                  {
                    "mealCode": "SPML",
                    "mealName": "Eggs sunnyside up",
                    "nameByLocale": "Eggs sunnyside up"
                  },
                  {
                    "mealCode": "SPML",
                    "mealName": "Poached eggs on toasted muffin",
                    "nameByLocale": "Poached eggs on toasted muffin"
                  },
                  {
                    "mealCode": "SPML",
                    "mealName": "Sausages and pancakes",
                    "nameByLocale": "Sausages and pancakes"
                  },
                  {
                    "mealCode": "SPML",
                    "mealName": "Chicken and vegetable ragout",
                    "nameByLocale": "Chicken and vegetable ragout"
                  },
                  {
                    "mealCode": "SPML",
                    "mealName": "Grilled fish with sweet potato mash",
                    "nameByLocale": "Grilled fish with sweet potato mash"
                  },
                  {
                    "mealCode": "SPML",
                    "mealName": "Beef burger and crisps",
                    "nameByLocale": "Beef burger and crisps"
                  },
                  {
                    "mealCode": "SPML",
                    "mealName": "Omelette alert",
                    "nameByLocale": "Omelette alert"
                  },
                  {
                    "mealCode": "SPML",
                    "mealName": "Fish finger battalion",
                    "nameByLocale": "Fish finger battalion"
                  },
                  {
                    "mealCode": "SPML",
                    "mealName": "Golden scramble eggs in a crepe pocket",
                    "nameByLocale": "Golden scramble eggs in a crepe pocket"
                  },
                  {
                    "mealCode": "SPML",
                    "mealName": "Roasted chicken with basmati rice",
                    "nameByLocale": "Roasted chicken with basmati rice"
                  },
                  {
                    "mealCode": "SPML",
                    "mealName": "Spaghetti and beef meatball",
                    "nameByLocale": "Spaghetti and beef meatball"
                  },
                  {
                    "mealCode": "SPML",
                    "mealName": "Macaroni and cheese",
                    "nameByLocale": "Macaroni and cheese"
                  },
                  {
                    "mealCode": "SPML",
                    "mealName": "Chicken and vegetable lasagne",
                    "nameByLocale": "Chicken and vegetable lasagne"
                  },
                  {
                    "mealCode": "SPML",
                    "mealName": "Fried rice surprise",
                    "nameByLocale": "Fried rice surprise"
                  },
                  {
                    "mealCode": "SPML",
                    "mealName": "Chicken burger and crisps",
                    "nameByLocale": "Chicken burger and crisps"
                  },
                  {
                    "mealCode": "SPML",
                    "mealName": "Seafood fried rice",
                    "nameByLocale": "Seafood fried rice"
                  },
                  {
                    "mealCode": "SPML",
                    "mealName": "Spaghetti and chicken meatball",
                    "nameByLocale": "Spaghetti and chicken meatball"
                  }
                ]
              }
            ],
            "mealCheck": false
          }
        ],
        "segmentId": "1",
        "flightStatus": "HK",
        "ticketStatus": "Ticketed"
      }
    ]
  }
}
