{
  "flightInfo": {
    "flightCarrierCode": "SQ",
    "flightNumber": "032",
    "flightDate": "21-Mar-16",
    "creationDate": "28-Nov-2016",
    "flightSectorInfo": {
      "departureAirportCode": "SIN",
      "arrivalAirportCode": "SFO",
      "departureCityName": "Singapore",
      "arrivalCityName": "San Francisco",
      "cabinClassInfo": {
        "cabinClassCode": "JCL",
        "menuInfo": {
          "menuCategory": "F",
          "mealInfo": {
            "mealServiceCode": "ALJ",
            "mealServiceName": "a la carte Dining",
            "selectionDetails": [
              {
                "selectionName": "Normal Menu",
                "selectionDescription": "After Take-off",
                "itemCategoryInfo": [
                  {
                    "itemCategory": "Appetiser",
                    "itemInfo": [
                      {
                        "itemMenuScriptHeader": "Prawn antipasto",
                        "itemMenuScriptwriteup": "Prosciutto ham with bocconcini cheese, cherry tomato,grilled mushroom, yellow peppers tapenade and balsamic dressing",
                        "specialityInfo": {

                        }
                      },
                      {
                        "itemMenuScriptHeader": "Grilled Asparagus with Prosciutto Ham",
                        "itemMenuScriptwriteup": "An appetizer combination served with mescclun salad and drizzled with whole-grain mustard dressing ",
                        "specialityInfo": {
                          "specialityFootNote": "Exclusively created by Suzanne Goin of Lucques, A.O.C. and Tavern, Los Angeles",
                          "dishIconId": "ICP"
                        }
                      }
                    ]
                  },
                  {
                    "itemCategory": "Soup",
                    "itemInfo": {
                      "itemMenuScriptHeader": "Fresh Tomato Soup",
                      "itemMenuScriptwriteup": "With garlic bread",
                      "specialityInfo": {
                        "specialityFootNote": "Specially prepared vegetarian choice",
                        "dishIconId": "VGT"
                      }
                    }
                  },
                  {
                    "itemCategory": "Main Course",
                    "itemInfo": [
                      {
                        "itemMenuScriptHeader": "Tandoori Chicken Sandwich",
                        "itemMenuScriptwriteup": "Spiced chicken, yoghurt mint and coriander tossed potato wedges with mixed salad",
                        "specialityInfo": {

                        }
                      },
                      {
                        "itemMenuScriptHeader": "Beef Lasagne",
                        "itemMenuScriptwriteup": "Tomato , olives and capers sauce served with green salad and parmesan shavings",
                        "specialityInfo": {

                        }
                      },
                      {
                        "itemMenuScriptHeader": "Seared Bass Fillet",
                        "itemMenuScriptwriteup": "With slow cooked kale and pumpkin puree with Golden Raisin and Xeres Vinegar Butter",
                        "specialityInfo": {
                          "specialityFootNote": "Exclusively created by Suzanne Goin of Lucques, A.O.C. and Tavern, Los Angeles",
                          "dishIconId": "ICP"
                        }
                      },
                      {
                        "itemMenuScriptHeader": "Hainanese Pork Chop",
                        "itemMenuScriptwriteup": "A traditional Singapore favourite of pork chops in a tomato based sauce served with fried rice",
                        "specialityInfo": {
                          "specialityFootNote": "A popular local fare dish",
                          "dishIconId": "PLF"
                        }
                      },
                      {
                        "itemMenuScriptHeader": "Steak, Egg and Salad",
                        "itemMenuScriptwriteup": "Grilled Angus beef fillet With hard boiled egg and warm citrus farro salad in gremolata jus",
                        "specialityInfo": {

                        }
                      },
                      {
                        "itemMenuScriptHeader": "Lamb and Chicken Satay",
                        "itemMenuScriptwriteup": "With ketupat rice,onions and spicy peanut sauce",
                        "specialityInfo": {

                        }
                      },
                      {
                        "itemMenuScriptHeader": "Tuscan Cavolo Nero and Farro Salad",
                        "itemMenuScriptwriteup": "Tuscan cabbage, hazelnuts, farro salad with herbal poached chicken",
                        "specialityInfo": {
                          "specialityFootNote": "A 'Deliciously Wholesome' choice",
                          "dishIconId": "WHS"
                        }
                      },
                      {
                        "itemMenuScriptHeader": "Maple - roasted Kabocha pumpkin",
                        "specialityInfo": {
                          "specialityFootNote": "Specially prepared vegetarian choice",
                          "dishIconId": "VGT"
                        }
                      }
                    ]
                  },
                  {
                    "itemCategory": "Dessert",
                    "itemInfo": [
                      {
                        "itemMenuScriptHeader": "Chocolate Bread and Butter Pudding",
                        "itemMenuScriptwriteup": "Served with fresh creme angalise",
                        "specialityInfo": {
                          "specialityFootNote": "Exclusively created by Suzanne Goin of Lucques, A.O.C. and Tavern, Los Angeles",
                          "dishIconId": "ICP"
                        }
                      },
                      {
                        "itemMenuScriptHeader": "Petite Patisserie",
                        "itemMenuScriptwriteup": "Assortment of mini desserts and petite fours",
                        "specialityInfo": {

                        }
                      }
                    ]
                  },
                  {
                    "itemCategory": "Fruit",
                    "itemInfo": {
                      "itemMenuScriptHeader": "Selection of fresh fruits and cheses to complete your meal",
                      "specialityInfo": {

                      }
                    }
                  },
                  {
                    "itemCategory": "Pralines Petit Four",
                    "itemInfo": {
                      "itemMenuScriptHeader": "Gourmet pralines with your choice of hot beverage",
                      "specialityInfo": {

                      }
                    }
                  }
                ]
              },
              {
                "selectionName": "All Day Breakfast",
                "selectionDescription": "All Day Breakfast",
                "itemCategoryInfo": {
                  "itemCategory": "Main Course",
                  "itemInfo": [
                    {
                      "itemMenuScriptHeader": "Classic American",
                      "itemMenuScriptwriteup": "Parsley omelette with chicken sausage, buttermilk pancake and baked beans accompanied with freshly squeezed orange juice, fresh fruit, yoghurt and bakery",
                      "specialityInfo": {

                      }
                    },
                    {
                      "itemMenuScriptHeader": "Oriental",
                      "itemMenuScriptwriteup": "Prawn dumpling, pork dumpling, yam cake, char siew pastry and seafood congee, served with fresh fruits. Accompanied with chinese tea",
                      "specialityInfo": {

                      }
                    },
                    {
                      "itemMenuScriptHeader": "Wholesome",
                      "itemMenuScriptwriteup": "Baked spinach and giji berry frittata with hot smoked salmon, rodsted beetroot and avocado salsa accompanied with fresh fruits, super juice, garnola in Greek yoghurt and bakery",
                      "specialityInfo": {

                      }
                    },
                    {
                      "itemMenuScriptHeader": "Continental Breakfast(Served up to 1.5 hrs before arrival)",
                      "itemMenuScriptwriteup": "Cold breakfast plate,yoghurt, fresh fruits,freshly squeezed orange juice and bakery",
                      "specialityInfo": {

                      }
                    }
                  ]
                }
              },
              {
                "selectionName": "Mid Flight Noodle Bar",
                "selectionDescription": "Mid-flight nodle bar",
                "itemCategoryInfo": {
                  "itemCategory": "Main Course",
                  "itemInfo": [
                    {
                      "itemMenuScriptHeader": "A selection of bee hoon, kway teow or egg noodles with the choice of:",
                      "itemMenuScriptwriteup": "-Pork ribs and Chinese greens",
                      "specialityInfo": {

                      }
                    },
                    {
                      "itemMenuScriptwriteup": "-Chicken slices and shiitake mushrooms",
                      "specialityInfo": {

                      }
                    },
                    {
                      "itemMenuScriptwriteup": "-Prawns and leafy greens",
                      "specialityInfo": {

                      }
                    },
                    {
                      "itemMenuScriptwriteup": "-Lettuce and black mushrooms",
                      "specialityInfo": {
                        "specialityFootNote": "Specially prepared vegetarian choice",
                        "dishIconId": "VGT"
                      }
                    }
                  ]
                }
              }
            ]
          }
        }
      }
    }
  }
}
