{
  "flightInfo": {
    "flightCarrierCode": "SQ",
    "flightNumber": "634",
    "flightDate": "10-Mar-16",
    "flightSectorInfo": {
      "departureAirportCode": "SIN",
      "arrivalAirportCode": "HND",
      "departureCityName": "Singapore",
      "arrivalCityName": "Tokyo",
      "creationDate": "10-Jan-16 10:00:00",
      "cabinClassInfo": {
        "cabinClassCode": "JCL",
        "menuInfo": {
          "menuCategory": "F",
          "mealInfo": {
            "mealServiceCode": "LAJ",
            "mealServiceName": "Lunch",
            "selectionDetails": [
              {
                "selectionName": "Ethnic Selection",
                "selectionDescription": "Hanakoireki",
                "itemCategoryInfo": [
                  {
                    "itemCategory": "Hanakoireki",
                    "itemInfo": [
                      {
                        "itemMenuScriptHeader": "Spring Mountain Vegetables with Moromi Miso",
                        "specialityInfo": {
                          "specialityFootNote": "A dish exclusively created by our International Culinary Panel chef",
                          "dishIconId": "ICP"
                        }
                      },
                      {
                        "itemMenuScriptHeader": "Oil Blanched Salmon, Kaiware Sprouts, Ponzu Jelly and White Asparagus",
                        "specialityInfo": {
                          "specialityFootNote": "A dish exclusively created by our International Culinary Panel chef",
                          "dishIconId": "ICP"
                        }
                      }
                    ]
                  },
                  {
                    "itemCategory": "Shiizakana",
                    "itemInfo": {
                      "subMealTemplateDescription": "Hanakoireki Lunch Dinner",
                      "itemMenuScriptHeader": "Prawn and Mitsuba Omelette, Sea Urchin Glaze Shishito Pepper with Bonito",
                      "specialityInfo": {
                        "specialityFootNote": "A dish exclusively created by our International Culinary Panel chef",
                        "dishIconId": "ICP"
                      }
                    }
                  },
                  {
                    "itemCategory": "Men",
                    "itemInfo": {
                      "itemMenuScriptHeader": "Cha Soba with Wakame and Garnishes",
                      "specialityInfo": {
                        "specialityFootNote": "A dish exclusively created by our International Culinary Panel chef",
                        "dishIconId": "ICP"
                      }
                    }
                  },
                  {
                    "itemCategory": "Ha Sun",
                    "itemInfo": {
                      "itemMenuScriptHeader": "Seabream, Red Yam and Yukari Sushi, Rice Cracker Coated Fava Bean, Yomogi Gluten, Simmered Conger Eel, Tile Terrine",
                      "specialityInfo": {
                        "specialityFootNote": "A dish exclusively created by our International Culinary Panel chef",
                        "dishIconId": "ICP"
                      }
                    }
                  },
                  {
                    "itemCategory": "Takiawase",
                    "itemInfo": {
                      "itemMenuScriptHeader": "Bamboo Shoots With Baby Octopus, Rape Blossum, Wakame, Kinome Sauce",
                      "specialityInfo": {
                        "specialityFootNote": "A dish exclusively created by our International Culinary Panel chef",
                        "dishIconId": "ICP"
                      }
                    }
                  },
                  {
                    "itemCategory": "Kuchitori",
                    "itemInfo": {
                      "itemMenuScriptHeader": "Prawn- Bamboo Shoots Dumpling and Avocado Ball Skewer White Bean Jelly with Cherry Blossum Leaf, Grilled Baby Squid Bracken Squid with Egg Yolk, Mountain Vegetable with Sesame",
                      "specialityInfo": {
                        "specialityFootNote": "A dish exclusively created by our International Culinary Panel chef",
                        "dishIconId": "ICP"
                      }
                    }
                  },
                  {
                    "itemCategory": "Yakimono",
                    "itemInfo": {
                      "itemMenuScriptHeader": "Grilled Sole Marinated With Malted Rice, Black Mushroom",
                      "specialityInfo": {
                        "specialityFootNote": "A dish exclusively created by our International Culinary Panel chef",
                        "dishIconId": "ICP"
                      }
                    }
                  },
                  {
                    "itemCategory": "Gohan",
                    "itemInfo": {
                      "itemMenuScriptHeader": "White Clam and Bay Scallop Rice, Mitsuba",
                      "specialityInfo": {
                        "specialityFootNote": "A dish exclusively created by our International Culinary Panel chef",
                        "dishIconId": "ICP"
                      }
                    }
                  },
                  {
                    "itemCategory": "Tome-Wan",
                    "itemInfo": {
                      "itemMenuScriptHeader": "Miso Soup with Tofu, Wakame and Mitsuba",
                      "specialityInfo": {
                        "specialityFootNote": "A dish exclusively created by our International Culinary Panel chef",
                        "dishIconId": "ICP"
                      }
                    }
                  },
                  {
                    "itemCategory": "Mizugashi",
                    "itemInfo": {
                      "itemMenuScriptHeader": "Roasted Tea Ice Cream",
                      "itemMenuScriptwriteup": "With green tea sauce",
                      "specialityInfo": {
                      }
                    }
                  }
                ]
              },
              {
                "selectionName": "A la carte",
                "itemCategoryInfo": {
                  "itemCategory": "Main Course",
                  "itemInfo": [
                    {
                      "itemMenuScriptHeader": "Baked Herb Crusted Chilean Bass",
                      "itemMenuScriptwriteup": "Accompanied by broccolini, cherry tomatoes, pea-potato mash and white wine sauce",
                      "specialityInfo": {
                      }
                    },
                    {
                      "itemMenuScriptHeader": "Famous Singapore Chicken Rice",
                      "itemMenuScriptwriteup": "A renowned local favourite, fragrant poached chicken with pandan flavoured rice, grated ginger, soya and chilli sauce",
                      "specialityInfo": {
                        "specialityFootNote": "A popular local fare dish",
                        "dishIconId": "PLF"
                      }
                    }
                  ]
                }
              }
            ]
          }
        }
      }
    }
  }
}