{
  "origin": "Singapore",
  "destination": "San Francisco",
  "detail": "(Actual miles flown: 8,440 miles)",
  "header": ["Class", "KrisFlyer miles earned"],
  "classMiles": [
    {
      "category": "Suites / First Class",
      "miles": "12,660"
    },
    {
      "category": "Business Class",
      "miles": "10,550"
    },
    {
      "category": "Economy Class",
      "miles": "8,440"
    }
  ],
  "note": "Suites and/or First Class are not available on some Singapore Airlines flights. First Class is not available on SilkAir."
}
