{
  "type" : "message-seemore",
  "isLast" : "false",
  "messages" : [
    {
      "id" : "messages-select-8",
      "title" : "Singapore Air",
      "link" : "kf-messages-detail.html",
      "shortDescription" : "Sed lacinia fermentum ligula non lobortis. Nam id velit quis purus placerat dignissim. Duis in velit adipiscing, bibendum metus dapibus, porta augue.",
      "date" : {
        "day" : "06",
        "month" : "Aug",
        "year" : "2014"
      }
    },
    {
      "id" : "messages-select-9",
      "title" : "Singapore Air",
      "link" : "kf-messages-detail.html",
      "shortDescription" : "Sed lacinia fermentum ligula non lobortis. Nam id velit quis purus placerat dignissim. Duis in velit adipiscing, bibendum metus dapibus, porta augue.",
      "date" : {
        "day" : "06",
        "month" : "Aug",
        "year" : "2014"
      }
    },
    {
      "id" : "messages-select-10",
      "title" : "Singapore Air",
      "link" : "kf-messages-detail.html",
      "shortDescription" : "Sed lacinia fermentum ligula non lobortis. Nam id velit quis purus placerat dignissim. Duis in velit adipiscing, bibendum metus dapibus, porta augue.",
      "date" : {
        "day" : "06",
        "month" : "Aug",
        "year" : "2014"
      }
    }
  ]
}
