{
  "promos": {
    "county": "IN",
    "countryDesription": "India",
    "city": [
      {
        "code": "MAA",
        "description": "Chennai"
      },
      {
        "code": "DEL",
        "description": "Delhi"
      },
      {
        "code": "COK",
        "description": "Kochi"
      }
    ],
    "description": [
      "Redeem miles"
    ],
    "class": [
      "All",
      "Economy",
      "First",
      "Bussiness"
    ],
    "award": [
      "All",
      "Standard",
      "Saver",
      "Full"
    ],
    "journey": [
      "All",
      "Round Trip",
      "One Way"
    ]
  },
  "promoVO": [
    {
      "city": "Chennai",
      "minFare": 4000,
      "maxFare": 40000,
      "currency": "INR",
      "initValue": [
        4000,
        40000
      ],
      "availableRange": [
        "Jan2014",
        "Feb2014",
        "Apr2014",
        "Jun2014",
        "Dec2014"
      ],
      "availableClass": [
        "Economy",
        "First"
      ],
      "cityVO": [
        {
          "type": "promo",
          "promoFareId": 20665,
          "shareurl": "/booking-flow.form?promotionType=commercial&id=20665",
          "originCityName": "Chennai",
          "destinationCityName": "Singapore",
          "miles": "12500",
          "currency": "INR",
          "price": "2680",
          "favourite": true,
          "flighttype": "Economy",
          "tripType": "Round Trip",
          "awardType": "Saver",
          "imgUrl": "images/promotions-fares-1.jpg",
          "title": null,
          "durationstart": "11 Aug 2014",
          "durationend": "31 Aug 2014",
          "cabin": "Economy",
          "BookBy": "23 Sep 2013"
        },
        {
          "type": "",
          "promoFareId": 6630,
          "shareurl": "/booking-flow.form?promotionType=commercial&id=20665/booking-flow.form?promotionType=commercial&id=6636/booking-flow.form?promotionType=commercial&id=7581/booking-flow.form?promotionType=commercial&id=7123/booking-flow.form?promotionType=commercial&id=8517/booking-flow.form?promotionType=commercial&id=8258/booking-flow.form?promotionType=commercial&id=8273/booking-flow.form?promotionType=commercial&id=6630",
          "originCityName": "Chennai",
          "destinationCityName": "Dubai",
          "miles": "12600",
          "currency": "INR",
          "price": "1688",
          "flighttype": "Economy",
          "tripType": "One Way",
          "awardType": "Standard",
          "imgUrl": "images/promotions-fares-2.jpg",
          "title": null,
          "durationstart": "11 Aug 2014",
          "durationend": "31 Aug 2014",
          "cabin": "Economy",
          "BookBy": "23 Sep 2013"
        },
        {
          "type": "",
          "promoFareId": 6630,
          "shareurl": "/booking-flow.form?promotionType=commercial&id=20665/booking-flow.form?promotionType=commercial&id=6636/booking-flow.form?promotionType=commercial&id=7581/booking-flow.form?promotionType=commercial&id=7123/booking-flow.form?promotionType=commercial&id=8517/booking-flow.form?promotionType=commercial&id=8258/booking-flow.form?promotionType=commercial&id=8273/booking-flow.form?promotionType=commercial&id=6630",
          "originCityName": "Chennai",
          "destinationCityName": "Hong Kong",
          "miles": "12800",
          "favourite": true,
          "currency": "INR",
          "price": "2000",
          "flighttype": "First",
          "tripType": "One Way",
          "awardType": "Full",
          "imgUrl": "images/promotions-fares-3.jpg",
          "title": null,
          "durationstart": "11 Aug 2014",
          "durationend": "31 Aug 2014",
          "cabin": "Economy",
          "BookBy": "23 Sep 2013"
        },
        {
          "type": "",
          "promoFareId": 6630,
          "shareurl": "/booking-flow.form?promotionType=commercial&id=20665/booking-flow.form?promotionType=commercial&id=6636/booking-flow.form?promotionType=commercial&id=7581/booking-flow.form?promotionType=commercial&id=7123/booking-flow.form?promotionType=commercial&id=8517/booking-flow.form?promotionType=commercial&id=8258/booking-flow.form?promotionType=commercial&id=8273/booking-flow.form?promotionType=commercial&id=6630",
          "originCityName": "Chennai",
          "destinationCityName": "Taipei",
          "miles": "15600",
          "currency": "INR",
          "price": "1888",
          "flighttype": "Economy",
          "tripType": "One Way",
          "awardType": "Standard",
          "imgUrl": "images/promotions-fares-4.jpg",
          "title": null,
          "durationstart": "11 Aug 2014",
          "durationend": "31 Aug 2014",
          "cabin": "Economy",
          "BookBy": "23 Sep 2013"
        },
        {
          "type": "",
          "promoFareId": 6630,
          "shareurl": "/booking-flow.form?promotionType=commercial&id=20665/booking-flow.form?promotionType=commercial&id=6636/booking-flow.form?promotionType=commercial&id=7581/booking-flow.form?promotionType=commercial&id=7123/booking-flow.form?promotionType=commercial&id=8517/booking-flow.form?promotionType=commercial&id=8258/booking-flow.form?promotionType=commercial&id=8273/booking-flow.form?promotionType=commercial&id=6630",
          "originCityName": "Chennai",
          "destinationCityName": "Perth",
          "miles": "22600",
          "currency": "INR",
          "price": "1880",
          "flighttype": "Economy",
          "tripType": "One Way",
          "awardType": "Saver",
          "imgUrl": "images/promotions-fares-5.jpg",
          "title": null,
          "durationstart": "11 Jun 2014",
          "durationend": "31 Jun 2014",
          "cabin": "Economy",
          "BookBy": "23 Sep 2013"
        },
        {
          "type": "",
          "promoFareId": 6630,
          "shareurl": "/booking-flow.form?promotionType=commercial&id=20665/booking-flow.form?promotionType=commercial&id=6636/booking-flow.form?promotionType=commercial&id=7581/booking-flow.form?promotionType=commercial&id=7123/booking-flow.form?promotionType=commercial&id=8517/booking-flow.form?promotionType=commercial&id=8258/booking-flow.form?promotionType=commercial&id=8273/booking-flow.form?promotionType=commercial&id=6630",
          "originCityName": "Chennai",
          "destinationCityName": "Tokyo",
          "miles": "42600",
          "currency": "INR",
          "price": "1780",
          "flighttype": "Economy",
          "tripType": "One Way",
          "awardType": "Standard",
          "imgUrl": "images/promotions-fares-6.jpg",
          "title": null,
          "durationstart": "11 Aug 2014",
          "durationend": "31 Aug 2014",
          "cabin": "Economy",
          "BookBy": "23 Sep 2013"
        },
        {
          "type": "promo",
          "promoFareId": 6630,
          "shareurl": "/booking-flow.form?promotionType=commercial&id=20665/booking-flow.form?promotionType=commercial&id=6636/booking-flow.form?promotionType=commercial&id=7581/booking-flow.form?promotionType=commercial&id=7123/booking-flow.form?promotionType=commercial&id=8517/booking-flow.form?promotionType=commercial&id=8258/booking-flow.form?promotionType=commercial&id=8273/booking-flow.form?promotionType=commercial&id=6630",
          "originCityName": "Chennai",
          "destinationCityName": "Seoul",
          "miles": "10600",
          "currency": "INR",
          "price": "1988",
          "flighttype": "Bussiness",
          "tripType": "One Way",
          "awardType": "Saver",
          "imgUrl": "images/promotions-fares-7.jpg",
          "title": null,
          "durationstart": "11 Aug 2014",
          "durationend": "31 Aug 2014",
          "cabin": "Economy",
          "BookBy": "23 Sep 2013"
        },
        {
          "type": "",
          "promoFareId": 6630,
          "shareurl": "/booking-flow.form?promotionType=commercial&id=20665/booking-flow.form?promotionType=commercial&id=6636/booking-flow.form?promotionType=commercial&id=7581/booking-flow.form?promotionType=commercial&id=7123/booking-flow.form?promotionType=commercial&id=8517/booking-flow.form?promotionType=commercial&id=8258/booking-flow.form?promotionType=commercial&id=8273/booking-flow.form?promotionType=commercial&id=6630",
          "originCityName": "Chennai",
          "destinationCityName": "London",
          "miles": "22600",
          "currency": "INR",
          "price": "2448",
          "flighttype": "Bussiness",
          "tripType": "One Way",
          "awardType": "Standard",
          "imgUrl": "images/promotions-fares-8.jpg",
          "title": null,
          "durationstart": "11 Aug 2014",
          "durationend": "31 Aug 2014",
          "cabin": "Economy",
          "BookBy": "23 Sep 2013"
        },
        {
          "type": "",
          "promoFareId": 6630,
          "shareurl": "/booking-flow.form?promotionType=commercial&id=20665/booking-flow.form?promotionType=commercial&id=6636/booking-flow.form?promotionType=commercial&id=7581/booking-flow.form?promotionType=commercial&id=7123/booking-flow.form?promotionType=commercial&id=8517/booking-flow.form?promotionType=commercial&id=8258/booking-flow.form?promotionType=commercial&id=8273/booking-flow.form?promotionType=commercial&id=6630",
          "originCityName": "Chennai",
          "destinationCityName": "Paris",
          "miles": "10600",
          "currency": "INR",
          "price": "2444",
          "flighttype": "Economy",
          "tripType": "One Way",
          "awardType": "Full",
          "imgUrl": "images/promotions-fares-9.jpg",
          "title": null,
          "durationstart": "11 Aug 2014",
          "durationend": "31 Aug 2014",
          "cabin": "Economy",
          "BookBy": "23 Sep 2013"
        }
      ]
    }
  ]
}
