{
	"displayName": "Double Miles Accrual Voucher",
	"SAARewardInfo": {
		"aboutVoucher": "Earn twice the miles for a single flight segment.",
		"howToUse": "Voucher Description",
		"voucherList": [
			{
				"rewardType": "Double_Miles_Accrual_Voucher",
				"promoCode": "Voucher Code",
				"voucherNumber": "XXXXXXXXX1",
				"rewardExpiryDate": "Expires 30 Dec 2017",
				"voucherStatus": "Available"
			},
			{
				"rewardType": "Double_Miles_Accrual_Voucher",
				"promoCode": "Voucher Code",
				"voucherNumber": "XXXXXXXXX2",
				"rewardExpiryDate": "Expires 30 Dec 2017",
				"voucherStatus": "Available"
			},
			{
				"rewardType": "Double_Miles_Accrual_Voucher",
				"promoCode": "Voucher Code",
				"voucherNumber": "XXXXXXXXX3",
				"rewardExpiryDate": "Expires 30 Dec 2016",
				"voucherStatus": "Available"
			},
			{
				"rewardType": "Double_Miles_Accrual_Voucher",
				"promoCode": "Voucher Code",
				"voucherNumber": "XXXXXXXXX4",
				"rewardExpiryDate": "Expires 30 Dec 2016",
				"voucherStatus": "Available"
			}
		]
	},
	"eligibleSegmentList": [
		{
			"selectFlightSegment": {
				"segment": [
					{
						"segmentId": "",
						"segmentDropDownValue": "Select Segment"
					},
					{
						"segmentId": "1",
						"segmentDropDownValue": "Singapore to San Francisco 1",
						"itinerary": {
							"flight": "SQ 2",
							"cabin": "Economy (N)",
							"layoverTime": "1hr 5mins",
							"totalTravelTime": "17hrs 45mins",
							"listSegment": [
								{
									"fromCity": {
										"cityCode": "SIN",
										"cityName": "Singapore",
										"departureTime": "18:30",
										"departuteDate": "14 Feb (Sat)",
										"departureAirport": "Singapore Int'l"
									},
									"toCity": {
										"cityCode": "ICN",
										"cityName": "Seoul",
										"departureTime": "16:40",
										"departuteDate": "14 Feb (Sat)",
										"departureAirport": "Incheon Int'l"
									}
								},
								{
									"fromCity": {
										"cityCode": "ICN",
										"cityName": "Seoul",
										"departureTime": "17:45",
										"departuteDate": "14 Feb (Sat)",
										"departureAirport": "Incheon Int'l"
									},
									"toCity": {
										"cityCode": "SFO",
										"cityName": "San Francisco",
										"departureTime": "12:10",
										"departuteDate": "14 Feb (Sat)",
										"departureAirport": "San Francisco Int'l"
									}
								}
							],
							"passenger": [
								{
									"passengerId": "1",
									"firstName": "Christine",
									"lastName": "Tan",
									"principleKF": true,
									"notANominee": false,
									"selected": true,
									"disbled": true
								},
								{
									"passengerId": "2",
									"firstName": "Fiona",
									"lastName": "Ong",
									"principleKF": false,
									"notANominee": false,
									"selected": false,
									"disbled": true
								}
							]
						}
					},
					{
						"segmentId": "2",
						"segmentDropDownValue": "San Francisco to Singapore 2",
						"itinerary": {
							"flight": "SQ 1",
							"cabin": "Economy (N)",
							"layoverTime": "1hr 10mins",
							"totalTravelTime": "21hrs 10mins",
							"listSegment": [
								{
									"fromCity": {
										"cityCode": "SFO",
										"cityName": "San Francisco",
										"departureTime": "00:05",
										"departuteDate": "21 Feb (Sat)",
										"departureAirport": "San Francisco Int'l"
									},
									"toCity": {
										"cityCode": "HKG",
										"cityName": "Hong Kong",
										"departureTime": "07:05",
										"departuteDate": "22 Feb (Sun)",
										"departureAirport": "Hong Kong Int'l"
									}
								},
								{
									"fromCity": {
										"cityCode": "HKG",
										"cityName": "Hong Kong",
										"departureTime": "08:10",
										"departuteDate": "22 Feb (Sun)",
										"departureAirport": "Hong Kong Int'l"
									},
									"toCity": {
										"cityCode": "SIN",
										"cityName": "Singapore",
										"departureTime": "12:00",
										"departuteDate": "22 Feb (Sun)",
										"departureAirport": "Singapore Int'l"
									}
								}
							],
							"passenger": [
								{
									"passengerId": "1",
									"firstName": "Christine",
									"lastName": "Tan",
									"principleKF": true,
									"notANominee": false,
									"selected": true,
									"disbled": true
								},
								{
									"passengerId": "2",
									"firstName": "Fiona",
									"lastName": "Ong",
									"principleKF": false,
									"notANominee": false,
									"selected": false,
									"disbled": true
								}
							]
						}
					}
          ,
          {
            "segmentId": "3",
            "segmentDropDownValue": "Singapore to San Francisco 3",
            "itinerary": {
              "flight": "SQ 2",
              "cabin": "Economy (N)",
              "layoverTime": "1hr 5mins",
              "totalTravelTime": "17hrs 45mins",
              "listSegment": [
                {
                  "fromCity": {
                    "cityCode": "SIN",
                    "cityName": "Singapore",
                    "departureTime": "18:30",
                    "departuteDate": "14 Feb (Sat)",
                    "departureAirport": "Singapore Int'l"
                  },
                  "toCity": {
                    "cityCode": "ICN",
                    "cityName": "Seoul",
                    "departureTime": "16:40",
                    "departuteDate": "14 Feb (Sat)",
                    "departureAirport": "Incheon Int'l"
                  }
                },
                {
                  "fromCity": {
                    "cityCode": "ICN",
                    "cityName": "Seoul",
                    "departureTime": "17:45",
                    "departuteDate": "14 Feb (Sat)",
                    "departureAirport": "Incheon Int'l"
                  },
                  "toCity": {
                    "cityCode": "SFO",
                    "cityName": "San Francisco",
                    "departureTime": "12:10",
                    "departuteDate": "14 Feb (Sat)",
                    "departureAirport": "San Francisco Int'l"
                  }
                }
              ],
              "passenger": [
                {
                  "passengerId": "1",
                  "firstName": "Christine",
                  "lastName": "Tan",
                  "principleKF": true,
                  "notANominee": false,
                  "selected": true,
                  "disbled": true
                },
                {
                  "passengerId": "2",
                  "firstName": "Fiona",
                  "lastName": "Ong",
                  "principleKF": false,
                  "notANominee": false,
                  "selected": false,
                  "disbled": true
                }
              ]
            }
          },
          {
            "segmentId": "4",
            "segmentDropDownValue": "San Francisco to Singapore 4",
            "itinerary": {
              "flight": "SQ 1",
              "cabin": "Economy (N)",
              "layoverTime": "1hr 10mins",
              "totalTravelTime": "21hrs 10mins",
              "listSegment": [
                {
                  "fromCity": {
                    "cityCode": "SFO",
                    "cityName": "San Francisco",
                    "departureTime": "00:05",
                    "departuteDate": "21 Feb (Sat)",
                    "departureAirport": "San Francisco Int'l"
                  },
                  "toCity": {
                    "cityCode": "HKG",
                    "cityName": "Hong Kong",
                    "departureTime": "07:05",
                    "departuteDate": "22 Feb (Sun)",
                    "departureAirport": "Hong Kong Int'l"
                  }
                },
                {
                  "fromCity": {
                    "cityCode": "HKG",
                    "cityName": "Hong Kong",
                    "departureTime": "08:10",
                    "departuteDate": "22 Feb (Sun)",
                    "departureAirport": "Hong Kong Int'l"
                  },
                  "toCity": {
                    "cityCode": "SIN",
                    "cityName": "Singapore",
                    "departureTime": "12:00",
                    "departuteDate": "22 Feb (Sun)",
                    "departureAirport": "Singapore Int'l"
                  }
                }
              ],
              "passenger": [
                {
                  "passengerId": "1",
                  "firstName": "Christine",
                  "lastName": "Tan",
                  "principleKF": true,
                  "notANominee": false,
                  "selected": true,
                  "disbled": true
                },
                {
                  "passengerId": "2",
                  "firstName": "Fiona",
                  "lastName": "Ong",
                  "principleKF": false,
                  "notANominee": false,
                  "selected": false,
                  "disbled": true
                }
              ]
            }
          }
				]
			}
		}
	]
}
