{
	 "bookingSummary":{
			"locale":"en_UK",
			"adultCount":3,
			"childCount":0,
			"infantCount":0,
			"precision":2,
			"currency":"SGD",
			"fareTotal":6060.00,
			"taxTotal":763.50,
			"surchargeTotal":1314.60,
			"fareSubTotal":8138.10,
			"grandTotal":8138.10,
			"milesAllocated":0,
			"totalMilesForORB":0,
			"oldItinerary":{
				 "currency":"SGD",
				 "fareTotalInMiles":0,
				 "costPaidByMiles":33320,
				 "totalMilesForORB":0,
				 "costPaidByCash":8078.10
			},
			"rebookingFee":0.00,
			"totalToBePaidCash":60.00,
			"totalToBePaidMiles":0,
			"milesToBeRefunded":0,
			"totalMilesExpired":0,
			"expiredMilesNonRefund":0,
			"scenario":"ATC",
			"flight":[
				 {
						"totalTravelTime":"14hrs 5mins",
						"origin":"Singapore",
						"destination":"London",
						"originAirportCode":"SIN",
						"destinationAirportCode":"LHR",
						"flightSegments":[
							 {
									"carrierCode":"SQ",
									"airCraftType":"Boeing 777-300ER",
									"flightNumber":"306",
									"cabinClassDesc":"Economy (N)",
									"deparure":{
										 "time":"01:15",
										 "date":"18 Mar (Fri)",
										 "airportCode":"SIN",
										 "airportName":"Changi Intl",
										 "cityCode":"SIN",
										 "cityName":"Singapore",
										 "terminal":"3"
									},
									"arrival":{
										 "time":"07:20",
										 "date":"18 Mar (Fri)",
										 "airportCode":"LHR",
										 "airportName":"Heathrow",
										 "cityCode":"LON",
										 "cityName":"London",
										 "terminal":"2"
									}
							 }
						],
						"isMixedCabinClass":false
				 },
				 {
						"totalTravelTime":"12hrs 55mins",
						"origin":"London",
						"destination":"Singapore",
						"originAirportCode":"LHR",
						"destinationAirportCode":"SIN",
						"flightSegments":[
							 {
									"carrierCode":"SQ",
									"airCraftType":"Boeing 777-300ER",
									"flightNumber":"319",
									"cabinClassDesc":"Economy (Y)",
									"deparure":{
										 "time":"20:35",
										 "date":"25 Mar (Fri)",
										 "airportCode":"LHR",
										 "airportName":"Heathrow",
										 "cityCode":"LON",
										 "cityName":"London",
										 "terminal":"2"
									},
									"arrival":{
										 "time":"17:30",
										 "date":"26 Mar (Sat)",
										 "airportCode":"SIN",
										 "airportName":"Changi Intl",
										 "cityCode":"SIN",
										 "cityName":"Singapore",
										 "terminal":""
									}
							 }
						],
						"isMixedCabinClass":false
				 }
			],
			"paxDetails":[
				 {
						"paxType":"Adult",
						"id":1,
						"paxName":"Mdm Testn",
						"fareDetails":{
							 "totalCost":2712.70,
							 "totalMiles":0,
							 "fareAmount":2020.00,
							 "taxAmount":254.50,
							 "surchargeAmount":438.20,
							 "othersAmount":0.00,
							 "surcharge":[
									{
										 "amount":14.20,
										 "code":"YQAD",
										 "description":"Airline Insurance"
									},
									{
										 "amount":424.00,
										 "code":"YQAC",
										 "description":"Airline Fuel Surcharge"
									}
							 ],
							 "taxes":[
									{
										 "amount":81.50,
										 "code":"UB",
										 "description":"Passenger Service Charge - (Domestic/International)"
									},
									{
										 "amount":19.90,
										 "code":"SG",
										 "description":"Passenger Service and Security Charge"
									},
									{
										 "amount":6.10,
										 "code":"OP",
										 "description":"Aviation Levy"
									},
									{
										 "amount":8.00,
										 "code":"OO",
										 "description":"Passenger Security Service Charge"
									},
									{
										 "amount":139.00,
										 "code":"GB",
										 "description":"Air Passenger Duty (APD) (Domestic/International)"
									}
							 ]
						},
						"detailsPerFlight":[
							 {
									"flightNo":"SQ306",
									"from":"SIN",
									"to":"LON",
									"departureDate":"Fri Mar 18 01:15:00 SGT 2016",
									"id":"0",
									"originAirportCode":"SIN",
									"destinationAirportCode":"LHR"
							 },
							 {
									"flightNo":"SQ319",
									"from":"LON",
									"to":"SIN",
									"departureDate":"Fri Mar 25 20:35:00 SGT 2016",
									"id":"0",
									"originAirportCode":"LHR",
									"destinationAirportCode":"SIN"
							 }
						]
				 },
				 {
						"paxType":"Adult",
						"id":2,
						"paxName":"Mr JJKK Ll",
						"fareDetails":{
							 "totalCost":2712.70,
							 "totalMiles":0,
							 "fareAmount":2020.00,
							 "taxAmount":254.50,
							 "surchargeAmount":438.20,
							 "othersAmount":0.00,
							 "surcharge":[
									{
										 "amount":14.20,
										 "code":"YQAD",
										 "description":"Airline Insurance"
									},
									{
										 "amount":424.00,
										 "code":"YQAC",
										 "description":"Airline Fuel Surcharge"
									}
							 ],
							 "taxes":[
									{
										 "amount":81.50,
										 "code":"UB",
										 "description":"Passenger Service Charge - (Domestic/International)"
									},
									{
										 "amount":19.90,
										 "code":"SG",
										 "description":"Passenger Service and Security Charge"
									},
									{
										 "amount":6.10,
										 "code":"OP",
										 "description":"Aviation Levy"
									},
									{
										 "amount":8.00,
										 "code":"OO",
										 "description":"Passenger Security Service Charge"
									},
									{
										 "amount":139.00,
										 "code":"GB",
										 "description":"Air Passenger Duty (APD) (Domestic/International)"
									}
							 ]
						},
						"detailsPerFlight":[
							 {
									"flightNo":"SQ306",
									"from":"SIN",
									"to":"LON",
									"departureDate":"Fri Mar 18 01:15:00 SGT 2016",
									"id":"0",
									"originAirportCode":"SIN",
									"destinationAirportCode":"LHR"
							 },
							 {
									"flightNo":"SQ319",
									"from":"LON",
									"to":"SIN",
									"departureDate":"Fri Mar 25 20:35:00 SGT 2016",
									"id":"0",
									"originAirportCode":"LHR",
									"destinationAirportCode":"SIN"
							 }
						]
				 },
				 {
						"paxType":"Adult",
						"id":3,
						"paxName":"Mdm EETT Yyuu",
						"fareDetails":{
							 "totalCost":2712.70,
							 "totalMiles":0,
							 "fareAmount":2020.00,
							 "taxAmount":254.50,
							 "surchargeAmount":438.20,
							 "othersAmount":0.00,
							 "surcharge":[
									{
										 "amount":14.20,
										 "code":"YQAD",
										 "description":"Airline Insurance"
									},
									{
										 "amount":424.00,
										 "code":"YQAC",
										 "description":"Airline Fuel Surcharge"
									}
							 ],
							 "taxes":[
									{
										 "amount":81.50,
										 "code":"UB",
										 "description":"Passenger Service Charge - (Domestic/International)"
									},
									{
										 "amount":19.90,
										 "code":"SG",
										 "description":"Passenger Service and Security Charge"
									},
									{
										 "amount":6.10,
										 "code":"OP",
										 "description":"Aviation Levy"
									},
									{
										 "amount":8.00,
										 "code":"OO",
										 "description":"Passenger Security Service Charge"
									},
									{
										 "amount":139.00,
										 "code":"GB",
										 "description":"Air Passenger Duty (APD) (Domestic/International)"
									}
							 ]
						},
						"detailsPerFlight":[
							 {
									"flightNo":"SQ306",
									"from":"SIN",
									"to":"LON",
									"departureDate":"Fri Mar 18 01:15:00 SGT 2016",
									"id":"0",
									"originAirportCode":"SIN",
									"destinationAirportCode":"LHR"
							 },
							 {
									"flightNo":"SQ319",
									"from":"LON",
									"to":"SIN",
									"departureDate":"Fri Mar 25 20:35:00 SGT 2016",
									"id":"0",
									"originAirportCode":"LHR",
									"destinationAirportCode":"SIN"
							 }
						]
				 }
			],
			"othersTotal":0
	 }
}
