{
  "bookingSummary": {
    "locale": "en_UK",
    "adultCount": 1,
    "childCount": 0,
    "infantCount": 0,
    "precision": 2,
    "currency": "MYR",
    "taxTotal": 161.90,
    "surchargeTotal": 310.00,
    "fareSubTotal": 471.90,
    "grandTotal": 471.90,
    "milesAllocated": 0,
    "totalMilesForORB": 38250,
    "orbQSurchargeTotal": 0.00,
    "oldItinerary": {
      "currency": "MYR",
      "taxTotal": 332.90,
      "surchargeTotal": 304.00,
      "grandTotal": 636.90,
      "costPaidBymiles": 0,
      "totalMilesForORB": 51000
    },
    "rebookingFee": 44.00,
    "totalToBePaidMiles": 0,
    "cashToBeRefunded": 99.00,
    "milesToBeRefunded": 0,
    "scenario": "ORC",
    "flight": [{
      "totalTravelTime": "5hrs 55mins",
      "origin": "Kuala Lumpur",
      "destination": "Hong Kong",
      "flightSegments": [{
        "carrierCode": "MI",
        "airCraftType": "Airbus A320",
        "flightNumber": "319",
        "cabinClassDesc": "Economy(X)",
        "layoverTime": "0hrs 55mins",
        "deparure": {
          "time": "07:35",
          "date": "01 Jul (Wed)",
          "airportCode": "KUL",
          "airportName": "Kuala Lumpur Intl",
          "cityCode": "KUL",
          "cityName": "Kuala Lumpur",
          "terminal": "M"
        },
        "arrival": {
          "time": "08:35",
          "date": "01 Jul (Wed)",
          "airportCode": "SIN",
          "airportName": "Changi Intl",
          "cityCode": "SIN",
          "cityName": "Singapore",
          "terminal": "2"
        }
      }, {
        "carrierCode": "SQ",
        "airCraftType": "Airbus Industrie A380-800",
        "flightNumber": "856",
        "cabinClassDesc": "Economy(X)",
        "deparure": {
          "time": "09:30",
          "date": "01 Jul (Wed)",
          "airportCode": "SIN",
          "airportName": "Changi Intl",
          "cityCode": "SIN",
          "cityName": "Singapore",
          "terminal": "3"
        },
        "arrival": {
          "time": "13:30",
          "date": "01 Jul (Wed)",
          "airportCode": "HKG",
          "airportName": "Hong Kong",
          "cityCode": "HKG",
          "cityName": "Hong Kong",
          "terminal": "1"
        }
      }]
    }, {
      "totalTravelTime": "11hrs 45mins",
      "origin": "Hong Kong",
      "destination": "Kuala Lumpur",
      "flightSegments": [{
        "carrierCode": "SQ",
        "airCraftType": "Boeing 777-300ER",
        "flightNumber": "1",
        "cabinClassDesc": "Economy(B)",
        "layoverTime": "7hrs",
        "deparure": {
          "time": "08:00",
          "date": "11 Jul (Sat)",
          "airportCode": "HKG",
          "airportName": "Hong Kong",
          "cityCode": "HKG",
          "cityName": "Hong Kong",
          "terminal": "1"
        },
        "arrival": {
          "time": "11:45",
          "date": "11 Jul (Sat)",
          "airportCode": "SIN",
          "airportName": "Changi Intl",
          "cityCode": "SIN",
          "cityName": "Singapore"
        }
      }, {
        "carrierCode": "SQ",
        "airCraftType": "Airbus A330-300",
        "flightNumber": "118",
        "cabinClassDesc": "Economy(B)",
        "deparure": {
          "time": "18:45",
          "date": "11 Jul (Sat)",
          "airportCode": "SIN",
          "airportName": "Changi Intl",
          "cityCode": "SIN",
          "cityName": "Singapore",
          "terminal": "2"
        },
        "arrival": {
          "time": "19:45",
          "date": "11 Jul (Sat)",
          "airportCode": "KUL",
          "airportName": "Kuala Lumpur Intl",
          "cityCode": "KUL",
          "cityName": "Kuala Lumpur",
          "terminal": "M"
        }
      }]
    }],
    "waitListFlights": [],
    "paxDetails": [{
      "paxType": "Adult",
      "id": 2,
      "paxName": "TWO TESTA",
      "fareDetails": {
        "totalCost": 426.90,
        "totalMiles": 38250,
        "fareAmount": 0.00,
        "taxAmount": 160.90,
        "surchargeAmount": 266.00,
        "qSurchargeAmount": 0.00,
        "surcharge": [{
          "amount": 266.00,
          "code": "YQ",
          "description": "Airline Fuel and Insurance Surcharge"
        }],
        "taxes": [{
          "amount": 56.00,
          "code": "HK",
          "description": "Air Passenger Departure Tax"
        }, {
          "amount": 3.90,
          "code": "D8",
          "description": "Goods And Services Tax"
        }, {
          "amount": 18.00,
          "code": "SG",
          "description": "Passenger Service and Security Charge"
        }, {
          "amount": 65.00,
          "code": "MY",
          "description": "Passenger Service and Security Charge (Domestic/International)"
        }, {
          "amount": 18.00,
          "code": "OO",
          "description": "Passenger Security Service Charge"
        }],
        "orbQSurcharge": []
      },
      "detailsPerFlight": [{
        "flightNo": "MI319",
        "from": "KUL",
        "to": "SIN",
        "departureDate": "Wed Jul 01 07:35:00 IST 2015"
      }, {
        "flightNo": "SQ856",
        "from": "SIN",
        "to": "HKG",
        "departureDate": "Wed Jul 01 09:30:00 IST 2015"
      }, {
        "flightNo": "SQ1",
        "from": "HKG",
        "to": "SIN",
        "departureDate": "Sat Jul 11 08:00:00 IST 2015"
      }, {
        "flightNo": "SQ118",
        "from": "SIN",
        "to": "KUL",
        "departureDate": "Sat Jul 11 18:45:00 IST 2015"
      }]
    }]
  }
}
