{
  "locale": "en_UK",
  "ErrorVO": {},
  "MealVO": {
    "passengerAndMealAssociationVO": [
      {
        "passengerName": "PAX TEST",
        "passengerId": 2,
        "passengerType": "ADT",
        "flightDateInformationVO": [
          {
            "departureDate": "2015-07-02",
            "departureTime": "20:15:0",
            "departureCityCode": "SIN",
            "arrivalCityCode": "SYD",
            "marketingAirlineCode": "SQ",
            "flightNumber": "221",
            "classOfService": "ECONOMY",
            "selected": "true",
            "SectorMealSelectedInfo": [
              {
                "origin": "SIN",
                "destination": "SYD",
                "departureDate": "2015-07-02",
                "departureTime": "20:15:0",
                "type": "Dinner/Continental breakfast",
                "mealServiceCode": "DINR/CBRK",
                "categoryName": "Dietry Meals locale",
                "mealCategoryCode": "DM",
                "Name": "Bland Meal",
                "iataMealCode": "BLML"
              }
            ]
          },
          {
            "departureDate": "2015-07-08",
            "departureTime": "11:15:0",
            "departureCityCode": "SYD",
            "arrivalCityCode": "SIN",
            "marketingAirlineCode": "SQ",
            "flightNumber": "232",
            "classOfService": "ECONOMY",
            "selected": "true",
            "SectorMealSelectedInfo": [
              {
                "origin": "SYD",
                "destination": "SIN",
                "departureDate": "2015-07-08",
                "departureTime": "11:15:0",
                "type": "Lunch",
                "mealServiceCode": "LNCH",
                "Name": "Boston lobster thermidor",
                "iataMealCode": "SPML"
              }
            ]
          }
        ]
      },
      {
        "passengerName": "PAXC TESTC",
        "passengerId": 2,
        "passengerType": "INF",
        "flightDateInformationVO": [
          {
            "departureDate": "2015-07-02",
            "departureTime": "20:15:0",
            "departureCityCode": "SIN",
            "arrivalCityCode": "SYD",
            "marketingAirlineCode": "SQ",
            "flightNumber": "221",
            "classOfService": "ECONOMY",
            "selected": "true",
            "SectorMealSelectedInfo": [
              {
                "origin": "SIN",
                "destination": "SYD",
                "departureDate": "2015-07-02",
                "departureTime": "20:15:0",
                "type": "Dinner/Continental breakfast",
                "mealServiceCode": "DINR/CBRK",
                "categoryName": "INFANT MEALS",
                "mealCategoryCode": "IF",
                "Name": "Baby Meal",
                "iataMealCode": "BBML"
              }
            ]
          },
          {
            "departureDate": "2015-07-08",
            "departureTime": "11:15:0",
            "departureCityCode": "SYD",
            "arrivalCityCode": "SIN",
            "marketingAirlineCode": "SQ",
            "flightNumber": "232",
            "classOfService": "ECONOMY",
            "selected": "true",
            "SectorMealSelectedInfo": [
              {
                "origin": "SYD",
                "destination": "SIN",
                "departureDate": "2015-07-08",
                "departureTime": "11:15:0",
                "type": "Lunch/Refreshment",
                "mealServiceCode": "LNCH/RFSH",
                "categoryName": "INFANT MEALS",
                "mealCategoryCode": "IF",
                "Name": "Postweaning meal",
                "iataMealCode": "SPML"
              }
            ]
          }
        ]
      },
      {
        "passengerName": "PAXA TESTA",
        "passengerId": 4,
        "passengerType": "ADT",
        "flightDateInformationVO": [
          {
            "departureDate": "2015-07-02",
            "departureTime": "20:15:0",
            "departureCityCode": "SIN",
            "arrivalCityCode": "SYD",
            "marketingAirlineCode": "SQ",
            "flightNumber": "221",
            "classOfService": "ECONOMY",
            "selected": "true",
            "SectorMealSelectedInfo": [
              {
                "origin": "SIN",
                "destination": "SYD",
                "departureDate": "2015-07-02",
                "departureTime": "20:15:0",
                "type": "Dinner/Continental breakfast",
                "mealServiceCode": "DINR/CBRK",
                "categoryName": "VEGETARIAN MEALS",
                "mealCategoryCode": "VG",
                "Name": "Vegetarian Indian Meal",
                "iataMealCode": "AVML"
              }
            ]
          },
          {
            "departureDate": "2015-07-08",
            "departureTime": "11:15:0",
            "departureCityCode": "SYD",
            "arrivalCityCode": "SIN",
            "marketingAirlineCode": "SQ",
            "flightNumber": "232",
            "classOfService": "ECONOMY",
            "selected": "true",
            "SectorMealSelectedInfo": [
              {
                "origin": "SYD",
                "destination": "SIN",
                "departureDate": "2015-07-08",
                "departureTime": "11:15:0",
                "type": "Lunch/Refreshment",
                "mealServiceCode": "LNCH/RFSH",
                "categoryName": "OTHERS",
                "mealCategoryCode": "OT",
                "Name": "Seafood Meal",
                "iataMealCode": "SFML"
              }
            ]
          }
        ]
      },
      {
        "passengerName": "PAXB TESTB",
        "passengerId": 5,
        "passengerType": "CHD",
        "flightDateInformationVO": [
          {
            "departureDate": "2015-07-02",
            "departureTime": "20:15:0",
            "departureCityCode": "SIN",
            "arrivalCityCode": "SYD",
            "marketingAirlineCode": "SQ",
            "flightNumber": "221",
            "classOfService": "ECONOMY",
            "selected": "true",
            "SectorMealSelectedInfo": [
              {
                "origin": "SIN",
                "destination": "SYD",
                "departureDate": "2015-07-02",
                "departureTime": "20:15:0",
                "type": "Dinner/Continental breakfast",
                "mealServiceCode": "DINR/CBRK",
                "categoryName": "CHILD MEAL",
                "mealCategoryCode": "CH",
                "Name": "Child Meal",
                "iataMealCode": "CHML"
              }
            ]
          },
          {
            "departureDate": "2015-07-08",
            "departureTime": "11:15:0",
            "departureCityCode": "SYD",
            "arrivalCityCode": "SIN",
            "marketingAirlineCode": "SQ",
            "flightNumber": "232",
            "classOfService": "ECONOMY",
            "selected": "true",
            "SectorMealSelectedInfo": [
              {
                "origin": "SYD",
                "destination": "SIN",
                "departureDate": "2015-07-08",
                "departureTime": "11:15:0",
                "type": "Lunch/Refreshment",
                "mealServiceCode": "LNCH/RFSH",
                "categoryName": "Dietry Meals locale",
                "mealCategoryCode": "DM",
                "Name": "Bland Meal",
                "iataMealCode": "BLML"
              }
            ]
          }
        ]
      }
    ],
    "passengerStartingPoint": "1"
  },
  "segmentMealVO": {
    "sectorMealListInformationVO": [
      {
        "departureDate": "2015-07-02",
        "departureTime": "20:15:0",
        "departureCityCode": "SIN",
        "arrivalCityCode": "SYD",
        "marketingAirlineCode": "SQ",
        "flightNumber": "221",
        "classOfService": "ECONOMY",
        "selected": "true",
        "mealService": [
          {
            "origin": "SIN",
            "destination": "SYD",
            "departureDate": "2015-07-02",
            "departureTime": "20:15:0",
            "type": "Dinner/Continental breakfast",
            "code": "DINR/CBRK",
            "mealList": [
              {
                "mealCategoryCode": "CH",
                "mealCategoryName": "CHILD MEAL",
                "mealServiceList": [
                  {
                    "mealCode": "CHML",
                    "mealName": "Child meal"
                  }
                ]
              },
              {
                "mealCategoryCode": "DM",
                "mealCategoryName": "Dietry Meals locale",
                "mealServiceList": [
                  {
                    "mealCode": "LCML",
                    "mealName": "Low calorie meal"
                  },
                  {
                    "mealCode": "FPML",
                    "mealName": "Fruit platter"
                  },
                  {
                    "mealCode": "BLML",
                    "mealName": "Bland meal"
                  },
                  {
                    "mealCode": "SPML",
                    "mealName": "Ulcer diet"
                  },
                  {
                    "mealCode": "SPML",
                    "mealName": "Nil carbohydrate meal"
                  },
                  {
                    "mealCode": "SPML",
                    "mealName": "Low fibre residue meal"
                  },
                  {
                    "mealCode": "LFML",
                    "mealName": "Low fat meal"
                  },
                  {
                    "mealCode": "LSML",
                    "mealName": "Low salt meal"
                  },
                  {
                    "mealCode": "GFML",
                    "mealName": "Gluten intolerant meal"
                  },
                  {
                    "mealCode": "SPML",
                    "mealName": "Soft fluid meal"
                  },
                  {
                    "mealCode": "DBML",
                    "mealName": "Diabatic meal locale"
                  },
                  {
                    "mealCode": "SPML",
                    "mealName": "Fat free meal"
                  },
                  {
                    "mealCode": "SPML",
                    "mealName": "Semi fluid meal"
                  },
                  {
                    "mealCode": "NLML",
                    "mealName": "Low lactose meal"
                  },
                  {
                    "mealCode": "SPML",
                    "mealName": "Non strict nut free meal"
                  }
                ]
              },
              {
                "mealCategoryCode": "IF",
                "mealCategoryName": "INFANT MEALS",
                "mealServiceList": [
                  {
                    "mealCode": "SPML",
                    "mealName": "Postweaning meal"
                  },
                  {
                    "mealCode": "BBML",
                    "mealName": "Baby meal"
                  }
                ]
              },
              {
                "mealCategoryCode": "OT",
                "mealCategoryName": "OTHERS",
                "mealServiceList": [
                  {
                    "mealCode": "SFML",
                    "mealName": "Seafood meal"
                  }
                ]
              },
              {
                "mealCategoryCode": "RL",
                "mealCategoryName": "RELIGIOUS MEALS",
                "mealServiceList": [
                  {
                    "mealCode": "HNML",
                    "mealName": "Hindu non-vegetarian meal"
                  },
                  {
                    "mealCode": "KSML",
                    "mealName": "Kosher meal"
                  },
                  {
                    "mealCode": "MOML",
                    "mealName": "Muslim meal"
                  }
                ]
              },
              {
                "mealCategoryCode": "VG",
                "mealCategoryName": "VEGETARIAN MEALS",
                "mealServiceList": [
                  {
                    "mealCode": "SPML",
                    "mealName": "Vegetarian southern indian meal"
                  },
                  {
                    "mealCode": "RVML",
                    "mealName": "Vegetarian raw meal"
                  },
                  {
                    "mealCode": "AVML",
                    "mealName": "Vegetarian indian meal"
                  },
                  {
                    "mealCode": "VLML",
                    "mealName": "Vegetarian lacto-ovo meal"
                  },
                  {
                    "mealCode": "VGML",
                    "mealName": "Vegetarian vegan meal"
                  },
                  {
                    "mealCode": "VOML",
                    "mealName": "Vegetarian oriental meal"
                  }
                ]
              }
            ]
          }
        ],
        "segmentId": "1"
      },
      {
        "departureDate": "2015-07-08",
        "departureTime": "11:15:0",
        "departureCityCode": "SYD",
        "arrivalCityCode": "SIN",
        "marketingAirlineCode": "SQ",
        "flightNumber": "232",
        "classOfService": "ECONOMY",
        "selected": "true",
        "mealService": [
          {
            "origin": "SYD",
            "destination": "SIN",
            "departureDate": "2015-07-08",
            "departureTime": "11:15:0",
            "type": "Lunch/Refreshment",
            "code": "LNCH/RFSH",
            "mealList": [
              {
                "mealCategoryCode": "BC",
                "mealCategoryName": "BOOK THE COOK",
                "mealServiceList": [
                  {
                    "mealCode": "SPML",
                    "mealName": "Boston lobster thermidor"
                  }
                ]
              },
              {
                "mealCategoryCode": "CH",
                "mealCategoryName": "CHILD MEAL",
                "mealServiceList": [
                  {
                    "mealCode": "CHML",
                    "mealName": "Child meal"
                  }
                ]
              },
              {
                "mealCategoryCode": "DM",
                "mealCategoryName": "Dietry Meals locale",
                "mealServiceList": [
                  {
                    "mealCode": "LFML",
                    "mealName": "Low fat meal"
                  },
                  {
                    "mealCode": "SPML",
                    "mealName": "Non strict nut free meal"
                  },
                  {
                    "mealCode": "FPML",
                    "mealName": "Fruit platter"
                  },
                  {
                    "mealCode": "GFML",
                    "mealName": "Gluten intolerant meal"
                  },
                  {
                    "mealCode": "SPML",
                    "mealName": "Semi fluid meal"
                  },
                  {
                    "mealCode": "SPML",
                    "mealName": "Nil carbohydrate meal"
                  },
                  {
                    "mealCode": "SPML",
                    "mealName": "Fat free meal"
                  },
                  {
                    "mealCode": "LSML",
                    "mealName": "Low salt meal"
                  },
                  {
                    "mealCode": "BLML",
                    "mealName": "Bland meal"
                  },
                  {
                    "mealCode": "DBML",
                    "mealName": "Diabatic meal locale"
                  },
                  {
                    "mealCode": "SPML",
                    "mealName": "Soft fluid meal"
                  },
                  {
                    "mealCode": "SPML",
                    "mealName": "Ulcer diet"
                  },
                  {
                    "mealCode": "LCML",
                    "mealName": "Low calorie meal"
                  },
                  {
                    "mealCode": "NLML",
                    "mealName": "Low lactose meal"
                  },
                  {
                    "mealCode": "SPML",
                    "mealName": "Low fibre residue meal"
                  }
                ]
              },
              {
                "mealCategoryCode": "IF",
                "mealCategoryName": "INFANT MEALS",
                "mealServiceList": [
                  {
                    "mealCode": "SPML",
                    "mealName": "Postweaning meal"
                  },
                  {
                    "mealCode": "BBML",
                    "mealName": "Baby meal"
                  }
                ]
              },
              {
                "mealCategoryCode": "OT",
                "mealCategoryName": "OTHERS",
                "mealServiceList": [
                  {
                    "mealCode": "SFML",
                    "mealName": "Seafood meal"
                  }
                ]
              },
              {
                "mealCategoryCode": "RL",
                "mealCategoryName": "RELIGIOUS MEALS",
                "mealServiceList": [
                  {
                    "mealCode": "MOML",
                    "mealName": "Muslim meal"
                  },
                  {
                    "mealCode": "KSML",
                    "mealName": "Kosher meal"
                  },
                  {
                    "mealCode": "HNML",
                    "mealName": "Hindu non-vegetarian meal"
                  }
                ]
              },
              {
                "mealCategoryCode": "VG",
                "mealCategoryName": "VEGETARIAN MEALS",
                "mealServiceList": [
                  {
                    "mealCode": "VLML",
                    "mealName": "Vegetarian lacto-ovo meal"
                  },
                  {
                    "mealCode": "RVML",
                    "mealName": "Vegetarian raw meal"
                  },
                  {
                    "mealCode": "VOML",
                    "mealName": "Vegetarian oriental meal"
                  },
                  {
                    "mealCode": "AVML",
                    "mealName": "Vegetarian indian meal"
                  },
                  {
                    "mealCode": "VGML",
                    "mealName": "Vegetarian vegan meal"
                  },
                  {
                    "mealCode": "SPML",
                    "mealName": "Vegetarian southern indian meal"
                  }
                ]
              }
            ]
          }
        ],
        "segmentId": "2"
      }
    ]
  }
}
