{
  "locale": "en_UK",
  "excessBaggage": [
    {
      "id": 2,
      "paxName": "FRST LAST",
      "paxType": "ADT",
      "segmentDetails": [
        {
          "flightNo": "SQ 5904",
          "from": "SIN",
          "to": "NRT",
          "segmentID": 1,
          "eligible": "false",
          "baggageDetails": [
            {
              "baggageType": "free",
              "name": "30kg"
            }
          ],
          "fromCityName": "Singapore",
          "toCityName": "Tokyo"
        },
        {
          "flightNo": "SQ 5901",
          "from": "NRT",
          "to": "SIN",
          "segmentID": 2,
          "eligible": "false",
          "baggageDetails": [
            {
              "baggageType": "free",
              "name": "30kg"
            }
          ],
          "fromCityName": "Tokyo",
          "toCityName": "Singapore"
        }
      ]
    },
    {
      "id": 2,
      "paxName": "INFN LASTINFN",
      "paxType": "INF",
      "segmentDetails": [
        {
          "flightNo": "SQ 5904",
          "from": "SIN",
          "to": "NRT",
          "segmentID": 1,
          "eligible": "false",
          "baggageDetails": [
            {
              "baggageType": "free",
              "name": "10kg"
            }
          ],
          "fromCityName": "Singapore",
          "toCityName": "Tokyo"
        },
        {
          "flightNo": "SQ 5901",
          "from": "NRT",
          "to": "SIN",
          "segmentID": 2,
          "eligible": "false",
          "baggageDetails": [
            {
              "baggageType": "free",
              "name": "10kg"
            }
          ],
          "fromCityName": "Tokyo",
          "toCityName": "Singapore"
        }
      ]
    }
  ]
}
