{
  "locale": "en_UK",
  "excessBaggage": [
    {
      "id": 2,
      "paxName": "FRST LAST",
      "paxType": "ADT",
      "segmentDetails": [
        {
          "flightNo": "SQ 478",
          "from": "SIN",
          "to": "JNB",
          "segmentID": 1,
          "eligible": "false",
          "baggageDetails": [],
          "fromCityName": "Singapore",
          "toCityName": "Johannesburg"
        },
        {
          "flightNo": "SA 313",
          "from": "JNB",
          "to": "CPT",
          "segmentID": 2,
          "eligible": "false",
          "baggageDetails": [],
          "fromCityName": "Johannesburg",
          "toCityName": "Cape Town"
        },
        {
          "flightNo": "SA 322",
          "from": "CPT",
          "to": "JNB",
          "segmentID": 3,
          "eligible": "false",
          "baggageDetails": [
            {
              "baggageType": "free",
              "name": "30kg"
            }
          ],
          "fromCityName": "Cape Town",
          "toCityName": "Johannesburg"
        },
        {
          "flightNo": "SQ 479",
          "from": "JNB",
          "to": "SIN",
          "segmentID": 4,
          "eligible": "false",
          "baggageDetails": [
            {
              "baggageType": "free",
              "name": "30kg"
            }
          ],
          "fromCityName": "Johannesburg",
          "toCityName": "Singapore"
        }
      ]
    }
  ]
}
