{
  "fareFamilyCondition": [
    {
      "type": "ChangeBooking",
      "isAllowed": true,
      "description": "Booking change (USD 50)"
    },
    {
      "type": "EarnMiles",
      "isAllowed": true,
      "description": "Earn KrisFlyer miles (50%)"
    },
    {
      "type": "CancelAndRefund",
      "isAllowed": false,
      "description": "Refund/Cancellation"
    },
    {
      "type": "Upgrade",
      "isAllowed": true,
      "description": "Upgrade with KrisFlyer miles on flights operated by Singapore Airlines, SilkAir and selected Star Alliance airlines (see the KrisFlyer terms and conditions)"
    }
  ],
  "fareAvailablityVO": {
    "messages": {
      "O6FF21SIN": "A few seats left",
      "O1FF21SIN": " ",
      "O5FF21SIN": "A few seats left",
      "O0FF21SIN": " ",
      "O12FF21SIN": " ",
      "O7FF21SIN": " ",
      "O10FF21SIN": " ",
      "O2FF21SIN": " ",
      "O11FF21SIN": " ",
      "O13FF21SIN": " ",
      "R0FF21SIN": "A few seats left",
      "O8FF21SIN": " ",
      "O3FF21SIN": "A few seats left",
      "O9FF21SIN": " ",
      "O4FF21SIN": " "
    },
    "defaults": [
      "O0FF21SIN"
    ]
  },
  "bookingSummary":{
  "adultCount": 2,
  "childCount": 1,
  "infantCount": 0,
  "currency": "HKD",
  "taxTotal": 837.00,
  "surchargeTotal": 486.00,
  "fareSubTotal": 1323.00,
  "grandTotal": 1323.00,
  "milesAllocated": 0,
  "totalMilesForORB": 153000,
  "flight": [
    {
      "totalTravelTime": "3hrs 50mins",
      "origin": "Hong Kong",
      "destination": "Singapore",
      "flightSegments": [
        {
          "carrierCode": "SQ",
          "airCraftType": "Boeing 777-300ER",
          "flightNumber": "1",
          "cabinClassDesc": "ECONOMY",
          "deparure": {
            "time": "08:10",
            "date": "08 Mar (Sun)",
            "airportCode": "HKG",
            "airportName": "Hong Kong",
            "cityCode": "HKG",
            "cityName": "Hong Kong",
            "terminal": "1"
          },
          "arrival": {
            "time": "12:00",
            "date": "08 Mar (Sun)",
            "airportCode": "SIN",
            "airportName": "Changi Intl",
            "cityCode": "SIN",
            "cityName": "Singapore"
          }
        }
      ]
    },
    {
      "totalTravelTime": "4hrs",
      "origin": "Singapore",
      "destination": "Hong Kong",
      "flightSegments": [
        {
          "carrierCode": "SQ",
          "airCraftType": "Airbus Industrie A380-800",
          "flightNumber": "856",
          "cabinClassDesc": "ECONOMY",
          "deparure": {
            "time": "09:30",
            "date": "28 Mar (Sat)",
            "airportCode": "SIN",
            "airportName": "Changi Intl",
            "cityCode": "SIN",
            "cityName": "Singapore",
            "terminal": "3"
          },
          "arrival": {
            "time": "13:30",
            "date": "28 Mar (Sat)",
            "airportCode": "HKG",
            "airportName": "Hong Kong",
            "cityCode": "HKG",
            "cityName": "Hong Kong",
            "terminal": "1"
          }
        }
      ]
    }
  ],
  "paxDetails": [
    {
      "paxType": "Adult",
      "id": 0,
      "paxName": "Adult 1",
      "fareDetails": {
        "totalCost": 962.00,
        "totalMiles": 51000,
        "fareAmount": 0.00,
        "taxAmount": 638.00,
        "surchargeAmount": 324.00,
        "surcharge": [
          {
            "amount": 324.00,
            "code": "YQ",
            "description": "Airline Fuel and Insurance Surcharge"
          }
        ],
        "taxes": [
          {
            "amount": 94.00,
            "code": "OO",
            "description": "Passenger Security Service Charge"
          },
          {
            "amount": 72.00,
            "code": "OP",
            "description": "Aviation Levy"
          },
          {
            "amount": 232.00,
            "code": "SG",
            "description": "Passenger Service and Security Charge"
          },
          {
            "amount": 240.00,
            "code": "HK",
            "description": "Air Passenger Departure Tax"
          }
        ]
      },
      "detailsPerFlight": [
        {
          "flightNo": "1",
          "from": "HKG",
          "to": "SIN",
          "departureDate": "Sun Mar 08 08:10:00 IST 2015"
        },
        {
          "flightNo": "856",
          "from": "SIN",
          "to": "HKG",
          "departureDate": "Sat Mar 28 09:30:00 IST 2015"
        }
      ]
    },
    {
      "paxType": "Adult",
      "id": 0,
      "paxName": "Adult 2",
      "fareDetails": {
        "totalCost": 962.00,
        "totalMiles": 51000,
        "fareAmount": 0.00,
        "taxAmount": 638.00,
        "surchargeAmount": 324.00,
        "surcharge": [
          {
            "amount": 324.00,
            "code": "YQ",
            "description": "Airline Fuel and Insurance Surcharge"
          }
        ],
        "taxes": [
          {
            "amount": 94.00,
            "code": "OO",
            "description": "Passenger Security Service Charge"
          },
          {
            "amount": 72.00,
            "code": "OP",
            "description": "Aviation Levy"
          },
          {
            "amount": 232.00,
            "code": "SG",
            "description": "Passenger Service and Security Charge"
          },
          {
            "amount": 240.00,
            "code": "HK",
            "description": "Air Passenger Departure Tax"
          }
        ]
      },
      "detailsPerFlight": [
        {
          "flightNo": "1",
          "from": "HKG",
          "to": "SIN",
          "departureDate": "Sun Mar 08 08:10:00 IST 2015"
        },
        {
          "flightNo": "856",
          "from": "SIN",
          "to": "HKG",
          "departureDate": "Sat Mar 28 09:30:00 IST 2015"
        }
      ]
    },
    {
      "paxType": "Child",
      "id": 0,
      "paxName": "Child 1",
      "fareDetails": {
        "totalCost": 1083.00,
        "totalMiles": 51000,
        "fareAmount": 0.00,
        "taxAmount": 597.00,
        "surchargeAmount": 486.00,
        "surcharge": [
          {
            "amount": 486.00,
            "code": "YQ",
            "description": "Airline Fuel and Insurance Surcharge"
          }
        ],
        "taxes": [
          {
            "amount": 141.00,
            "code": "OO",
            "description": "Passenger Security Service Charge"
          },
          {
            "amount": 108.00,
            "code": "OP",
            "description": "Aviation Levy"
          },
          {
            "amount": 348.00,
            "code": "SG",
            "description": "Passenger Service and Security Charge"
          }
        ]
      },
      "detailsPerFlight": [
        {
          "flightNo": "1",
          "from": "HKG",
          "to": "SIN",
          "departureDate": "Sun Mar 08 08:10:00 IST 2015"
        },
        {
          "flightNo": "856",
          "from": "SIN",
          "to": "HKG",
          "departureDate": "Sat Mar 28 09:30:00 IST 2015"
        }
      ]
    }
  ]
}
}