{
  "adultCount": 4,
  "childCount": 1,
  "infantCount": 0,
  "currency": "AUD",
  "taxTotal": 581.35,
  "surchargeTotal": 1671.00,
  "fareSubTotal": 2252.35,
  "grandTotal": 2252.35,
  "costPayableByCash": 0.00,
  "costPayableByMiles": 0.00,
  "milesAllocated": 0,
  "totalMilesForORB": 467500,
  "addonSubTotal": 0.00,
  "flight": [
    {
      "totalTravelTime": "7hrs 40mins",
      "origin": "Melbourne",
      "destination": "Singapore",
      "flightSegments": [
        {
          "carrierCode": "SQ",
          "airCraftType": "Boeing 777-300ER",
          "flightNumber": "218",
          "cabinClassDesc": "ECONOMY",
          "deparure": {
            "time": "01:05",
            "date": "07 Mar (Sat)",
            "airportCode": "MEL",
            "airportName": "Melbourne Intl",
            "cityCode": "MEL",
            "cityName": "Melbourne",
            "terminal": "2"
          },
          "arrival": {
            "time": "05:45",
            "date": "07 Mar (Sat)",
            "airportCode": "SIN",
            "airportName": "Changi Intl",
            "cityCode": "SIN",
            "cityName": "Singapore"
          }
        }
      ]
    },
    {
      "totalTravelTime": "7hrs 30mins",
      "origin": "Singapore",
      "destination": "Melbourne",
      "flightSegments": [
        {
          "carrierCode": "SQ",
          "airCraftType": "Boeing 777-300ER",
          "flightNumber": "217",
          "cabinClassDesc": "ECONOMY",
          "deparure": {
            "time": "10:45",
            "date": "20 Mar (Fri)",
            "airportCode": "SIN",
            "airportName": "Changi Intl",
            "cityCode": "SIN",
            "cityName": "Singapore",
            "terminal": "3"
          },
          "arrival": {
            "time": "21:15",
            "date": "20 Mar (Fri)",
            "airportCode": "MEL",
            "airportName": "Melbourne Intl",
            "cityCode": "MEL",
            "cityName": "Melbourne",
            "terminal": "2"
          }
        }
      ]
    }
  ],
  "paxDetails": [
    {
      "paxType": "Adult",
      "id": 2,
      "paxName": "Mr RAVI RAJJOHANN VELU PILLAI",
      "paxCategory": "Non-Nominee",
      "fareDetails": {
        "totalCost": 2228.23,
        "totalMiles": 93500,
        "fareAmount": 0.00,
        "taxAmount": 557.23,
        "surchargeAmount": 1671.00,
        "surcharge": [
          {
            "amount": 1546.00,
            "code": "YQ",
            "description": "Airline Fuel and Insurance Surcharge"
          },
          {
            "amount": 125.00,
            "code": "YR",
            "description": "Airline Fuel and Insurance Surcharge/Payment Transaction Fee"
          }
        ],
        "taxes": [
          {
            "amount": 40.00,
            "code": "OO",
            "description": "Passenger Security Service Charge"
          },
          {
            "amount": 30.50,
            "code": "OP",
            "description": "Aviation Levy"
          },
          {
            "amount": 170.25,
            "code": "WY",
            "description": "Passenger Services Charge - Intl"
          },
          {
            "amount": 16.88,
            "code": "WG",
            "description": "Safety and Security Charge (Domestic/International)"
          },
          {
            "amount": 220.00,
            "code": "AU",
            "description": "Passenger Movement Charge"
          },
          {
            "amount": 79.60,
            "code": "SG",
            "description": "Passenger Service and Security Charge"
          }
        ]
      },
      "detailsPerFlight": [
        {
          "flightNo": "218",
          "from": "MEL",
          "to": "SIN",
          "departureDate": "Sat Mar 07 01:05:00 IST 2015",
          "addonPerPax": [
            {
              "type": "Seat",
              "description": "AISLE",
              "category": "Free"
            }
          ]
        },
        {
          "flightNo": "217",
          "from": "SIN",
          "to": "MEL",
          "departureDate": "Fri Mar 20 10:45:00 IST 2015",
          "addonPerPax": [
            {
              "type": "Seat",
              "description": "AISLE",
              "category": "Free"
            }
          ]
        }
      ]
    },
    {
      "paxType": "Adult",
      "id": 3,
      "paxName": "Mr Yasar Arafath",
      "paxCategory": "Non-Nominee",
      "fareDetails": {
        "totalCost": 2228.23,
        "totalMiles": 93500,
        "fareAmount": 0.00,
        "taxAmount": 557.23,
        "surchargeAmount": 1671.00,
        "surcharge": [
          {
            "amount": 1546.00,
            "code": "YQ",
            "description": "Airline Fuel and Insurance Surcharge"
          },
          {
            "amount": 125.00,
            "code": "YR",
            "description": "Airline Fuel and Insurance Surcharge/Payment Transaction Fee"
          }
        ],
        "taxes": [
          {
            "amount": 40.00,
            "code": "OO",
            "description": "Passenger Security Service Charge"
          },
          {
            "amount": 30.50,
            "code": "OP",
            "description": "Aviation Levy"
          },
          {
            "amount": 170.25,
            "code": "WY",
            "description": "Passenger Services Charge - Intl"
          },
          {
            "amount": 16.88,
            "code": "WG",
            "description": "Safety and Security Charge (Domestic/International)"
          },
          {
            "amount": 220.00,
            "code": "AU",
            "description": "Passenger Movement Charge"
          },
          {
            "amount": 79.60,
            "code": "SG",
            "description": "Passenger Service and Security Charge"
          }
        ]
      },
      "detailsPerFlight": [
        {
          "flightNo": "218",
          "from": "MEL",
          "to": "SIN",
          "departureDate": "Sat Mar 07 01:05:00 IST 2015",
          "addonPerPax": [
            {
              "type": "Seat",
              "description": "AISLE",
              "category": "Free"
            }
          ]
        },
        {
          "flightNo": "217",
          "from": "SIN",
          "to": "MEL",
          "departureDate": "Fri Mar 20 10:45:00 IST 2015",
          "addonPerPax": [
            {
              "type": "Seat",
              "description": "AISLE",
              "category": "Free"
            }
          ]
        }
      ]
    },
    {
      "paxType": "Adult",
      "id": 4,
      "paxName": "Dr lain mathur",
      "paxCategory": "Non-Nominee",
      "fareDetails": {
        "totalCost": 2228.23,
        "totalMiles": 93500,
        "fareAmount": 0.00,
        "taxAmount": 557.23,
        "surchargeAmount": 1671.00,
        "surcharge": [
          {
            "amount": 1546.00,
            "code": "YQ",
            "description": "Airline Fuel and Insurance Surcharge"
          },
          {
            "amount": 125.00,
            "code": "YR",
            "description": "Airline Fuel and Insurance Surcharge/Payment Transaction Fee"
          }
        ],
        "taxes": [
          {
            "amount": 40.00,
            "code": "OO",
            "description": "Passenger Security Service Charge"
          },
          {
            "amount": 30.50,
            "code": "OP",
            "description": "Aviation Levy"
          },
          {
            "amount": 170.25,
            "code": "WY",
            "description": "Passenger Services Charge - Intl"
          },
          {
            "amount": 16.88,
            "code": "WG",
            "description": "Safety and Security Charge (Domestic/International)"
          },
          {
            "amount": 220.00,
            "code": "AU",
            "description": "Passenger Movement Charge"
          },
          {
            "amount": 79.60,
            "code": "SG",
            "description": "Passenger Service and Security Charge"
          }
        ]
      },
      "detailsPerFlight": [
        {
          "flightNo": "218",
          "from": "MEL",
          "to": "SIN",
          "departureDate": "Sat Mar 07 01:05:00 IST 2015",
          "addonPerPax": [
            {
              "type": "Seat",
              "description": "AISLE",
              "category": "Free"
            }
          ]
        },
        {
          "flightNo": "217",
          "from": "SIN",
          "to": "MEL",
          "departureDate": "Fri Mar 20 10:45:00 IST 2015",
          "addonPerPax": [
            {
              "type": "Seat",
              "description": "AISLE",
              "category": "Free"
            }
          ]
        }
      ]
    },
    {
      "paxType": "Adult",
      "id": 5,
      "paxName": "Mrs Test Minor",
      "paxCategory": "Non-Nominee",
      "fareDetails": {
        "totalCost": 2228.23,
        "totalMiles": 93500,
        "fareAmount": 0.00,
        "taxAmount": 557.23,
        "surchargeAmount": 1671.00,
        "surcharge": [
          {
            "amount": 1546.00,
            "code": "YQ",
            "description": "Airline Fuel and Insurance Surcharge"
          },
          {
            "amount": 125.00,
            "code": "YR",
            "description": "Airline Fuel and Insurance Surcharge/Payment Transaction Fee"
          }
        ],
        "taxes": [
          {
            "amount": 40.00,
            "code": "OO",
            "description": "Passenger Security Service Charge"
          },
          {
            "amount": 30.50,
            "code": "OP",
            "description": "Aviation Levy"
          },
          {
            "amount": 170.25,
            "code": "WY",
            "description": "Passenger Services Charge - Intl"
          },
          {
            "amount": 16.88,
            "code": "WG",
            "description": "Safety and Security Charge (Domestic/International)"
          },
          {
            "amount": 220.00,
            "code": "AU",
            "description": "Passenger Movement Charge"
          },
          {
            "amount": 79.60,
            "code": "SG",
            "description": "Passenger Service and Security Charge"
          }
        ]
      },
      "detailsPerFlight": [
        {
          "flightNo": "218",
          "from": "MEL",
          "to": "SIN",
          "departureDate": "Sat Mar 07 01:05:00 IST 2015",
          "addonPerPax": [
            {
              "type": "Seat",
              "description": "WINDOW",
              "category": "Free"
            }
          ]
        },
        {
          "flightNo": "217",
          "from": "SIN",
          "to": "MEL",
          "departureDate": "Fri Mar 20 10:45:00 IST 2015",
          "addonPerPax": [
            {
              "type": "Seat",
              "description": "AISLE",
              "category": "Free"
            }
          ]
        }
      ]
    },
    {
      "paxType": "Child",
      "id": 6,
      "paxName": "Mstr Tintu Mon",
      "paxCategory": "Non-Nominee",
      "fareDetails": {
        "totalCost": 502.95,
        "totalMiles": 93500,
        "fareAmount": 0.00,
        "taxAmount": 168.75,
        "surchargeAmount": 334.20,
        "surcharge": [
          {
            "amount": 309.20,
            "code": "YQ",
            "description": "Airline Fuel and Insurance Surcharge"
          },
          {
            "amount": 25.00,
            "code": "YR",
            "description": "Airline Fuel and Insurance Surcharge/Payment Transaction Fee"
          }
        ],
        "taxes": [
          {
            "amount": 8.00,
            "code": "OO",
            "description": "Passenger Security Service Charge"
          },
          {
            "amount": 6.10,
            "code": "OP",
            "description": "Aviation Levy"
          },
          {
            "amount": 34.05,
            "code": "WY",
            "description": "Passenger Services Charge - Intl"
          },
          {
            "amount": 21.10,
            "code": "WG",
            "description": "Safety and Security Charge (Domestic/International)"
          },
          {
            "amount": 99.50,
            "code": "SG",
            "description": "Passenger Service and Security Charge"
          }
        ]
      },
      "detailsPerFlight": [
        {
          "flightNo": "218",
          "from": "MEL",
          "to": "SIN",
          "departureDate": "Sat Mar 07 01:05:00 IST 2015",
          "addonPerPax": [
            {
              "type": "Seat",
              "description": "AISLE",
              "category": "Free"
            }
          ]
        },
        {
          "flightNo": "217",
          "from": "SIN",
          "to": "MEL",
          "departureDate": "Fri Mar 20 10:45:00 IST 2015",
          "addonPerPax": [
            {
              "type": "Seat",
              "description": "AISLE",
              "category": "Free"
            }
          ]
        }
      ]
    }
  ],
  "commonAddons": [
    
  ]
}