{
  "fareFamilyCondition": [
    {
      "isAllowed": false,
      "description": "FF81SIN"
    }
  ],
  "fareAvailablityVO": {
    "messages": {
      "O2FF81SIN": " ",
      "O3FF81SIN": " ",
      "O1FF81SIN": " ",
      "R2FF81SIN": "A few seats left",
      "O0FF81SIN": " "
    },
    "packageVO": {
      "type": "ATC",
      "currencyCode": "SGD",
      "fare": 2730.00,
      "tax": 34.00,
      "surcharge": 7.90,
      "total": 2771.90
    }
  },
  "bookingSummary": {
    "adultCount": 1,
    "childCount": 0,
    "infantCount": 0,
    "precision": 2,
    "currency": "SGD",
    "fareTotal": 2730.00,
    "taxTotal": 34.00,
    "surchargeTotal": 7.90,
    "fareSubTotal": 2771.90,
    "grandTotal": 2771.90,
    "milesAllocated": 0,
    "totalMilesForORB": 0,
    "rebookingFee": 0.0,
    "totalToBePaidCash": 2040.0,
    "totalToBePaidMiles": 0,
    "milesToBeRefunded": 0,
    "oldItinerary": {
      "currency": "SGD",
      "fareTotal": 731.9,
      "totalMilesForORB": 0
    },
    "locale": "en_UK",
    "scenario": "ATC",
    "flight": [
      {
        "totalTravelTime": "3hrs 45mins",
        "origin": "Singapore",
        "destination": "Hong Kong",
        "flightSegments": [
          {
            "carrierCode": "SQ",
            "airCraftType": "Boeing 777-300ER",
            "flightNumber": "2",
            "cabinClassDesc": "FIRST(F)",
            "deparure": {
              "time": "18:30",
              "date": "30 Jun (Tue)",
              "airportCode": "SIN",
              "airportName": "Changi Intl",
              "cityCode": "SIN",
              "cityName": "Singapore",
              "terminal": "3"
            },
            "arrival": {
              "time": "22:15",
              "date": "30 Jun (Tue)",
              "airportCode": "HKG",
              "airportName": "Hong Kong",
              "cityCode": "HKG",
              "cityName": "Hong Kong",
              "terminal": "1"
            }
          }
        ]
      }
    ],
    "paxDetails": [
      {
        "paxType": "Adult",
        "id": 0,
        "paxName": "Mr Anoop Krishnan",
        "fareDetails": {
          "totalCost": 2771.90,
          "totalMiles": 0,
          "fareAmount": 2730.00,
          "taxAmount": 34.00,
          "surchargeAmount": 7.90,
          "surcharge": [
            {
              "amount": 7.90,
              "code": "YQAC",
              "description": "Airline Fuel Surcharge"
            }
          ],
          "taxes": [
            {
              "amount": 19.90,
              "code": "SG",
              "description": "Passenger Service and Security Charge"
            },
            {
              "amount": 6.10,
              "code": "OP",
              "description": "Aviation Levy"
            },
            {
              "amount": 8.00,
              "code": "OO",
              "description": "Passenger Security Service Charge"
            }
          ]
        },
        "detailsPerFlight": [
          {
            "flightNo": "SQ2",
            "from": "SIN",
            "to": "HKG",
            "departureDate": "Tue Jun 30 18:30:00 IST 2015"
          }
        ]
      }
    ]
  }
}