{
  "fareFamilyCondition": [
    {
      "isAllowed": false,
      "description": "FF61SIN"
    }
  ],
  "fareAvailablityVO": {
    "messages": {
      "O3FF61SIN": " ",
      "O1FF61SIN": " ",
      "R5FF61SIN": " ",
      "O6FF61SIN": " ",
      "O4FF61SIN": " ",
      "O0FF61SIN": " ",
      "R3FF61SIN": " ",
      "O5FF61SIN": " ",
      "R1FF61SIN": " ",
      "R0FF61SIN": " ",
      "R2FF61SIN": " ",
      "O2FF61SIN": " ",
      "R4FF61SIN": " ",
      "R6FF61SIN": " "
    },
    "packageVO": {
      "type": "ATC",
      "currencyCode": "SGD",
      "fare": 2508.00,
      "tax": 54.70,
      "surcharge": 15.80,
      "total": 2578.50
    }
  },
  "bookingSummary": {
    "adultCount": 1,
    "childCount": 0,
    "infantCount": 0,
    "precision": 2,
    "currency": "SGD",
    "fareTotal": 2508.00,
    "taxTotal": 54.70,
    "surchargeTotal": 15.80,
    "fareSubTotal": 2578.50,
    "grandTotal": 2578.50,
    "milesAllocated": 0,
    "totalMilesForORB": 0,
    "rebookingFee": 0.0,
    "totalToBePaidCash": 0.0,
    "totalToBePaidMiles": 0,
    "cashToBeRefunded": 1750.0,
    "milesToBeRefunded": 0,
    "oldItinerary": {
      "currency": "SGD",
      "fareTotal": 4328.5,
      "totalMilesForORB": 0
    },
    "locale": "en_UK",
    "scenario": "ATC",
    "flight": [
      {
        "totalTravelTime": "3hrs 45mins",
        "origin": "Singapore",
        "destination": "Hong Kong",
        "flightSegments": [
          {
            "carrierCode": "SQ",
            "airCraftType": "Boeing 777-300ER",
            "flightNumber": "866",
            "cabinClassDesc": "BUSINESS(J)",
            "deparure": {
              "time": "13:20",
              "date": "17 Jun (Wed)",
              "airportCode": "SIN",
              "airportName": "Changi Intl",
              "cityCode": "SIN",
              "cityName": "Singapore",
              "terminal": "3"
            },
            "arrival": {
              "time": "17:05",
              "date": "17 Jun (Wed)",
              "airportCode": "HKG",
              "airportName": "Hong Kong",
              "cityCode": "HKG",
              "cityName": "Hong Kong",
              "terminal": "1"
            }
          }
        ]
      },
      {
        "totalTravelTime": "3hrs 45mins",
        "origin": "Hong Kong",
        "destination": "Singapore",
        "flightSegments": [
          {
            "carrierCode": "SQ",
            "airCraftType": "Boeing 777-300ER",
            "flightNumber": "1",
            "cabinClassDesc": "BUSINESS(J)",
            "deparure": {
              "time": "08:00",
              "date": "16 Jul (Thu)",
              "airportCode": "HKG",
              "airportName": "Hong Kong",
              "cityCode": "HKG",
              "cityName": "Hong Kong",
              "terminal": "1"
            },
            "arrival": {
              "time": "11:45",
              "date": "16 Jul (Thu)",
              "airportCode": "SIN",
              "airportName": "Changi Intl",
              "cityCode": "SIN",
              "cityName": "Singapore"
            }
          }
        ]
      }
    ],
    "paxDetails": [
      {
        "paxType": "Adult",
        "id": 0,
        "paxName": "Mr Anoop Krishnan",
        "fareDetails": {
          "totalCost": 2578.50,
          "totalMiles": 0,
          "fareAmount": 2508.00,
          "taxAmount": 54.70,
          "surchargeAmount": 15.80,
          "surcharge": [
            {
              "amount": 15.80,
              "code": "YQAC",
              "description": "Airline Fuel Surcharge"
            }
          ],
          "taxes": [
            {
              "amount": 19.90,
              "code": "SG",
              "description": "Passenger Service and Security Charge"
            },
            {
              "amount": 6.10,
              "code": "OP",
              "description": "Aviation Levy"
            },
            {
              "amount": 8.00,
              "code": "OO",
              "description": "Passenger Security Service Charge"
            },
            {
              "amount": 20.70,
              "code": "HK",
              "description": "Air Passenger Departure Tax"
            }
          ]
        },
        "detailsPerFlight": [
          {
            "flightNo": "SQ866",
            "from": "SIN",
            "to": "HKG",
            "departureDate": "Wed Jun 17 13:20:00 IST 2015"
          },
          {
            "flightNo": "SQ1",
            "from": "HKG",
            "to": "SIN",
            "departureDate": "Thu Jul 16 08:00:00 IST 2015"
          }
        ]
      }
    ]
  }
}