{
  "fareFamilyCondition": [
    {
      "type": "ChangeBooking",
      "isAllowed": true,
      "description": "Booking change (USD 50)"
    },
    {
      "type": "EarnMiles",
      "isAllowed": true,
      "description": "Earn KrisFlyer miles (50%)"
    },
    {
      "type": "CancelAndRefund",
      "isAllowed": false,
      "description": "Refund/Cancellation"
    },
    {
      "type": "Upgrade",
      "isAllowed": true,
      "description": "Upgrade with KrisFlyer miles on flights operated by Singapore Airlines, SilkAir and selected Star Alliance airlines (see the KrisFlyer terms and conditions)"
    }
  ],
  "fareAvailablityVO": {
    "messages": {
      "O6FF21SIN": "A few seats left",
      "O1FF21SIN": " ",
      "O5FF21SIN": "A few seats left",
      "O0FF21SIN": " ",
      "O12FF21SIN": " ",
      "O7FF21SIN": " ",
      "O10FF21SIN": " ",
      "O2FF21SIN": " ",
      "O11FF21SIN": " ",
      "O13FF21SIN": " ",
      "R0FF21SIN": "A few seats left",
      "O8FF21SIN": " ",
      "O3FF21SIN": "A few seats left",
      "O9FF21SIN": " ",
      "O4FF21SIN": " "
    },
    "defaults": [
      "O0FF21SIN"
    ]
  },
  "bookingSummary":{
  "adultCount": 3,
  "childCount": 1,
  "infantCount": 0,
  "currency": "SGD",
  "taxTotal": 513.20,
  "surchargeTotal": 2875.20,
  "fareSubTotal": 3388.40,
  "grandTotal": 3388.40,
  "milesAllocated": 0,
  "totalMilesForORB": 644000,
  "flight": [
    {
      "totalTravelTime": "6hrs 15mins",
      "origin": "Singapore",
      "destination": "Seoul",
      "flightSegments": [
        {
          "carrierCode": "SQ",
          "airCraftType": "Boeing 777-300ER",
          "flightNumber": "16",
          "cabinClassDesc": "ECONOMY",
          "deparure": {
            "time": "09:25",
            "date": "26 Feb (Thu)",
            "airportCode": "SIN",
            "airportName": "Changi Intl",
            "cityCode": "SIN",
            "cityName": "Singapore",
            "terminal": "3"
          },
          "arrival": {
            "time": "16:40",
            "date": "26 Feb (Thu)",
            "airportCode": "ICN",
            "airportName": "Incheon Intl",
            "cityCode": "SEL",
            "cityName": "Seoul"
          }
        }
      ]
    },
    {
      "totalTravelTime": "44hrs 20mins",
      "origin": "Seoul",
      "destination": "San Francisco",
      "flightSegments": [
        {
          "carrierCode": "SQ",
          "airCraftType": "Airbus A330-300",
          "flightNumber": "609",
          "cabinClassDesc": "ECONOMY",
          "deparure": {
            "time": "16:35",
            "date": "04 Mar (Wed)",
            "airportCode": "ICN",
            "airportName": "Incheon Intl",
            "cityCode": "SEL",
            "cityName": "Seoul"
          },
          "arrival": {
            "time": "22:15",
            "date": "04 Mar (Wed)",
            "airportCode": "SIN",
            "airportName": "Changi Intl",
            "cityCode": "SIN",
            "cityName": "Singapore"
          }
        },
        {
          "carrierCode": "SQ",
          "airCraftType": "Boeing 777-300ER",
          "flightNumber": "2",
          "cabinClassDesc": "ECONOMY",
          "layoverTime": "1hrs 25mins",
          "deparure": {
            "time": "18:30",
            "date": "05 Mar (Thu)",
            "airportCode": "SIN",
            "airportName": "Changi Intl",
            "cityCode": "SIN",
            "cityName": "Singapore",
            "terminal": "3"
          },
          "arrival": {
            "time": "22:15",
            "date": "05 Mar (Thu)",
            "airportCode": "HKG",
            "airportName": "Hong Kong",
            "cityCode": "HKG",
            "cityName": "Hong Kong"
          }
        },
        {
          "carrierCode": "SQ",
          "airCraftType": "Boeing 777-300ER",
          "flightNumber": "2",
          "cabinClassDesc": "ECONOMY",
          "deparure": {
            "time": "23:40",
            "date": "05 Mar (Thu)",
            "airportCode": "HKG",
            "airportName": "Hong Kong",
            "cityCode": "HKG",
            "cityName": "Hong Kong"
          },
          "arrival": {
            "time": "19:55",
            "date": "05 Mar (Thu)",
            "airportCode": "SFO",
            "airportName": "San Francisco Intl",
            "cityCode": "SFO",
            "cityName": "San Francisco",
            "terminal": "I"
          }
        }
      ]
    }
  ],
  "paxDetails": [
    {
      "paxType": "Adult",
      "id": 0,
      "paxName": "Adult 1",
      "fareDetails": {
        "totalCost": 3284.70,
        "totalMiles": 136000,
        "fareAmount": 0.00,
        "taxAmount": 409.50,
        "surchargeAmount": 2875.20,
        "surcharge": [
          {
            "amount": 2875.20,
            "code": "YQ",
            "description": "Airline Fuel and Insurance Surcharge"
          }
        ],
        "taxes": [
          {
            "amount": 44.00,
            "code": "OO",
            "description": "Passenger Security Service Charge"
          },
          {
            "amount": 24.40,
            "code": "OP",
            "description": "Aviation Levy"
          },
          {
            "amount": 30.00,
            "code": "YC",
            "description": "Customs User Fee"
          },
          {
            "amount": 103.50,
            "code": "BP",
            "description": "PSC, Departure Tax and Contribution to International Poverty Eradication"
          },
          {
            "amount": 28.50,
            "code": "XY",
            "description": "Immigration User Fee"
          },
          {
            "amount": 86.70,
            "code": "SG",
            "description": "Passenger Service and Security Charge"
          },
          {
            "amount": 72.00,
            "code": "US",
            "description": "Transportation Tax (Domestic/International)"
          },
          {
            "amount": 20.40,
            "code": "XA",
            "description": "APHIS User Fee - Passengers"
          }
        ]
      },
      "detailsPerFlight": [
        {
          "flightNo": "16",
          "from": "SIN",
          "to": "SEL",
          "departureDate": "Thu Feb 26 09:25:00 IST 2015"
        },
        {
          "flightNo": "609",
          "from": "SEL",
          "to": "SIN",
          "departureDate": "Wed Mar 04 16:35:00 IST 2015"
        },
        {
          "flightNo": "2",
          "from": "SIN",
          "to": "SFO",
          "departureDate": "Thu Mar 05 18:30:00 IST 2015"
        }
      ]
    },
    {
      "paxType": "Adult",
      "id": 0,
      "paxName": "Adult 2",
      "fareDetails": {
        "totalCost": 3284.70,
        "totalMiles": 136000,
        "fareAmount": 0.00,
        "taxAmount": 409.50,
        "surchargeAmount": 2875.20,
        "surcharge": [
          {
            "amount": 2875.20,
            "code": "YQ",
            "description": "Airline Fuel and Insurance Surcharge"
          }
        ],
        "taxes": [
          {
            "amount": 44.00,
            "code": "OO",
            "description": "Passenger Security Service Charge"
          },
          {
            "amount": 24.40,
            "code": "OP",
            "description": "Aviation Levy"
          },
          {
            "amount": 30.00,
            "code": "YC",
            "description": "Customs User Fee"
          },
          {
            "amount": 103.50,
            "code": "BP",
            "description": "PSC, Departure Tax and Contribution to International Poverty Eradication"
          },
          {
            "amount": 28.50,
            "code": "XY",
            "description": "Immigration User Fee"
          },
          {
            "amount": 86.70,
            "code": "SG",
            "description": "Passenger Service and Security Charge"
          },
          {
            "amount": 72.00,
            "code": "US",
            "description": "Transportation Tax (Domestic/International)"
          },
          {
            "amount": 20.40,
            "code": "XA",
            "description": "APHIS User Fee - Passengers"
          }
        ]
      },
      "detailsPerFlight": [
        {
          "flightNo": "16",
          "from": "SIN",
          "to": "SEL",
          "departureDate": "Thu Feb 26 09:25:00 IST 2015"
        },
        {
          "flightNo": "609",
          "from": "SEL",
          "to": "SIN",
          "departureDate": "Wed Mar 04 16:35:00 IST 2015"
        },
        {
          "flightNo": "2",
          "from": "SIN",
          "to": "SFO",
          "departureDate": "Thu Mar 05 18:30:00 IST 2015"
        }
      ]
    },
    {
      "paxType": "Adult",
      "id": 0,
      "paxName": "Adult 3",
      "fareDetails": {
        "totalCost": 3284.70,
        "totalMiles": 136000,
        "fareAmount": 0.00,
        "taxAmount": 409.50,
        "surchargeAmount": 2875.20,
        "surcharge": [
          {
            "amount": 2875.20,
            "code": "YQ",
            "description": "Airline Fuel and Insurance Surcharge"
          }
        ],
        "taxes": [
          {
            "amount": 44.00,
            "code": "OO",
            "description": "Passenger Security Service Charge"
          },
          {
            "amount": 24.40,
            "code": "OP",
            "description": "Aviation Levy"
          },
          {
            "amount": 30.00,
            "code": "YC",
            "description": "Customs User Fee"
          },
          {
            "amount": 103.50,
            "code": "BP",
            "description": "PSC, Departure Tax and Contribution to International Poverty Eradication"
          },
          {
            "amount": 28.50,
            "code": "XY",
            "description": "Immigration User Fee"
          },
          {
            "amount": 86.70,
            "code": "SG",
            "description": "Passenger Service and Security Charge"
          },
          {
            "amount": 72.00,
            "code": "US",
            "description": "Transportation Tax (Domestic/International)"
          },
          {
            "amount": 20.40,
            "code": "XA",
            "description": "APHIS User Fee - Passengers"
          }
        ]
      },
      "detailsPerFlight": [
        {
          "flightNo": "16",
          "from": "SIN",
          "to": "SEL",
          "departureDate": "Thu Feb 26 09:25:00 IST 2015"
        },
        {
          "flightNo": "609",
          "from": "SEL",
          "to": "SIN",
          "departureDate": "Wed Mar 04 16:35:00 IST 2015"
        },
        {
          "flightNo": "2",
          "from": "SIN",
          "to": "SFO",
          "departureDate": "Thu Mar 05 18:30:00 IST 2015"
        }
      ]
    },
    {
      "paxType": "Child",
      "id": 0,
      "paxName": "Child 1",
      "fareDetails": {
        "totalCost": 1158.20,
        "totalMiles": 136000,
        "fareAmount": 0.00,
        "taxAmount": 439.40,
        "surchargeAmount": 718.80,
        "surcharge": [
          {
            "amount": 718.80,
            "code": "YQ",
            "description": "Airline Fuel and Insurance Surcharge"
          }
        ],
        "taxes": [
          {
            "amount": 11.00,
            "code": "OO",
            "description": "Passenger Security Service Charge"
          },
          {
            "amount": 6.10,
            "code": "OP",
            "description": "Aviation Levy"
          },
          {
            "amount": 7.50,
            "code": "YC",
            "description": "Customs User Fee"
          },
          {
            "amount": 138.00,
            "code": "BP",
            "description": "PSC, Departure Tax and Contribution to International Poverty Eradication"
          },
          {
            "amount": 38.00,
            "code": "XY",
            "description": "Immigration User Fee"
          },
          {
            "amount": 115.60,
            "code": "SG",
            "description": "Passenger Service and Security Charge"
          },
          {
            "amount": 96.00,
            "code": "US",
            "description": "Transportation Tax (Domestic/International)"
          },
          {
            "amount": 27.20,
            "code": "XA",
            "description": "APHIS User Fee - Passengers"
          }
        ]
      },
      "detailsPerFlight": [
        {
          "flightNo": "16",
          "from": "SIN",
          "to": "SEL",
          "departureDate": "Thu Feb 26 09:25:00 IST 2015"
        },
        {
          "flightNo": "609",
          "from": "SEL",
          "to": "SIN",
          "departureDate": "Wed Mar 04 16:35:00 IST 2015"
        },
        {
          "flightNo": "2",
          "from": "SIN",
          "to": "SFO",
          "departureDate": "Thu Mar 05 18:30:00 IST 2015"
        }
      ]
    }
  ]
}
}