{
  "bookingSummary": {
    "locale": "en_UK",
    "scenario": "Cancel",
    "adultCount": 1,
    "childCount": 0,
    "infantCount": 0,
    "precision": 2,
    "currency": "AUD",
    "costPayableByMiles": 0.00,
    "milesAllocated": 0,
    "totalMilesForORB": 0,
    "oldItinerary": {
      "currency": "AUD",
      "fareTotal": 1039.00,
      "taxTotal": 467.98,
      "costPaidByMiles": 25774,
      "costPaidByCash": 1254.77,
      "totalMilesForORB": 0
    },
    "totalToBePaidMiles": 0,
    "cashToBeRefunded": 1254.77,
    "milesToBeRefunded": 8401,
    "cancellationFeeCash": 170.00,
    "cancellationFeeMiles": 17373,
    "flight": [
      {
        "origin": "Sydney",
        "destination": "Singapore",
        "flightSegments": [
          {
            "carrierCode": "SQ",
            "airCraftType": "Boeing 777-300",
            "flightNumber": "212",
            "cabinClassDesc": "Economy(E)",
            "deparure": {
              "time": "07:55",
              "date": "03 Jul (Fri)",
              "airportCode": "SYD",
              "airportName": "Kingsford Smith",
              "cityCode": "SYD",
              "cityName": "Sydney",
              "terminal": "1"
            },
            "arrival": {
              "time": "14:15",
              "date": "03 Jul (Fri)",
              "airportCode": "SIN",
              "airportName": "Changi Intl",
              "cityCode": "SIN",
              "cityName": "Singapore"
            }
          },
          {
            "carrierCode": "SQ",
            "airCraftType": "Airbus Industrie A380-800",
            "flightNumber": "231",
            "cabinClassDesc": "Economy(E)",
            "deparure": {
              "time": "00:45",
              "date": "10 Jul (Fri)",
              "airportCode": "SIN",
              "airportName": "Changi Intl",
              "cityCode": "SIN",
              "cityName": "Singapore",
              "terminal": "3"
            },
            "arrival": {
              "time": "10:25",
              "date": "10 Jul (Fri)",
              "airportCode": "SYD",
              "airportName": "Kingsford Smith",
              "cityCode": "SYD",
              "cityName": "Sydney"
            }
          }
        ]
      }
    ],
    "paxDetails": [
      {
        "paxType": "Adult",
        "id": 2,
        "paxName": "Dr THREE TURBOTESTTHREE",
        "detailsPerFlight": [
          {
            "flightNo": "SQ212",
            "from": "SYD",
            "to": "SIN",
            "departureDate": "Fri Jul 03 07:55:00 IST 2015"
          },
          {
            "flightNo": "SQ231",
            "from": "SIN",
            "to": "SYD",
            "departureDate": "Fri Jul 10 00:45:00 IST 2015"
          }
        ]
      }
    ]
  }
}
