{
  "bookingSummary":
    {
      "locale": "en_UK",
      "scenario": "Cancel",
      "adultCount": 1,
      "childCount": 1,
      "infantCount": 0,
      "precision": 2,
      "currency": "SGD",
      "fareSubTotal": 0.00,
      "grandTotal": 0.00,
      "milesAllocated": 0,
      "totalMilesForORB": 0,
      "oldItinerary": {
        "currency": "SGD",
        "fareTotal": 1665.00,
        "taxTotal": 826.70,
        "totalMilesForORB": 0
      },
      "totalToBePaidMiles": 0,
      "cashToBeRefunded": 2085.70,
      "milesToBeRefunded": 0,
      "cancellationFeeCash": 406.00,
      "flight": [
        {
          "origin": "Singapore",
          "destination": "Sydney",
          "flightSegments": [
            {
              "carrierCode": "SQ",
              "airCraftType": "Airbus Industrie A380-800",
              "flightNumber": "231",
              "cabinClassDesc": "Economy(H)",
              "deparure": {
                "time": "00:45",
                "date": "19 Jun (Fri)",
                "airportCode": "SIN",
                "airportName": "Changi Intl",
                "cityCode": "SIN",
                "cityName": "Singapore",
                "terminal": "3"
              },
              "arrival": {
                "time": "10:25",
                "date": "19 Jun (Fri)",
                "airportCode": "SYD",
                "airportName": "Kingsford Smith",
                "cityCode": "SYD",
                "cityName": "Sydney"
              }
            }
          ]
        },
        {
          "origin": "Sydney",
          "destination": "Singapore",
          "flightSegments": [
            {
              "carrierCode": "SQ",
              "airCraftType": "Airbus Industrie A380-800",
              "flightNumber": "222",
              "cabinClassDesc": "Economy(H)",
              "deparure": {
                "time": "15:10",
                "date": "09 Jul (Thu)",
                "airportCode": "SYD",
                "airportName": "Kingsford Smith",
                "cityCode": "SYD",
                "cityName": "Sydney",
                "terminal": "1"
              },
              "arrival": {
                "time": "21:30",
                "date": "09 Jul (Thu)",
                "airportCode": "SIN",
                "airportName": "Changi Intl",
                "cityCode": "SIN",
                "cityName": "Singapore"
              }
            }
          ]
        }
      ],
      "paxDetails": [
        {
          "paxType": "Adult",
          "id": 1,
          "paxName": "Mr PILLAI",
          "detailsPerFlight": [
            {
              "flightNo": "SQ231",
              "from": "SIN",
              "to": "SYD",
              "departureDate": "Fri Jun 19 00:45:00 IST 2015"
            },
            {
              "flightNo": "SQ222",
              "from": "SYD",
              "to": "SIN",
              "departureDate": "Thu Jul 09 15:10:00 IST 2015"
            }
          ]
        },
        {
          "paxType": "Child",
          "id": 2,
          "paxName": "Mstr NEERAJ",
          "detailsPerFlight": [
            {
              "flightNo": "SQ231",
              "from": "SIN",
              "to": "SYD",
              "departureDate": "Fri Jun 19 00:45:00 IST 2015"
            },
            {
              "flightNo": "SQ222",
              "from": "SYD",
              "to": "SIN",
              "departureDate": "Thu Jul 09 15:10:00 IST 2015"
            }
          ]
        }
      ]
    }
}
