{
  "bookingSummary": {
    "locale": "en_UK",
    "adultCount": 1,
    "childCount": 0,
    "infantCount": 0,
    "precision": 2,
    "currency": "SGD",
    "taxTotal": 54.90,
    "surchargeTotal": 16.20,
    "fareSubTotal": 71.10,
    "grandTotal": 71.10,
    "milesAllocated": 0,
    "totalMilesForORB": 25500,
    "orbQSurchargeTotal": 0.00,
    "oldItinerary": {
      "currency": "SGD",
      "taxTotal": 59.60,
      "surchargeTotal": 97.40,
      "grandTotal": 157.00,
      "costPaidBymiles": 0,
      "totalMilesForORB": 12750
    },
    "rebookingFee": 17.00,
    "totalToBePaidMiles": 12750,
    "cashToBeRefunded": 59.90,
    "milesToBeRefunded": 0,
    "scenario": "ORC",
    "flight": [{
      "totalTravelTime": "3hrs 45mins",
      "origin": "Singapore",
      "destination": "Hong Kong",
      "flightSegments": [{
        "carrierCode": "SQ",
        "airCraftType": "Airbus A330-300",
        "flightNumber": "890",
        "cabinClassDesc": "Economy(X)",
        "deparure": {
          "time": "07:35",
          "date": "22 Aug (Sat)",
          "airportCode": "SIN",
          "airportName": "Changi Intl",
          "cityCode": "SIN",
          "cityName": "Singapore",
          "terminal": "3"
        },
        "arrival": {
          "time": "11:20",
          "date": "22 Aug (Sat)",
          "airportCode": "HKG",
          "airportName": "Hong Kong",
          "cityCode": "HKG",
          "cityName": "Hong Kong",
          "terminal": "1"
        }
      }]
    }, {
      "totalTravelTime": "3hrs 45mins",
      "origin": "Hong Kong",
      "destination": "Singapore",
      "flightSegments": [{
        "carrierCode": "SQ",
        "airCraftType": "Airbus A330-300",
        "flightNumber": "857",
        "cabinClassDesc": "Economy(X)",
        "deparure": {
          "time": "09:05",
          "date": "29 Aug (Sat)",
          "airportCode": "HKG",
          "airportName": "Hong Kong",
          "cityCode": "HKG",
          "cityName": "Hong Kong",
          "terminal": "1"
        },
        "arrival": {
          "time": "12:50",
          "date": "29 Aug (Sat)",
          "airportCode": "SIN",
          "airportName": "Changi Intl",
          "cityCode": "SIN",
          "cityName": "Singapore"
        }
      }]
    }],
    "waitListFlights": [],
    "paxDetails": [{
      "paxType": "Adult",
      "id": 2,
      "paxName": "THREE TESTA",
      "fareDetails": {
        "totalCost": 71.10,
        "totalMiles": 25500,
        "fareAmount": 0.00,
        "taxAmount": 54.90,
        "surchargeAmount": 16.20,
        "qSurchargeAmount": 0.00,
        "surcharge": [{
          "amount": 16.20,
          "code": "YQ",
          "description": "Airline Fuel and Insurance Surcharge"
        }],
        "taxes": [{
          "amount": 20.90,
          "code": "HK",
          "description": "Air Passenger Departure Tax"
        }, {
          "amount": 19.90,
          "code": "SG",
          "description": "Passenger Service and Security Charge"
        }, {
          "amount": 6.10,
          "code": "OP",
          "description": "Aviation Levy"
        }, {
          "amount": 8.00,
          "code": "OO",
          "description": "Passenger Security Service Charge"
        }],
        "orbQSurcharge": []
      },
      "detailsPerFlight": [{
        "flightNo": "SQ890",
        "from": "SIN",
        "to": "HKG",
        "departureDate": "Sat Aug 22 07:35:00 IST 2015"
      }, {
        "flightNo": "SQ857",
        "from": "HKG",
        "to": "SIN",
        "departureDate": "Sat Aug 29 09:05:00 IST 2015"
      }]
    }],
    "topUpMiles": {
      "currencyCode": "SGD",
      "totalAmount": 270.08,
      "additionalMiles": 5000,
      "notEnoughMiles": true
    }
  }
}
