{
  "bookingSummary": {
    "locale": "en_UK",
    "adultCount": 1,
    "childCount": 0,
    "infantCount": 0,
    "precision": 2,
    "currency": "MYR",
    "taxTotal": 68.90,
    "surchargeTotal": 129.00,
    "fareSubTotal": 197.90,
    "grandTotal": 197.90,
    "milesAllocated": 0,
    "totalMilesForORB": 6375,
    "orbQSurchargeTotal": 0.00,
    "oldItinerary": {
      "currency": "MYR",
      "taxTotal": 68.90,
      "surchargeTotal": 129.00,
      "grandTotal": 197.90,
      "costPaidBymiles": 0,
      "totalMilesForORB": 6375
    },
    "totalToBePaidMiles": 0,
    "milesToBeRefunded": 0,
    "scenario": "ORC",
    "flight": [{
      "totalTravelTime": "0hrs 55mins",
      "origin": "Kuala Lumpur",
      "destination": "Singapore",
      "flightSegments": [{
        "carrierCode": "MI",
        "airCraftType": "Boeing 737-800",
        "flightNumber": "321",
        "cabinClassDesc": "Economy(X)",
        "deparure": {
          "time": "08:55",
          "date": "24 Aug (Mon)",
          "airportCode": "KUL",
          "airportName": "Kuala Lumpur Intl",
          "cityCode": "KUL",
          "cityName": "Kuala Lumpur",
          "terminal": "M"
        },
        "arrival": {
          "time": "09:50",
          "date": "24 Aug (Mon)",
          "airportCode": "SIN",
          "airportName": "Changi Intl",
          "cityCode": "SIN",
          "cityName": "Singapore",
          "terminal": "2"
        }
      }]
    }],
    "waitListFlights": [],
    "paxDetails": [{
      "paxType": "Adult",
      "id": 2,
      "paxName": "TWO TESTA",
      "fareDetails": {
        "totalCost": 179.90,
        "totalMiles": 6375,
        "fareAmount": 0.00,
        "taxAmount": 68.90,
        "surchargeAmount": 111.00,
        "qSurchargeAmount": 0.00,
        "surcharge": [{
          "amount": 111.00,
          "code": "YQ",
          "description": "Airline Fuel and Insurance Surcharge"
        }],
        "taxes": [{
          "amount": 3.90,
          "code": "D8",
          "description": "Goods And Services Tax"
        }, {
          "amount": 65.00,
          "code": "MY",
          "description": "Passenger Service and Security Charge (Domestic/International)"
        }],
        "orbQSurcharge": []
      },
      "detailsPerFlight": [{
        "flightNo": "MI321",
        "from": "KUL",
        "to": "SIN",
        "departureDate": "Mon Aug 24 08:55:00 IST 2015"
      }]
    }]
  }
}
