{
	"locale": "en_UK",
	"excessBaggage": [
		{
			"id": 2,
			"paxName": " PILLAI",
			"paxType": "ADT",
			"segmentDetails": [
				{
					"flightNo": "SQ 317",
					"fromCityName": "London",
					"from": "LHR",
					"toCityName": "Singapore",
					"to": "SIN",
					"segmentID": 1,
					"eligible": "true",
					"baggageDetails": [
						{
							"baggageType": "free",
							"name": "30kg"
						},
						{
							"baggageType": "Additional weight",
							"name": "1 piece (15kg)"
						}
					]
				},
				{
					"flightNo": "SQ 318",
					"fromCityName": "Singapore",
					"from": "SIN",
					"toCityName": "London",
					"to": "LHR",
					"segmentID": 2,
					"eligible": "true",
					"baggageDetails": [
						{
							"baggageType": "free",
							"name": "30kg"
						}
					]
				},
				{
					"flightNo": "SQ 305",
					"fromCityName": "London",
					"from": "LHR",
					"toCityName": "Singapore",
					"to": "SIN",
					"segmentID": 3,
					"eligible": "true",
					"baggageDetails": [
						{
							"baggageType": "free",
							"name": "30kg"
						},
						{
							"baggageType": "Additional weight",
							"name": "1 piece (15kg)"
						}
					]
				},
				{
					"flightNo": "SQ 306",
					"fromCityName": "Singapore",
					"from": "SIN",
					"toCityName": "London",
					"to": "LHR",
					"segmentID": 4,
					"eligible": "true",
					"baggageDetails": [
						{
							"baggageType": "free",
							"name": "30kg"
						}
					]
				}
			]
		},
		{
			"id": 2,
			"paxName": " CPILLAI",
			"paxType": "INF",
			"segmentDetails": [
				{
					"flightNo": "SQ 317",
					"fromCityName": "London",
					"from": "LHR",
					"toCityName": "Singapore",
					"to": "SIN",
					"segmentID": 1,
					"eligible": "false",
					"baggageDetails": [
						{
							"baggageType": "free",
							"name": "10kg"
						}
					]
				},
				{
					"flightNo": "SQ 318",
					"fromCityName": "Singapore",
					"from": "SIN",
					"toCityName": "London",
					"to": "LHR",
					"segmentID": 2,
					"eligible": "false",
					"baggageDetails": [
						{
							"baggageType": "free",
							"name": "10kg"
						}
					]
				},
				{
					"flightNo": "SQ 305",
					"fromCityName": "London",
					"from": "LHR",
					"toCityName": "Singapore",
					"to": "SIN",
					"segmentID": 3,
					"eligible": "false",
					"baggageDetails": [
						{
							"baggageType": "free",
							"name": "10kg"
						}
					]
				},
				{
					"flightNo": "SQ 306",
					"fromCityName": "Singapore",
					"from": "SIN",
					"toCityName": "London",
					"to": "LHR",
					"segmentID": 4,
					"eligible": "false",
					"baggageDetails": [
						{
							"baggageType": "free",
							"name": "10kg"
						}
					]
				}
			]
		},
		{
			"id": 4,
			"paxName": " APILLAI",
			"paxType": "ADT",
			"segmentDetails": [
				{
					"flightNo": "SQ 317",
					"fromCityName": "London",
					"from": "LHR",
					"toCityName": "Singapore",
					"to": "SIN",
					"segmentID": 1,
					"eligible": "true",
					"baggageDetails": [
						{
							"baggageType": "free",
							"name": "30kg"
						},
						{
							"baggageType": "Additional weight",
							"name": "1 piece (25kg)"
						}
					]
				},
				{
					"flightNo": "SQ 318",
					"fromCityName": "Singapore",
					"from": "SIN",
					"toCityName": "London",
					"to": "LHR",
					"segmentID": 2,
					"eligible": "true",
					"baggageDetails": [
						{
							"baggageType": "free",
							"name": "30kg"
						}
					]
				},
				{
					"flightNo": "SQ 305",
					"fromCityName": "London",
					"from": "LHR",
					"toCityName": "Singapore",
					"to": "SIN",
					"segmentID": 3,
					"eligible": "true",
					"baggageDetails": [
						{
							"baggageType": "free",
							"name": "30kg"
						},
						{
							"baggageType": "Additional weight",
							"name": "1 piece (30kg)"
						}
					]
				},
				{
					"flightNo": "SQ 306",
					"fromCityName": "Singapore",
					"from": "SIN",
					"toCityName": "London",
					"to": "LHR",
					"segmentID": 4,
					"eligible": "true",
					"baggageDetails": [
						{
							"baggageType": "free",
							"name": "30kg"
						},
						{
							"baggageType": "Additional weight",
							"name": "1 piece (35kg)"
						}
					]
				}
			]
		},
		{
			"id": 5,
			"paxName": " BPILLAI",
			"paxType": "CHD",
			"segmentDetails": [
				{
					"flightNo": "SQ 317",
					"fromCityName": "London",
					"from": "LHR",
					"toCityName": "Singapore",
					"to": "SIN",
					"segmentID": 1,
					"eligible": "true",
					"baggageDetails": [
						{
							"baggageType": "free",
							"name": "30kg"
						},
						{
							"baggageType": "Additional weight",
							"name": "1 piece (20kg)"
						}
					]
				},
				{
					"flightNo": "SQ 318",
					"fromCityName": "Singapore",
					"from": "SIN",
					"toCityName": "London",
					"to": "LHR",
					"segmentID": 2,
					"eligible": "true",
					"baggageDetails": [
						{
							"baggageType": "free",
							"name": "30kg"
						}
					]
				},
				{
					"flightNo": "SQ 305",
					"fromCityName": "London",
					"from": "LHR",
					"toCityName": "Singapore",
					"to": "SIN",
					"segmentID": 3,
					"eligible": "true",
					"baggageDetails": [
						{
							"baggageType": "free",
							"name": "30kg"
						},
						{
							"baggageType": "Additional weight",
							"name": "1 piece (35kg)"
						}
					]
				},
				{
					"flightNo": "SQ 306",
					"fromCityName": "Singapore",
					"from": "SIN",
					"toCityName": "London",
					"to": "LHR",
					"segmentID": 4,
					"eligible": "true",
					"baggageDetails": [
						{
							"baggageType": "free",
							"name": "30kg"
						}
					]
				}
			]
		}
	]
}
