{
  "code": "200",
  "status": "SUCCESS",
  "response": {
    "additionalDetails": {
      "comments": "test1",
      "dropOffService": "",
      "pickUpService": ""
    },
    "bookingId": "293625439",
    "driverDetails": {
      "address": {
        "city": "London",
        "country": "UK",
        "postcode": "L1 2AB",
        "street": "Street name"
      },
      "emailID": "example@exampleemail.com",
      "fax": "",
      "firstname": "tester",
      "lastname": "test",
      "telephone": " 44 (0)20 123 1234",
      "title": "Mr"
    },
    "dropOff": {
      "dateAndTime": "2017-12-17T14:15",
      "locationDetails": {
        "address": "Unit 3/4 Ringway Industrial Estate, Manchester, UK, M22 5LH",
        "city": "Manchester",
        "country": "UK",
        "locationName": "Manchester Airport",
        "onAirport": "false",
        "telephone": "+441614997038"
      },
      "locationID": "538458"
    },
    "pickUp": {
      "dateAndTime": "2017-12-15T12:20",
      "locationDetails": {
        "address": "Unit 3/4 Ringway Industrial Estate, Manchester, UK, M22 5LH",
        "city": "Manchester",
        "country": "UK",
        "locationName": "Manchester Airport",
        "onAirport": "false",
        "telephone": "+441614997038"
      },
      "locationID": "538458"
    },
    "price": {
      "amount": "113.13",
      "currencyCode": "SGD"
    },
    "recordLocator": "",
    "statusCode": "2",
    "statusMsg": "car not yet confirmed",
    "vehicleDetails": {
      "airbag": "false",
      "aircon": "Yes",
      "automatic": "Manual",
      "bigSuitcase": "0",
      "carDetails": {
        "code": "C",
        "description": "2 OR 4 DOORS"
      },
      "carSize": {
        "code": "E",
        "description": "ECONOMY"
      },
      "doors": "2/4",
      "freeCancellation": "true",
      "fuelPolicy": {
        "code": "1",
        "description": "Full to Full (return same)"
      },
      "imageURL": "https://cdn.rcstatic.com/images/car_images/new_images/mazda/cx_5_lrg.jpg",
      "petrol": "N/A",
      "seats": "5",
      "unlimitedMileage": "false",
      "vehicleID": "485411013",
      "vehicleName": "Ford Fiesta"
    }
  }
}
