{
  "fareFamilyCondition": [
    {
      "type": "ChangeBooking",
      "isAllowed": true,
      "description": "Booking change (USD 50)"
    },
    {
      "type": "EarnMiles",
      "isAllowed": true,
      "description": "Earn KrisFlyer miles (50%)"
    },
    {
      "type": "CancelAndRefund",
      "isAllowed": false,
      "description": "Refund/Cancellation"
    },
    {
      "type": "Upgrade",
      "isAllowed": true,
      "description": "Upgrade with KrisFlyer miles on flights operated by Singapore Airlines, SilkAir and selected Star Alliance airlines (see the KrisFlyer <a href=\"cib-blank-page.html\">terms and conditions</a>)"
    }
  ],
  "fareAvailablityVO": {
    "messages": {
      "O0FF21SIN": " ",
      "O0FF31SIN": " ",
      "O0FF41SIN": " ",
      "O1FF21SIN": " ",
      "O1FF31SIN": " ",
      "O1FF41SIN": " ",
      "O2FF21SIN": " ",
      "O2FF31SIN": " ",
      "O2FF41SIN": " ",
      "O3FF21SIN": " ",
      "O3FF31SIN": " ",
      "O3FF41SIN": " ",
      "O4FF21SIN": "A few seats left",
      "O4FF31SIN": "A few seats left",
      "O5FF21SIN": "A few seats left",
      "O5FF31SIN": "A few seats left",
      "O6FF21SIN": "A few seats left",
      "O6FF31SIN": "A few seats left",
      "O6FF41SIN": "A few seats left",
      "O7FF21SIN": "A few seats left",
      "O7FF31SIN": "A few seats left",
      "O7FF41SIN": "A few seats left",
      "O8FF21SIN": "A few seats left",
      "O9FF21SIN": "A few seats left",
      "R0FF31SIN": " ",
      "R0FF41SIN": " ",
      "R1FF31SIN": " ",
      "R1FF41SIN": " ",
      "R2FF41SIN": "A few seats left",
      "R3FF41SIN": "A few seats left",
      "R4FF41SIN": "A few seats left",
      "R5FF31SIN": " ",
      "R5FF41SIN": " ",
      "R6FF41SIN": "A few seats left",
      "R7FF41SIN": "A few seats left"
    },
    "dafaults": [
      "O0FF21SIN",
      "R0FF41SIN"
    ],
    "packageVO": {
      "type": "CIB",
      "currencyCode": "SGD",
      "fare": 1000.00,
      "tax": 500.00,
      "surcharge": 250.00,
      "total": 1750.00
    }
  },
  "bookingSummary": {
    "locale": "en_UK",
    "adultCount": 1,
    "childCount": 0,
    "infantCount": 0,
    "precision": 2,
    "currency": "SGD",
    "fareTotal": 459,
    "taxTotal": 72.3,
    "surchargeTotal": 0,
    "creditCardSurcharge": 0,
    "totalCCSurchargeAmount": 0,
    "creditCardSurEnabled": "true",
    "fareSubTotal": 531.3,
    "grandTotal": 5402.48,
    "costPayableByCash": 5402.48,
    "costPayableByMiles": 0,
    "milesAllocated": 0,
    "totalMilesForORB": 0,
    "addonSubTotal": 4871.18,
    "orbQSurchargeTotal": 0,
    "rebookingFee": 0,
    "totalToBePaidCash": 0,
    "totalToBePaidMiles": 0,
    "cashToBeRefunded": 0,
    "milesToBeRefunded": 0,
    "expiredMilesCancel": 0,
    "nonRefundableExpiredMiles": 0,
    "creditCardNumber": 0,
    "noShowFee": 0,
    "flight": [
      {
        "totalTravelTime": "3hrs 45mins",
        "origin": "Singapore",
        "destination": "Hong Kong",
        "originAirportCode": "SIN",
        "destinationAirportCode": "HKG",
        "flightSegments": [
          {
            "carrierCode": "SQ",
            "operatingCarrier": "NA",
            "carrierName": "Singapore Airlines",
            "airCraftType": "Boeing 777-200",
            "flightNumber": "872",
            "cabinClassDesc": "Economy (N)",
            "deparure": {
              "time": "15:05",
              "date": "20 Apr (Thu)",
              "airportCode": "SIN",
              "airportName": "Changi Intl",
              "cityCode": "SIN",
              "cityName": "Singapore",
              "terminal": "3"
            },
            "arrival": {
              "time": "18:50",
              "date": "20 Apr (Thu)",
              "airportCode": "HKG",
              "airportName": "Hong Kong",
              "cityCode": "HKG",
              "cityName": "Hong Kong",
              "terminal": "1"
            },
            "aircraftTypeCode": "772"
          }
        ],
        "isMixedCabinClass": false
      },
      {
        "totalTravelTime": "3hrs 50mins",
        "origin": "Hong Kong",
        "destination": "Singapore",
        "originAirportCode": "HKG",
        "destinationAirportCode": "SIN",
        "flightSegments": [
          {
            "carrierCode": "SQ",
            "operatingCarrier": "NA",
            "carrierName": "Singapore Airlines",
            "airCraftType": "Boeing 777-300ER",
            "flightNumber": "1",
            "cabinClassDesc": "Economy (N)",
            "deparure": {
              "time": "08:00",
              "date": "28 Apr (Fri)",
              "airportCode": "HKG",
              "airportName": "Hong Kong",
              "cityCode": "HKG",
              "cityName": "Hong Kong",
              "terminal": "1"
            },
            "arrival": {
              "time": "11:50",
              "date": "28 Apr (Fri)",
              "airportCode": "SIN",
              "airportName": "Changi Intl",
              "cityCode": "SIN",
              "cityName": "Singapore",
              "terminal": ""
            },
            "aircraftTypeCode": "77W"
          }
        ],
        "isMixedCabinClass": false
      }
    ],
    "paxDetails": [
      {
        "paxType": "Adult",
        "id": 1,
        "paxName": "Mr TESTA TESTV",
        "paxCategory": "Non-Nominee",
        "fareDetails": {
          "totalCost": 531.3,
          "totalMiles": 0,
          "fareAmount": 459,
          "taxAmount": 72.3,
          "surchargeAmount": 0,
          "qSurchargeAmount": 0,
          "othersAmount": 0,
          "taxes": [
            {
              "amount": 16.4,
              "code": "G3",
              "description": "Airport Construction Fee"
            },
            {
              "amount": 21.9,
              "code": "HK",
              "description": "Air Passenger Departure Tax"
            },
            {
              "amount": 19.9,
              "code": "SG",
              "description": "Passenger Service and Security Charge"
            },
            {
              "amount": 6.1,
              "code": "OP",
              "description": "Aviation Levy"
            },
            {
              "amount": 8,
              "code": "OO",
              "description": "Passenger Security Service Charge"
            }
          ]
        },
        "detailsPerFlight": [
          {
            "flightNo": "SQ872",
            "from": "SIN",
            "to": "HKG",
            "departureDate": "Thu Apr 20 15:05:00 SGT 2017",
            "id": "0",
            "addonPerPax": [
              {
                "type": "Preferred Seat",
                "description": "45C",
                "category": "Chargeable",
                "amount": 70.57,
                "numFreeBaggagePieces": 0,
                "fbFfpPieceWeight": 0,
                "fbFfpNumOfPieces": 0,
                "numberOfPieces": 0
              }
            ],
            "originAirportCode": "SIN",
            "destinationAirportCode": "HKG"
          },
          {
            "flightNo": "SQ1",
            "from": "HKG",
            "to": "SIN",
            "departureDate": "Fri Apr 28 08:00:00 SGT 2017",
            "id": "0",
            "addonPerPax": [
              {
                "type": "Preferred Seat",
                "description": "44B",
                "category": "Chargeable",
                "amount": 70.57,
                "numFreeBaggagePieces": 0,
                "fbFfpPieceWeight": 0,
                "fbFfpNumOfPieces": 0,
                "numberOfPieces": 0
              }
            ],
            "originAirportCode": "HKG",
            "destinationAirportCode": "SIN"
          }
        ]
      }
    ],
    "commonAddons": [
      {
        "type": "Travel Insurance",
        "description": "From 20 Apr (Thu) To 28 Apr (Fri)",
        "category": "Chargeable",
        "amount": 45,
        "numFreeBaggagePieces": 0,
        "fbFfpPieceWeight": 0,
        "fbFfpNumOfPieces": 0,
        "numberOfPieces": 0
      },
      {
        "type": "Hotel",
        "description": "( 20 Apr 2017 to 28 Apr 2017 )",
        "category": "Chargeable",
        "amount": 4685.04,
        "numFreeBaggagePieces": 0,
        "fbFfpPieceWeight": 0,
        "fbFfpNumOfPieces": 0,
        "numberOfPieces": 0,
        "rooms": [
          {
            "roomCount": 1,
            "roomType": "Deluxe Peak View",
            "totalRatePerRoom": 585.63,
            "pricePerRoom": 585.63,
            "numberOfNights": 8
          }
        ],
        "taxAndSurcharge": 0
      },
      {
        "type": "Car Rental",
        "description": "( 20 Apr 2017 to 28 Apr 2017 )",
        "category": "Chargeable",
        "amount": 500.04,
        "numFreeBaggagePieces": 0,
        "fbFfpPieceWeight": 0,
        "fbFfpNumOfPieces": 0,
        "numberOfPieces": 0
      }
    ],
    "cancellationFeeCash": 0,
    "cancellationFeeMiles": 0,
    "othersTotal": 0
  },
  "upgrade": [],
  "pwmMessage": [
    {
      "O0FF21SIN": "<strong>You're waitlisted for this flight.</strong> For your convenience, you may also select an alternative, available flight.<br>Many of these flights are also available for immediate confirmation at great fares, starting from just 3,000 KrisFlyer miles plus SGD X,XXX.",
      "R0FF31SIN": "<strong>You're waitlisted for this flight.</strong> For your convenience, you may also select an alternative, available flight.<br>Many of these flights are also available for immediate confirmation at great fares, starting from just 3,000 KrisFlyer miles plus SGD X,XXX."
    }
  ],
  "tttVO": {
    "tttEligible": true,
    "tttFare" : 25.00,
    "tttCurrency" : "SGD",
    "tttExpiry": "Fri Nov 18 09:10:00 SGT 2016"
  }
}
