{
  "flight": "1",
  "results" : [
    {
      "stops": [
        {
          "flightName": "FLIGHT SQ 2",
          "aircraftType": "Boeing 777-300ER",
          "flyingTime": "18hrs 50mins",
          "flightClass": "Economy",
          "from": {
            "country": "SIN",
            "time": "18:30",
            "date": "14 Feb (Sat)",
            "port": "Changi Int’l"
          },
          "to": {
            "country": "HKG",
            "time": "22:15",
            "date": "14 Feb (Sat)",
            "port": "Hong Kong Int’l"
          },
          "totalTime": "Layover time: 1hr 25mins"
        },
        {
          "from": {
            "country": "HKG",
            "time": "23:40",
            "date": "14 Feb (Sat)",
            "port": "Hong Kong Int’l"
          },
          "to": {
            "country": "SFO",
            "time": "22:55",
            "date": "14 Feb (Sat)",
            "port": "San Francisco Int’l"
          },
          "totalTime": "Total travel time: 17hrs 25mins"
        }
      ],
      "packages": [
        {
          "price": "2,525",
          "taxes": "291",
          "carrier": "1,509",
          "flightClass": "Economy"
        },
        {
          "price": "2,725",
          "taxes": "291",
          "carrier": "1,509",
          "flightClass": "Economy",
          "fewLeft": true
        },
        {
          "price": "2,905",
          "taxes": "291",
          "carrier": "1,509",
          "flightClass": "Economy"
        },
        {
          "price": "2,906",
          "taxes": "291",
          "carrier": "1,509",
          "flightClass": "Economy"
        },
        {
          "price": "3,486",
          "taxes": "291",
          "carrier": "1,509",
          "flightClass": "Premium Economy"
        }
      ]
    },
    {
      "stops": [
        {
          "flightName": "FLIGHT SQ 16",
          "aircraftType": "Boeing 757-300ER",
          "flyingTime": "1hrs 50mins",
          "flightClass": "Premium Economy",
          "from": {
            "country": "SIN",
            "time": "09:25",
            "date": "14 Feb (Sat)",
            "port": "Changi Int’l"
          },
          "to": {
            "country": "ICN",
            "time": "16:40",
            "date": "14 Feb (Sat)",
            "port": "Incheon Int’l"
          },
          "totalTime": "Layover time: 1hr 5mins"
        },
        {
          "from": {
            "country": "ICN",
            "time": "17:45",
            "date": "14 Feb (Sat)",
            "port": "Incheon Int’l"
          },
          "to": {
            "country": "SFO",
            "time": "12:10",
            "date": "14 Feb (Sat)",
            "port": "San Francisco Int’l"
          },
          "totalTime": "Total travel time: 17hrs 25mins"
        }
      ],
      "packages": [
        {
          "price": "2,524",
          "taxes": "291",
          "carrier": "1,509",
          "flightClass": "Economy"
        },
        {
          "price": "2,725",
          "taxes": "291",
          "carrier": "1,509",
          "flightClass": "Economy"
        },
        {
          "price": "2,905",
          "taxes": "291",
          "carrier": "1,509",
          "flightClass": "Economy"
        },
        {
          "price": "2,906",
          "taxes": "291",
          "carrier": "1,509",
          "flightClass": "Economy"
        },
        {
          "price": "3,486",
          "taxes": "291",
          "carrier": "1,509",
          "flightClass": "Premium Economy"
        }
      ]
    },
    {
      "stops": [
        {
          "flightName": "FLIGHT SQ 16",
          "aircraftType": "Boeing 747-300ER",
          "flyingTime": "8hrs 50mins",
          "flightClass": "Economy",
          "from": {
            "country": "SIN",
            "time": "09:25",
            "date": "14 Feb (Sat)",
            "port": "Changi Int’l"
          },
          "to": {
            "country": "ICN",
            "time": "16:40",
            "date": "14 Feb (Sat)",
            "port": "Incheon Int’l"
          },
          "totalTime": "Layover time: 1hr 5mins",
          "operatedBy": "SilkAir"
        },
        {
          "flightName": "FLIGHT SQ 12",
          "aircraftType": "Boeing 777-300ER",
          "flyingTime": "18hrs 50mins",
          "flightClass": "Economy",
          "from": {
            "country": "ICN",
            "time": "17:45",
            "date": "14 Feb (Sat)",
            "port": "Incheon Int’l"
          },
          "to": {
            "country": "SFO",
            "time": "12:10",
            "date": "14 Feb (Sat)",
            "port": "San Francisco Int’l"
          },
          "totalTime": "Total travel time: 17hrs 25mins"
        }
      ],
      "packages": [
        {
          "price": "2,528",
          "taxes": "291",
          "carrier": "1,509",
          "flightClass": "Economy"
        },
        {
          "price": "2,725",
          "taxes": "291",
          "carrier": "1,509",
          "flightClass": "Economy"
        },
        {
          "price": "2,905",
          "taxes": "291",
          "carrier": "1,509",
          "flightClass": "Economy"
        },
        {
          "price": "2,906",
          "taxes": "291",
          "carrier": "1,509",
          "flightClass": "Economy"
        },
        {
          "price": "3,486",
          "taxes": "291",
          "carrier": "1,509",
          "flightClass": "Premium Economy"
        }
      ]
    },
    {
      "stops": [
        {
          "flightName": "FLIGHT SQ 12",
          "aircraftType": "Boeing 77-300ER",
          "flyingTime": "16hrs 50mins",
          "flightClass": "Economy",
          "from": {
            "country": "SIN",
            "time": "09:20",
            "date": "14 Feb (Sat)",
            "port": "Changi Int’l"
          },
          "to": {
            "country": "ICN",
            "time": "17:05",
            "date": "14 Feb (Sat)",
            "port": "Narita Int’l"
          },
          "totalTime": "Layover time: 1hr 5mins"
        },
        {
          "from": {
            "country": "ICN",
            "time": "18:50",
            "date": "14 Feb (Sat)",
            "port": "Narita Int’l"
          },
          "to": {
            "country": "LAX",
            "time": "11:50",
            "date": "14 Feb (Sat)",
            "port": "Los Angeles Int’l"
          },
          "totalTime": "Total travel time: 17hrs 45mins"
        },
        {
          "flightName": "FLIGHT SQ 16",
          "aircraftType": "Boeing 777-300ER",
          "flyingTime": "18hrs 50mins",
          "flightClass": "Economy",
          "from": {
            "country": "SIN",
            "time": "09:25",
            "date": "14 Feb (Sat)",
            "port": "Changi Int’l"
          },
          "to": {
            "country": "ICN",
            "time": "16:40",
            "date": "14 Feb (Sat)",
            "port": "Incheon Int’l"
          },
          "totalTime": "Layover time: 1hr 5mins",
          "operatedBy": "Virgin America"
        }
      ],
      "packages": [
        {
          "price": false
        },
        {
          "price": false
        },
        {
          "price": false
        },
        {
          "price": false
        },
        {
          "price": false
        }
      ]
    },
    {
      "stops": [
        {
          "flightName": "FLIGHT SQ 2",
          "aircraftType": "Boeing 777-300ER",
          "flyingTime": "18hrs 50mins",
          "flightClass": "Economy",
          "from": {
            "country": "SIN",
            "time": "18:30",
            "date": "14 Feb (Sat)",
            "port": "Changi Int’l"
          },
          "to": {
            "country": "HKG",
            "time": "22:15",
            "date": "14 Feb (Sat)",
            "port": "Hong Kong Int’l"
          },
          "totalTime": "Layover time: 1hr 25mins"
        },
        {
          "from": {
            "country": "HKG",
            "time": "23:40",
            "date": "14 Feb (Sat)",
            "port": "Hong Kong Int’l"
          },
          "to": {
            "country": "SFO",
            "time": "22:55",
            "date": "14 Feb (Sat)",
            "port": "San Francisco Int’l"
          },
          "totalTime": "Total travel time: 17hrs 25mins"
        },
        {
          "from": {
            "country": "HKG",
            "time": "23:40",
            "date": "14 Feb (Sat)",
            "port": "Hong Kong Int’l"
          },
          "to": {
            "country": "SFO",
            "time": "22:55",
            "date": "14 Feb (Sat)",
            "port": "San Francisco Int’l"
          },
          "totalTime": "Total travel time: 17hrs 25mins"
        }
      ],
      "packages": [
        {
          "price": "2,520",
          "taxes": "291",
          "carrier": "1,509",
          "flightClass": "Economy"
        },
        {
          "price": "2,725",
          "taxes": "291",
          "carrier": "1,509",
          "flightClass": "Economy",
          "fewLeft": true
        },
        {
          "price": "2,905",
          "taxes": "291",
          "carrier": "1,509",
          "flightClass": "Economy"
        },
        {
          "price": "2,906",
          "taxes": "291",
          "carrier": "1,509",
          "flightClass": "Economy"
        },
        {
          "price": "3,486",
          "taxes": "291",
          "carrier": "1,509",
          "flightClass": "Premium Economy"
        }
      ]
    },
    {
      "stops": [
        {
          "flightName": "FLIGHT SQ 16",
          "aircraftType": "Boeing 777-300ER",
          "flyingTime": "18hrs 50mins",
          "flightClass": "Premium Economy",
          "from": {
            "country": "SIN",
            "time": "09:25",
            "date": "14 Feb (Sat)",
            "port": "Changi Int’l"
          },
          "to": {
            "country": "ICN",
            "time": "16:40",
            "date": "14 Feb (Sat)",
            "port": "Incheon Int’l"
          },
          "totalTime": "Layover time: 1hr 5mins"
        },
        {
          "from": {
            "country": "ICN",
            "time": "17:45",
            "date": "14 Feb (Sat)",
            "port": "Incheon Int’l"
          },
          "to": {
            "country": "SFO",
            "time": "12:10",
            "date": "14 Feb (Sat)",
            "port": "San Francisco Int’l"
          },
          "totalTime": "Total travel time: 17hrs 25mins"
        }
      ],
      "packages": [
        {
          "price": "2,525",
          "taxes": "291",
          "carrier": "1,509",
          "flightClass": "Economy"
        },
        {
          "price": "2,725",
          "taxes": "291",
          "carrier": "1,509",
          "flightClass": "Economy"
        },
        {
          "price": "2,905",
          "taxes": "291",
          "carrier": "1,509",
          "flightClass": "Economy"
        },
        {
          "price": "2,906",
          "taxes": "291",
          "carrier": "1,509",
          "flightClass": "Economy"
        },
        {
          "price": "3,486",
          "taxes": "291",
          "carrier": "1,509",
          "flightClass": "Premium Economy"
        }
      ]
    },
    {
      "stops": [
        {
          "flightName": "FLIGHT SQ 16",
          "aircraftType": "Boeing 777-300ER",
          "flyingTime": "18hrs 50mins",
          "flightClass": "Economy",
          "from": {
            "country": "SIN",
            "time": "09:25",
            "date": "14 Feb (Sat)",
            "port": "Changi Int’l"
          },
          "to": {
            "country": "ICN",
            "time": "16:40",
            "date": "14 Feb (Sat)",
            "port": "Incheon Int’l"
          },
          "totalTime": "Layover time: 1hr 5mins",
          "operatedBy": "SilkAir"
        },
        {
          "flightName": "FLIGHT SQ 12",
          "aircraftType": "Boeing 777-300ER",
          "flyingTime": "18hrs 50mins",
          "flightClass": "Economy",
          "from": {
            "country": "ICN",
            "time": "17:45",
            "date": "14 Feb (Sat)",
            "port": "Incheon Int’l"
          },
          "to": {
            "country": "SFO",
            "time": "12:10",
            "date": "14 Feb (Sat)",
            "port": "San Francisco Int’l"
          },
          "totalTime": "Total travel time: 17hrs 25mins"
        }
      ],
      "packages": [
        {
          "price": "2,525",
          "taxes": "291",
          "carrier": "1,509",
          "flightClass": "Economy"
        },
        {
          "price": "2,725",
          "taxes": "291",
          "carrier": "1,509",
          "flightClass": "Economy"
        },
        {
          "price": "2,905",
          "taxes": "291",
          "carrier": "1,509",
          "flightClass": "Economy"
        },
        {
          "price": "2,906",
          "taxes": "291",
          "carrier": "1,509",
          "flightClass": "Economy"
        },
        {
          "price": "3,486",
          "taxes": "291",
          "carrier": "1,509",
          "flightClass": "Premium Economy"
        }
      ]
    },
    {
      "stops": [
        {
          "flightName": "FLIGHT SQ 12",
          "aircraftType": "Boeing 777-300ER",
          "flyingTime": "18hrs 50mins",
          "flightClass": "Economy",
          "from": {
            "country": "SIN",
            "time": "09:20",
            "date": "14 Feb (Sat)",
            "port": "Changi Int’l"
          },
          "to": {
            "country": "ICN",
            "time": "17:05",
            "date": "14 Feb (Sat)",
            "port": "Narita Int’l"
          },
          "totalTime": "Layover time: 1hr 5mins"
        },
        {
          "from": {
            "country": "ICN",
            "time": "18:50",
            "date": "14 Feb (Sat)",
            "port": "Narita Int’l"
          },
          "to": {
            "country": "LAX",
            "time": "11:50",
            "date": "14 Feb (Sat)",
            "port": "Los Angeles Int’l"
          },
          "totalTime": "Total travel time: 17hrs 45mins"
        },
        {
          "flightName": "FLIGHT SQ 16",
          "aircraftType": "Boeing 777-300ER",
          "flyingTime": "18hrs 50mins",
          "flightClass": "Economy",
          "from": {
            "country": "SIN",
            "time": "09:25",
            "date": "14 Feb (Sat)",
            "port": "Changi Int’l"
          },
          "to": {
            "country": "ICN",
            "time": "16:40",
            "date": "14 Feb (Sat)",
            "port": "Incheon Int’l"
          },
          "totalTime": "Layover time: 1hr 5mins",
          "operatedBy": "Virgin America"
        }
      ],
      "packages": [
        {
          "price": false
        },
        {
          "price": false
        },
        {
          "price": false
        },
        {
          "price": false
        },
        {
          "price": false
        }
      ]
    }
  ]
}
