{
  "upgrade": {
    "flight": 2,
    "image": "images/upgrade-2.jpg",
    "title": "Upgrade to Business Class",
    "price": "2,000",
    "desc": "Seoul to San Francisco – 14 Feb 2015 (Sat)",
    "details": [
      "Widest seat in its class",
      "Widest seat in its class",
      "Book The Cook"
    ]
  }
}