{
  "location": [
    {
      "country": {
        "name": "Singapore",
        "value": "Singapore",
        "text": "Singapore"
      },
      "cities": [
        {
          "name": "Singapore, Singapore (Singapore - SIN)",
          "value": "SIN",
          "text": "Singapore - SIN"
        }
      ]
    },
    {
      "country": {
        "name": "Vietnam",
        "value": "Vietnam",
        "text": "Vietnam"
      },
      "cities": [
        {
          "name": "Da Nang, Vietnam (Da Nang - DAD)",
          "value": "DAD",
          "text": "Da Nang - DAD"
        },
        {
          "name": "Hanoi, Vietnam (Hanoi - HAN)",
          "value": "HAN",
          "text": "Hanoi - HAN"
        },
        {
          "name": "Ho Chi Minh City, Vietnam (Ho Chi Minh City - SGN)",
          "value": "SGN",
          "text": "Ho Chi Minh City - SGN"
        }
      ]
    },
    {
      "country": {
        "name": "Japan",
        "value": "Japan",
        "text": "Japan"
      },
      "cities": [
        {
          "name": "Fukuoka, Japan (Fukuoka - FUK)",
          "value": "FUK",
          "text": "Fukuoka - FUK"
        },
        {
          "name": "Komatsu, Japan (Komatsu - KMQ)",
          "value": "KMQ",
          "text": "Komatsu - KMQ"
        }
      ]
    }
  ]
}