{
	"KFRedemptionVoucherJsonVO": {
	  "firstname": "John",
	  "lastname": "Tan",
	  "requestId": "KF000001234",
	  "partnerAirlines": "Tiger",
	  "downLoadLink": "/downLoadVoucherReceipt.form",
	  "totalMilesRedeemed": "14,000",
	  "partnerAirlinesLink": "www.tigerair.com",
	  "summarymessage": "SUCCESS",
	  "voucherReceiptInfoLst": [
	    {
	      "SGDvalue": "50",
	      "count": "1",
	      "number": "1400054637634236",
	      "expiryDate": "25/02/2018",
	      "milesRedeemed": "5000"
	    },
	    {
	      "SGDvalue": "30",
	      "count": "2",
	      "number": "1400054637fghfg6",
	      "expiryDate": "25/02/2018",
	      "milesRedeemed": "6000"
	    },
	    {
	      "SGDvalue": "20",
	      "count": "1",
	      "number": "1400054637634236",
	      "expiryDate": "25/02/2018",
	      "milesRedeemed": "3000"
	    }
	  ]
	}
}