{
  "textNote":"Schedules show the local time at each airport.",
  "depart":"Singapore",
  "destination":"San Francisco",
  "time":"Wed 15 Oct 2014",
  "heading":{
    "flight":"Flight information",
    "scheduled":"Scheduled",
    "estimated":"Estimated",
    "actual":"Actual",
    "status":"Status"
  },
  "results":[
    {
      "flightNumber":"SQ 2",
      "flight":[
        {
          "departs":[
            {
              "flightNumber":"SQ 2",
              "place":"Singapore",
              "trip":"One Way",
              "terminal":"Not available",
              "scheduled":{
                "time":"18:30",
                "date":"15 Oct (Wed)"
              },
              "actual":{
                "time":"18:24",
                "date":"15 Oct (Wed)"
              },
              "status":{
                "arrived":"Departed"
              }
            },
            {
              "flightNumber":"SQ 2",
              "place":"Hong Kong",
              "trip":"One Way",
              "terminal":"Terminal 1",
              "scheduled":{
                "time":"23:30",
                "date":"15 Oct (Wed)"
              },
              "actual":{
                "time":"23:32",
                "date":"15 Oct (Wed)"
              },
              "status":{
                "arrived":"Departed"
              }
            }
          ],
          "arrives":[
            {
              "place":"Hong Kong",
              "trip":"One Way",
              "terminal":"Terminal 1",
              "scheduled":{
                "time":"22:15",
                "date":"15 Oct (Wed)"
              },
              "estimated":{
                "time":"22:05",
                "date":"15 Oct (Wed)"
              },
              "actual":{
                "time":"22:15",
                "date":"15 Oct (Wed)"
              }
            },
            {
              "place":"San Francisco",
              "trip":"One Way",
              "terminal":"Terminal 1",
              "scheduled":{
                "time":"21:20",
                "date":"15 Oct (Wed)"
              },
              "estimated":{
                "time":"21:23",
                "date":"15 Oct (Wed)"
              },
              "actual":{

              }
            }
          ]
        }
      ]
    }
  ]
}
