{
	"referenceNumber": "EE172X",
	"aircraft": "Boeing A330-300",
	"ticketStatus": 2,
	"lastName": "Paxname",
	"checkinMessage": "Check in online within 48 hours of your flight",
	"btnLabel": "Check-in",
	"from": {
		"date" : "22 Feb (Sun)",
		"time" : "00:55",
		"airport" : "Changi Int'l"
	},
	"to": {
		"date" : "22 Feb (Sun)",
		"time" : "21:55",
		"airport" : "Kuala Lumpur Intl'l"
	}
}