[
  {
    "referenceNumber": "EE172X",
    "flightNumber": "SQ 2",
    "url": "ajax/sqc-booking-upcoming-flight-01.json",
    "departureDate": "21 Feb 2015",
    "from": {
      "name": "San Francisco",
      "code": "SFO"
    },
    "to": {
      "name": "Singapore",
      "code": "SIN"
    },
    "delay": "This flight has been delayed, and is scheduled to depart at 07:45.",
    "passengers": ["Peter Lim", "Dennis Wong", "David Lee", "Simon Yao", "Eve Tan", "Jasmine Sim", "Thomas Tan", "Fiona Ong", "Prentice Porter"]
  },
  {
    "referenceNumber": "EE206X",
    "flightNumber": "SQ 16",
    "url": "ajax/sqc-booking-upcoming-flight-02.json",
    "departureDate": "23 Feb 2015",
    "from": {
      "name": "San Francisco",
      "code": "SFO"
    },
    "to": {
      "name": "Singapore",
      "code": "SIN"
    },
    "passengers": ["Simon Yao", "Eve Tan", "Jasmine Sim", "Thomas Tan", "Fiona Ong", "Prentice Porter"]
  },
  {
    "referenceNumber": "EE130X",
    "flightNumber": "SQ 106",
    "url": "ajax/sqc-booking-upcoming-flight-03.json",
    "departureDate": "25 Feb 2015",
    "from": {
      "name": "San Francisco",
      "code": "SFO"
    },
    "to": {
      "name": "Singapore",
      "code": "SIN"
    },
    "passengers": ["Peter Lim", "Dennis Wong", "David Lee", "Simon Yao", "Eve Tan", "Jasmine Sim", "Thomas Tan", "Fiona Ong", "Prentice Porter"]
  },
  {
    "referenceNumber": "EE133X",
    "flightNumber": "SQ 105",
    "url": "ajax/sqc-booking-upcoming-flight-01.json",
    "departureDate": "25 Feb 2015",
    "from": {
      "name": "San Francisco",
      "code": "SFO"
    },
    "to": {
      "name": "Singapore",
      "code": "SIN"
    },
    "passengers": ["Peter Lim", "Dennis Wong", "David Lee", "Simon Yao", "Eve Tan", "Jasmine Sim", "Thomas Tan", "Fiona Ong", "Prentice Porter"]
  },
  {
    "referenceNumber": "EE132X",
    "flightNumber": "SQ 104",
    "url": "ajax/sqc-booking-upcoming-flight-03.json",
    "departureDate": "25 Feb 2015",
    "from": {
      "name": "San Francisco",
      "code": "SFO"
    },
    "to": {
      "name": "Singapore",
      "code": "SIN"
    },
    "passengers": ["Peter Lim", "Dennis Wong", "David Lee", "Simon Yao", "Eve Tan", "Jasmine Sim", "Thomas Tan", "Fiona Ong", "Prentice Porter"]
  },
  {
    "referenceNumber": "EE131X",
    "flightNumber": "SQ 103",
    "url": "ajax/sqc-booking-upcoming-flight-02.json",
    "departureDate": "25 Feb 2015",
    "from": {
      "name": "San Francisco",
      "code": "SFO"
    },
    "to": {
      "name": "Singapore",
      "code": "SIN"
    },
    "passengers": ["Peter Lim", "Dennis Wong", "David Lee", "Simon Yao", "Eve Tan", "Jasmine Sim", "Thomas Tan", "Fiona Ong", "Prentice Porter"]
  },
  {
    "referenceNumber": "EE130X",
    "flightNumber": "SQ 106",
    "url": "ajax/sqc-booking-upcoming-flight-03.json",
    "departureDate": "25 Feb 2015",
    "from": {
      "name": "San Francisco",
      "code": "SFO"
    },
    "to": {
      "name": "Singapore",
      "code": "SIN"
    },
    "passengers": ["Peter Lim", "Dennis Wong", "David Lee", "Simon Yao", "Eve Tan", "Jasmine Sim", "Thomas Tan", "Fiona Ong", "Prentice Porter"]
  }
]