{
  "title": "Ms",
  "firstName": "Nyuen Hee",
  "lastName": "Yap",
  "paxType": "ADT",
  "gender": "F",
  "kfNumber": "8700029298",
  "dob": "Jun 30, 1960 12:00:00 AM",
  "passportNumber": "E0172833B",
  "passportExpiryDate": "Oct 26, 2012 12:00:00 AM",
  "nationality": "SG",
  "countryOfResidence": "SG",
  "nomineeList": [
    {
      "title": "Mr",
      "firstName": "Sin Chin",
      "lastName": "Tey",
      "paxType": "ADT",
      "gender": "M",
      "kfNumber": "8000172743",
      "dob": "Sep 9, 1977 12:00:00 AM",
      "passportNumber": "232323234",
      "passportExpiryDate": "Oct 4, 2015 12:00:00 AM",
      "passportCountryOfIssuance": "SG"
    },
    {
      "title": "Mrs",
      "firstName": "Sun",
      "lastName": "Tao",
      "paxType": "ADT",
      "gender": "F",
      "dob": "Dec 21, 1986 12:00:00 AM",
      "passportNumber": "F7836483",
      "passportCountryOfIssuance": "SG"
    }
  ],
  "email": "saa_devmail@sqdev.com.sg",
  "phoneNumber": {
    "countryCode": "65",
    "phoneNumber": "123456789"
  },
  "offpList": []
}