{
  "locale": "en_UK",
  "ErrorVO": {},
  "MealVO": {
    "passengerAndMealAssociationVO": [
      {
        "passengerName": "PAX TEST",
        "passengerId": 2,
        "passengerType": "ADT",
        "flightDateInformationVO": [
          {
            "departureDate": "2015-07-10",
            "departureTime": "20:15:0",
            "departureCityCode": "SIN",
            "arrivalCityCode": "SYD",
            "marketingAirlineCode": "SQ",
            "flightNumber": "221",
            "classOfService": "ECONOMY",
            "selected": "true",
            "SectorMealSelectedInfo": [
              {
                "origin": "SIN",
                "destination": "SYD",
                "departureDate": "2015-07-10",
                "departureTime": "20:15:0",
                "type": "Dinner/Continental breakfast",
                "mealServiceCode": "DINR/CBRK",
                "categoryName": "VEGETARIAN MEALS",
                "mealCategoryCode": "VG",
                "Name": "Vegetarian Indian Meal",
                "iataMealCode": "AVML"
              }
            ]
          }
        ]
      }
    ],
    "passengerStartingPoint": "1"
  },
  "segmentMealVO": {
    "sectorMealListInformationVO": [
      {
        "departureDate": "2015-07-10",
        "departureTime": "20:15:0",
        "departureCityCode": "SIN",
        "arrivalCityCode": "SYD",
        "marketingAirlineCode": "SQ",
        "flightNumber": "221",
        "classOfService": "ECONOMY",
        "selected": "true",
        "mealService": [
          {
            "origin": "SIN",
            "destination": "SYD",
            "departureDate": "2015-07-10",
            "departureTime": "20:15:0",
            "type": "Dinner/Continental breakfast",
            "code": "DINR/CBRK",
            "mealList": [
              {
                "mealCategoryCode": "CH",
                "mealCategoryName": "CHILD MEAL",
                "mealServiceList": [
                  {
                    "mealCode": "CHML",
                    "mealName": "Child meal"
                  }
                ]
              },
              {
                "mealCategoryCode": "DM",
                "mealCategoryName": "Dietry Meals locale",
                "mealServiceList": [
                  {
                    "mealCode": "SPML",
                    "mealName": "Semi fluid meal"
                  },
                  {
                    "mealCode": "NLML",
                    "mealName": "Low lactose meal"
                  },
                  {
                    "mealCode": "GFML",
                    "mealName": "Gluten intolerant meal"
                  },
                  {
                    "mealCode": "DBML",
                    "mealName": "Diabatic meal locale"
                  },
                  {
                    "mealCode": "FPML",
                    "mealName": "Fruit platter"
                  },
                  {
                    "mealCode": "SPML",
                    "mealName": "Low fibre residue meal"
                  },
                  {
                    "mealCode": "SPML",
                    "mealName": "Soft fluid meal"
                  },
                  {
                    "mealCode": "SPML",
                    "mealName": "Non strict nut free meal"
                  },
                  {
                    "mealCode": "LFML",
                    "mealName": "Low fat meal"
                  },
                  {
                    "mealCode": "LCML",
                    "mealName": "Low calorie meal"
                  },
                  {
                    "mealCode": "SPML",
                    "mealName": "Fat free meal"
                  },
                  {
                    "mealCode": "BLML",
                    "mealName": "Bland meal"
                  },
                  {
                    "mealCode": "LSML",
                    "mealName": "Low salt meal"
                  },
                  {
                    "mealCode": "SPML",
                    "mealName": "Ulcer diet"
                  },
                  {
                    "mealCode": "SPML",
                    "mealName": "Nil carbohydrate meal"
                  }
                ]
              },
              {
                "mealCategoryCode": "OT",
                "mealCategoryName": "OTHERS",
                "mealServiceList": [
                  {
                    "mealCode": "SFML",
                    "mealName": "Seafood meal"
                  }
                ]
              },
              {
                "mealCategoryCode": "RL",
                "mealCategoryName": "RELIGIOUS MEALS",
                "mealServiceList": [
                  {
                    "mealCode": "KSML",
                    "mealName": "Kosher meal"
                  },
                  {
                    "mealCode": "MOML",
                    "mealName": "Muslim meal"
                  },
                  {
                    "mealCode": "HNML",
                    "mealName": "Hindu non-vegetarian meal"
                  }
                ]
              },
              {
                "mealCategoryCode": "VG",
                "mealCategoryName": "VEGETARIAN MEALS",
                "mealServiceList": [
                  {
                    "mealCode": "VOML",
                    "mealName": "Vegetarian oriental meal"
                  },
                  {
                    "mealCode": "VGML",
                    "mealName": "Vegetarian vegan meal"
                  },
                  {
                    "mealCode": "RVML",
                    "mealName": "Vegetarian raw meal"
                  },
                  {
                    "mealCode": "AVML",
                    "mealName": "Vegetarian indian meal"
                  },
                  {
                    "mealCode": "SPML",
                    "mealName": "Vegetarian southern indian meal"
                  },
                  {
                    "mealCode": "VLML",
                    "mealName": "Vegetarian lacto-ovo meal"
                  }
                ]
              }
            ]
          }
        ],
        "segmentId": "1"
      }
    ]
  }
}
