{
  "locale": "en_UK",
  "sshList": [
    {
      "from": "Brisbane (BNE)",
      "to": "Singapore (SIN)",
      "eligible": "false",
      "hotelName": "Carlton Hotel",
      "segmentID": "1",
      "checkInDate": "Nov 12, 2015 00:11:00 AM",
      "checkOutDate": "Nov 13, 2015 00:11:00 AM",
      "roomTypes": [
        "SINGLE 1A SUPERIOR ROOM"
      ],
      "noOfRooms": "1",
      "packageInfo": "SSHSIN128260",
      "hotelImage": "/images/Promotions/SSH/Cat-C/carltonreceptionsmall.jpg"
    },
    {
      "from": "Singapore (SIN)",
      "to": "Brisbane (BNE)",
      "eligible": "false",
      "segmentID": "2",
      "roomTypes": [
        
      ]
    }
  ],
  "insuranceList": [
    {
      "category": "TRAVEL INSURANCE (AUSTRALIA)",
      "desription": "TRAVEL INSURANCE",
      "amount": "308.00",
      "eligible": "true",
      "currencyCode": "AUD"
    }
  ]
}