{

   "sshList": [

      {

         "from": "Brisbane (BNE)",

         "to": "Singapore (SIN)",

         "eligible": "false",

         "hotelName": "Carlton Hotel",

         "segmentID": "1",

         "checkInDate": "Oct 13, 2015 00:10:00 AM",

         "checkOutDate": "Oct 16, 2015 00:10:00 AM",

         "roomTypes": [

            "SINGLE 1A SUPERIOR ROOM"

         ],

         "noOfRooms": "1",

         "packageInfo": "SSHSIN128001",

         "hotelImage": "/images/Promotions/SSH/Cat-C/carltonreceptionsmall.jpg"

      },

      {

         "from": "Singapore (SIN)",

         "to": "Brisbane (BNE)",

         "eligible": "false",

         "segmentID": "2",

         "roomTypes": []

      }

   ],

   "insuranceList": [

      {

         "category": "TRAVEL INSURANCE (AUSTRALIA)",

         "desription": "TRAVEL INSURANCE",

         "amount": "117.00",

         "eligible": "true",

         "currencyCode": "AUD"

      }

   ],

   "locale": "en_UK"

}