{  
   "sshList":[  
      {  
         "from":"Singapore (SIN)",
         "to":"London (LHR)",
         "eligible":"false",
         "segmentID":"1",
         "roomTypes":[  

         ]
      },
      {  
         "from":"London (LHR)",
         "to":"Singapore (SIN)",
         "eligible":"false",
         "segmentID":"2",
         "roomTypes":[  

         ]
      }
   ],
   "insuranceList":[  
      {  
         "category":"TRAVEL INSURANCE",
         "desription":"TRAVEL INSURANCE",
         "amount":"70.00",
         "eligible":"true",
         "currencyCode":"SGD"
      }
   ],
   "locale":"en_UK"
}