{  
"locale": "en_UK",
   "bookingSummary":{
      "scenario": "ORU", 
      "adultCount":1,
      "childCount":0,
      "infantCount":0,
      "precision":0,
      "milesAllocated":0,
      "totalMilesForORB":0,
      "oldItinerary":{  
         "currency":"SGD",
         "fareTotal":2761.90,
         "taxTotal":681.90,
         "totalMilesForORB":0
      },
      "totalToBePaidMiles":0,
      "milesToBeRefunded":0,
      "flight":[  
         {  
            "totalTravelTime":"13hrs 25mins",
            "origin":"Singapore",
            "destination":"London",
            "flightSegments":[  
               {  
                  "carrierCode":"SQ",
                  "airCraftType":"Airbus Industrie A380-800",
                  "flightNumber":"322",
                  "cabinClassDesc":"Business",
                  "deparure":{  
                     "time":"23:30",
                     "date":"16 Jun (Tue)",
                     "airportCode":"SIN",
                     "airportName":"Changi Intl",
                     "cityCode":"SIN",
                     "cityName":"Singapore",
                     "terminal":"3"
                  },
                  "arrival":{  
                     "time":"05:55",
                     "date":"17 Jun (Wed)",
                     "airportCode":"LHR",
                     "airportName":"Heathrow",
                     "cityCode":"LON",
                     "cityName":"London",
                     "terminal":"2"
                  }
               }
            ]
         }
      ],
      "paxDetails":[  
         {  
            "paxType":"ADT",
            "id":1,
            "paxName":"THREE TESTA",
            "detailsPerFlight":[  
               {  
                  "flightNo":"SQ322",
                  "from":"SIN",
                  "to":"LHR",
                  "departureDate":"Tue Jun 16 23:30:00 IST 2015"
               },
               {  
                  "flightNo":"SQ317",
                  "from":"LHR",
                  "to":"SIN",
                  "departureDate":"Fri Jun 26 11:30:00 IST 2015"
               }
            ]
         }
      ]
   },
   "oruUpgradeJsonVO":{  
      "totMilesForORU":"187000",
      "topUpCashForORU":"4684.08",
      "currencyCode":"SGD",
      "chargeRate":"40.0",
      "milesPerUnit":"1000",
      "additionalMiles":"87000",
      "currencyConverter":{  
         "fromCurrencyCode":"USD",
         "fromAmount":"3480.0",
         "toCurrencyCode":"SGD",
         "toAmount":"4684.08",
         "toExchangeRate":"1.346",
         "callERetail":false
      }
   }
}