{
  "bookingSummary": {
    "locale": "en_UK",
    "scenario": "Cancel",
    "adultCount": 1,
    "childCount": 1,
    "infantCount": 0,
    "precision": 2,
    "currency": "SGD",
    "fareSubTotal": 0.00,
    "grandTotal": 0.00,
    "costPayableByCash": 0.00,
    "costPayableByMiles": 0.00,
    "milesAllocated": 0,
    "totalMilesForORB": 0,
    "addonSubTotal": 0.00,
    "oldItinerary": {
      "currency": "SGD",
      "fareTotal": 1925.00,
      "taxTotal": 831.60,
      "costPaidByCash": 400,
      "costPaidByMiles": 270284,
      "totalMilesForORB": 0
    },
    "totalToBePaidMiles": 0,
    "cashToBeRefunded": 250.00,
    "milesToBeRefunded": 0,
    "cancellationFeeCash": 150.00,
    "cancellationFeeMiles": 0,
    "flight": [
      {
        "origin": "Singapore",
        "destination": "Sydney",
        "flightSegments": [
          {
            "carrierCode": "SQ",
            "airCraftType": "Airbus Industrie A380-800",
            "flightNumber": "231",
            "cabinClassDesc": "Economy(E)",
            "deparure": {
              "time": "00:45",
              "date": "11 Jul (Sat)",
              "airportCode": "SIN",
              "airportName": "Changi Intl",
              "cityCode": "SIN",
              "cityName": "Singapore",
              "terminal": "3"
            },
            "arrival": {
              "time": "10:25",
              "date": "11 Jul (Sat)",
              "airportCode": "SYD",
              "airportName": "Kingsford Smith",
              "cityCode": "SYD",
              "cityName": "Sydney"
            }
          }
        ]
      },
      {
        "origin": "Sydney",
        "destination": "Singapore",
        "flightSegments": [
          {
            "carrierCode": "SQ",
            "airCraftType": "Airbus Industrie A380-800",
            "flightNumber": "222",
            "cabinClassDesc": "Economy(E)",
            "deparure": {
              "time": "15:10",
              "date": "17 Jul (Fri)",
              "airportCode": "SYD",
              "airportName": "Kingsford Smith",
              "cityCode": "SYD",
              "cityName": "Sydney",
              "terminal": "1"
            },
            "arrival": {
              "time": "21:30",
              "date": "17 Jul (Fri)",
              "airportCode": "SIN",
              "airportName": "Changi Intl",
              "cityCode": "SIN",
              "cityName": "Singapore"
            }
          }
        ]
      }
    ],
    "paxDetails": [
      {
        "paxType": "Adult",
        "id": 1,
        "paxName": "Dr THREE TURBOTESTTHREE",
        "detailsPerFlight": [
          {
            "flightNo": "SQ231",
            "from": "SIN",
            "to": "SYD",
            "departureDate": "Sat Jul 11 00:45:00 IST 2015"
          },
          {
            "flightNo": "SQ222",
            "from": "SYD",
            "to": "SIN",
            "departureDate": "Fri Jul 17 15:10:00 IST 2015"
          }
        ]
      },
      {
        "paxType": "Child",
        "id": 2,
        "paxName": "Miss TEST ONE",
        "detailsPerFlight": [
          {
            "flightNo": "SQ231",
            "from": "SIN",
            "to": "SYD",
            "departureDate": "Sat Jul 11 00:45:00 IST 2015"
          },
          {
            "flightNo": "SQ222",
            "from": "SYD",
            "to": "SIN",
            "departureDate": "Fri Jul 17 15:10:00 IST 2015"
          }
        ]
      }
    ]
  }
}
