﻿{
  "bookingSummary":
    {
      "locale": "ja_JP",
      "scenario": "Cancel",
      "adultCount": 2,
      "childCount": 1,
      "infantCount": 0,
      "precision": 2,
      "currency": "JPY",
      "fareSubTotal": 0.00,
      "grandTotal": 0.00,
      "costPayableByCash": 0.00,
      "costPayableByMiles": 0.00,
      "milesAllocated": 0,
      "totalMilesForORB": 0,
      "addonSubTotal": 0.00,
      "oldItinerary": {
        "currency": "JPY",
        "fareTotal": "220,000",
        "taxTotal": "53,970",
        "totalMilesForORB": 0
      },
      "totalToBePaidMiles": 0,
      "cashToBeRefunded": "228,970",
      "milesToBeRefunded": 0,
      "cancellationFeeCash": "45,000",
      "flight": [
        {
          "origin": "Tokyo",
          "destination": "Singapore",
          "flightSegments": [
            {
              "carrierCode": "SQ",
              "airCraftType": "Boeing 777-200/200ER",
              "flightNumber": "631",
              "cabinClassDesc": "Economy(E)",
              "deparure": {
                "time": "08:50",
                "date": "12 Nov (Thu)",
                "airportCode": "HND",
                "airportName": "羽田",
                "cityCode": "HND",
                "cityName": "Tokyo",
                "terminal": "I"
              },
              "arrival": {
                "time": "15:15",
                "date": "12 Nov (Thu)",
                "airportCode": "SIN",
                "airportName": "チャンギ国際空港",
                "cityCode": "SIN",
                "cityName": "Singapore"
              }
            }
          ]
        },
        {
          "origin": "Singapore",
          "destination": "Tokyo",
          "flightSegments": [
            {
              "carrierCode": "SQ",
              "airCraftType": "Boeing 777-200/200ER",
              "flightNumber": "632",
              "cabinClassDesc": "Economy(E)",
              "deparure": {
                "time": "08:05",
                "date": "20 Nov (Fri)",
                "airportCode": "SIN",
                "airportName": "チャンギ国際空港",
                "cityCode": "SIN",
                "cityName": "Singapore",
                "terminal": "3"
              },
              "arrival": {
                "time": "15:35",
                "date": "20 Nov (Fri)",
                "airportCode": "HND",
                "airportName": "羽田",
                "cityCode": "HND",
                "cityName": "Tokyo"
              }
            }
          ]
        }
      ],
      "paxDetails": [
        {
          "paxType": "Adult",
          "id": 1,
          "paxName": "Mr PILLAI",
          "detailsPerFlight": [
            {
              "flightNo": "SQ631",
              "from": "HND",
              "to": "SIN",
              "departureDate": "Thu Nov 12 08:50:00 IST 2015"
            },
            {
              "flightNo": "SQ632",
              "from": "SIN",
              "to": "HND",
              "departureDate": "Fri Nov 20 08:05:00 IST 2015"
            }
          ]
        },
        {
          "paxType": "Adult",
          "id": 2,
          "paxName": "Miss ANILA",
          "detailsPerFlight": [
            {
              "flightNo": "SQ631",
              "from": "HND",
              "to": "SIN",
              "departureDate": "Thu Nov 12 08:50:00 IST 2015"
            },
            {
              "flightNo": "SQ632",
              "from": "SIN",
              "to": "HND",
              "departureDate": "Fri Nov 20 08:05:00 IST 2015"
            }
          ]
        },
        {
          "paxType": "Child",
          "id": 3,
          "paxName": "Mstr NEERAJ",
          "detailsPerFlight": [
            {
              "flightNo": "SQ631",
              "from": "HND",
              "to": "SIN",
              "departureDate": "Thu Nov 12 08:50:00 IST 2015"
            },
            {
              "flightNo": "SQ632",
              "from": "SIN",
              "to": "HND",
              "departureDate": "Fri Nov 20 08:05:00 IST 2015"
            }
          ]
        }
      ]
    }
}
