{
  "fareFamilyCondition": [
    {
      "isAllowed": false,
      "description": "FF81SIN"
    }
  ],
  "fareAvailablityVO": {
    "messages": {
      "O2FF81SIN": " ",
      "R1FF81SIN": " ",
      "R3FF81SIN": " ",
      "O3FF81SIN": " ",
      "O1FF81SIN": " ",
      "R0FF81SIN": " ",
      "R2FF81SIN": " ",
      "O0FF81SIN": " "
    },
    "packageVO": {
      "type": "ATC",
      "currencyCode": "GBP",
      "fare": 13600.00,
      "tax": 415.10,
      "surcharge": 486.40,
      "total": 14501.50
    },
    "defaults": [
      "O0FF81SIN",
      "R0FF81SIN"
    ]
  },
  "bookingSummary": {
    "adultCount": 1,
    "childCount": 0,
    "infantCount": 0,
    "precision": 2,
    "currency": "GBP",
    "fareTotal": 13600.00,
    "taxTotal": 415.10,
    "surchargeTotal": 486.40,
    "fareSubTotal": 14501.50,
    "grandTotal": 14501.50,
    "milesAllocated": 0,
    "totalMilesForORB": 0,
    "rebookingFee": 68.0,
    "totalToBePaidCash": 12401.8,
    "totalToBePaidMiles": 0,
    "milesToBeRefunded": 0,
    "oldItinerary": {
      "currency": "GBP",
      "fareTotal": 2099.7,
      "totalMilesForORB": 0
    },
    "locale": "en_UK",
    "scenario": "ATC",
    "flight": [
      {
        "totalTravelTime": "13hrs 30mins",
        "origin": "Singapore",
        "destination": "London",
        "flightSegments": [
          {
            "carrierCode": "SQ",
            "airCraftType": "Boeing 777-300ER",
            "flightNumber": "318",
            "cabinClassDesc": "FIRST(A)",
            "deparure": {
              "time": "12:35",
              "date": "27 Jun (Sat)",
              "airportCode": "SIN",
              "airportName": "Changi Intl",
              "cityCode": "SIN",
              "cityName": "Singapore",
              "terminal": "3"
            },
            "arrival": {
              "time": "19:05",
              "date": "27 Jun (Sat)",
              "airportCode": "LHR",
              "airportName": "Heathrow",
              "cityCode": "LON",
              "cityName": "London",
              "terminal": "2"
            }
          }
        ]
      },
      {
        "totalTravelTime": "12hrs 50mins",
        "origin": "London",
        "destination": "Singapore",
        "flightSegments": [
          {
            "carrierCode": "SQ",
            "airCraftType": "Boeing 777-300ER",
            "flightNumber": "319",
            "cabinClassDesc": "FIRST(A)",
            "deparure": {
              "time": "20:40",
              "date": "09 Jul (Thu)",
              "airportCode": "LHR",
              "airportName": "Heathrow",
              "cityCode": "LON",
              "cityName": "London",
              "terminal": "2"
            },
            "arrival": {
              "time": "16:30",
              "date": "10 Jul (Fri)",
              "airportCode": "SIN",
              "airportName": "Changi Intl",
              "cityCode": "SIN",
              "cityName": "Singapore"
            }
          }
        ]
      }
    ],
    "paxDetails": [
      {
        "paxType": "Adult",
        "id": 0,
        "paxName": "Mr Anoop Krishnan",
        "fareDetails": {
          "totalCost": 14501.50,
          "totalMiles": 0,
          "fareAmount": 13600.00,
          "taxAmount": 415.10,
          "surchargeAmount": 486.40,
          "surcharge": [
            {
              "amount": 13.60,
              "code": "YQAD",
              "description": "Airline Insurance"
            },
            {
              "amount": 472.80,
              "code": "YQAC",
              "description": "Airline Fuel Surcharge"
            }
          ],
          "taxes": [
            {
              "amount": 87.10,
              "code": "UB",
              "description": "Passenger Service Charge - (Domestic/International)"
            },
            {
              "amount": 19.90,
              "code": "SG",
              "description": "Passenger Service and Security Charge"
            },
            {
              "amount": 6.10,
              "code": "OP",
              "description": "Aviation Levy"
            },
            {
              "amount": 8.00,
              "code": "OO",
              "description": "Passenger Security Service Charge"
            },
            {
              "amount": 294.00,
              "code": "GB",
              "description": "Air Passenger Duty (APD) (Domestic/International)"
            }
          ]
        },
        "detailsPerFlight": [
          {
            "flightNo": "SQ318",
            "from": "SIN",
            "to": "LON",
            "departureDate": "Sat Jun 27 12:35:00 IST 2015"
          },
          {
            "flightNo": "SQ319",
            "from": "LON",
            "to": "SIN",
            "departureDate": "Thu Jul 09 20:40:00 IST 2015"
          }
        ]
      }
    ]
  }
}