{
  "locale": "pt_BR",
  "excessBaggage": [
    {
      "id": 2,
      "paxName": "ADFQSDF ASDFAS",
      "paxType": "ADT",
      "segmentDetails": [
        {
          "flightNo": "SQ 890",
          "from": "SIN",
          "to": "HKG",
          "segmentID": 1,
          "eligible": "true",
          "baggageDetails": [
            {
              "baggageType": "free",
              "name": "30kg"
            }
          ],
          "fromCityName": "Singapura",
          "toCityName": "Hong Kong"
        },
        {
          "flightNo": "SQ 1",
          "from": "HKG",
          "to": "SIN",
          "segmentID": 2,
          "eligible": "true",
          "baggageDetails": [
            {
              "baggageType": "free",
              "name": "30kg"
            }
          ],
          "fromCityName": "Hong Kong",
          "toCityName": "Singapura"
        }
      ]
    },
    {
      "id": 3,
      "paxName": "FRSTB LASTB",
      "paxType": "ADT",
      "segmentDetails": [
        {
          "flightNo": "SQ 890",
          "from": "SIN",
          "to": "HKG",
          "segmentID": 1,
          "eligible": "true",
          "baggageDetails": [
            {
              "baggageType": "free",
              "name": "30kg"
            }
          ],
          "fromCityName": "Singapura",
          "toCityName": "Hong Kong"
        },
        {
          "flightNo": "SQ 1",
          "from": "HKG",
          "to": "SIN",
          "segmentID": 2,
          "eligible": "true",
          "baggageDetails": [
            {
              "baggageType": "free",
              "name": "30kg"
            }
          ],
          "fromCityName": "Hong Kong",
          "toCityName": "Singapura"
        }
      ]
    },
    {
      "id": 4,
      "paxName": "FRSTC LASTC",
      "paxType": "ADT",
      "segmentDetails": [
        {
          "flightNo": "SQ 890",
          "from": "SIN",
          "to": "HKG",
          "segmentID": 1,
          "eligible": "true",
          "baggageDetails": [
            {
              "baggageType": "free",
              "name": "30kg"
            }
          ],
          "fromCityName": "Singapura",
          "toCityName": "Hong Kong"
        },
        {
          "flightNo": "SQ 1",
          "from": "HKG",
          "to": "SIN",
          "segmentID": 2,
          "eligible": "true",
          "baggageDetails": [
            {
              "baggageType": "free",
              "name": "30kg"
            }
          ],
          "fromCityName": "Hong Kong",
          "toCityName": "Singapura"
        }
      ]
    },
    {
      "id": 5,
      "paxName": "FRSTD LASTD",
      "paxType": "ADT",
      "segmentDetails": [
        {
          "flightNo": "SQ 890",
          "from": "SIN",
          "to": "HKG",
          "segmentID": 1,
          "eligible": "true",
          "baggageDetails": [
            {
              "baggageType": "free",
              "name": "30kg"
            }
          ],
          "fromCityName": "Singapura",
          "toCityName": "Hong Kong"
        },
        {
          "flightNo": "SQ 1",
          "from": "HKG",
          "to": "SIN",
          "segmentID": 2,
          "eligible": "true",
          "baggageDetails": [
            {
              "baggageType": "free",
              "name": "30kg"
            }
          ],
          "fromCityName": "Hong Kong",
          "toCityName": "Singapura"
        }
      ]
    }
  ]
}
