<?xml version="1.0" encoding="utf-8"?>
<!-- Generator: Adobe Illustrator 16.0.0, SVG Export Plug-In . SVG Version: 6.00 Build 0)  -->
<!DOCTYPE svg PUBLIC "-//W3C//DTD SVG 1.1//EN" "http://www.w3.org/Graphics/SVG/1.1/DTD/svg11.dtd">
<svg version="1.1" id="Layer_1" xmlns="http://www.w3.org/2000/svg" xmlns:xlink="http://www.w3.org/1999/xlink" x="0px" y="0px"
	 width="124px" height="46px" viewBox="0 0 124 46" enable-background="new 0 0 124 46" xml:space="preserve">
<g>
	<polygon fill-rule="evenodd" clip-rule="evenodd" fill="#FFFFFF" points="43.223,30.547 45.058,30.547 45.058,37.813 
		49.536,37.813 49.536,39.37 43.223,39.37 43.223,30.547 	"/>
	<polygon fill-rule="evenodd" clip-rule="evenodd" fill="#FFFFFF" points="50.945,30.547 52.766,30.547 52.766,39.37 50.945,39.37 
		50.945,30.547 	"/>
	<polygon fill-rule="evenodd" clip-rule="evenodd" fill="#FFFFFF" points="28.6,30.547 30.405,30.547 30.405,39.37 28.6,39.37 
		28.6,30.547 	"/>
	<path fill-rule="evenodd" clip-rule="evenodd" fill="#FFFFFF" d="M59.196,18.141c2.656,0,4.801,2.158,4.801,4.815
		c0,2.643-2.145,4.8-4.801,4.8c-2.657,0-4.816-2.157-4.816-4.8C54.38,20.299,56.539,18.141,59.196,18.141L59.196,18.141z"/>
	<polygon fill-rule="evenodd" clip-rule="evenodd" fill="#FFFFFF" points="65.787,30.547 72.702,30.547 72.702,31.999 
		67.623,31.999 67.623,34.157 71.939,34.157 71.939,35.759 67.623,35.759 67.623,37.901 72.702,37.901 72.702,39.37 65.787,39.37 
		65.787,30.547 	"/>
	<polygon fill-rule="evenodd" clip-rule="evenodd" fill="#FFFFFF" points="75.522,18.684 82.437,18.684 82.437,20.138 
		77.356,20.138 77.356,22.281 81.688,22.281 81.688,23.881 77.356,23.881 77.356,26.024 82.437,26.024 82.437,27.478 75.522,27.478 
		75.522,18.684 	"/>
	<path fill-rule="evenodd" clip-rule="evenodd" fill="#FFFFFF" d="M33.209,39.37v-8.823h5.242c0,0,2.525,0.043,2.525,2.568
		c0,0,0.234,2.101-1.909,2.95l2.657,3.305h-2.261l-3.67-4.58h1.909c0,0,1.365-0.03,1.365-1.41c0-1.307-1.102-1.409-1.439-1.409
		h-2.584v7.399H33.209L33.209,39.37z"/>
	<path fill-rule="evenodd" clip-rule="evenodd" fill="#FFFFFF" d="M65.465,27.478v-8.794h5.241c0,0,2.525,0.044,2.525,2.569
		c0,0,0.22,2.085-1.908,2.937l2.656,3.288h-2.26l-3.671-4.551h1.908c0,0,1.366-0.029,1.366-1.409c0-1.321-1.102-1.409-1.439-1.409
		H67.3v7.369H65.465L65.465,27.478z"/>
	<path fill-rule="evenodd" clip-rule="evenodd" fill="#FFFFFF" d="M45.615,27.478v-8.794h5.139c0,0,2.569,0.176,2.569,2.731
		c0,2.539-1.865,3.127-2.789,3.127h-2.071l-0.983-1.337v4.272H45.615L45.615,27.478z"/>
	<polygon fill-rule="evenodd" clip-rule="evenodd" fill="#FFFFFF" points="16.958,39.37 21.156,30.547 23.153,30.547 27.278,39.37 
		25.252,39.37 24.136,36.785 20.07,36.785 18.925,39.37 16.958,39.37 	"/>
	<polygon fill-rule="evenodd" clip-rule="evenodd" fill="#FFFFFF" points="34.149,27.478 38.333,18.684 40.345,18.684 44.47,27.478 
		42.43,27.478 41.329,24.909 37.262,24.909 36.117,27.478 34.149,27.478 	"/>
	<path fill-rule="evenodd" clip-rule="evenodd" fill="#FFFFFF" d="M28.732,25.951h2.481v-4.037h1.761v5.563H28.35
		c-0.69,0-4.023-0.778-4.052-4.286c-0.029-3.479,3.01-4.508,4.185-4.508h4.537v1.557h-4.096c0,0-2.746,0-2.746,2.892
		C26.177,25.378,28.453,25.951,28.732,25.951L28.732,25.951z"/>
	<path fill-rule="evenodd" clip-rule="evenodd" fill="#FFFFFF" d="M55.158,30.547h1.85v1.364l1.16-1.364h2.188
		c0,0,2.994-0.163,2.994,3.038v5.785h-1.864v-6.063c0,0-0.06-1.204-1.321-1.204h-3.157v7.268h-1.85V30.547L55.158,30.547z"/>
	<path fill-rule="evenodd" clip-rule="evenodd" fill="#FFFFFF" d="M14.432,18.684h1.835v1.351l1.159-1.351h2.188
		c0,0,3.009-0.161,3.009,3.039v5.755H20.76v-6.033c0,0-0.073-1.204-1.336-1.204h-3.156v7.237h-1.835V18.684L14.432,18.684z"/>
	<polygon fill-rule="evenodd" clip-rule="evenodd" fill="#FFFFFF" points="10.086,18.684 11.892,18.684 11.892,27.478 
		10.086,27.478 10.086,18.684 	"/>
	<path fill-rule="evenodd" clip-rule="evenodd" fill="#FFFFFF" d="M74.715,39.355v-1.498h5.108c0,0,1.013,0.191,1.013-1.042
		s-0.763-1.101-1.042-1.101h-2.951c0,0-2.275,0.161-2.275-2.511c0-2.657,2.246-2.657,2.246-2.657h5.608v1.556h-4.918
		c0,0-1.071,0-1.071,1.013s0.719,1.204,1.395,1.204h2.628c0,0,2.217-0.235,2.217,2.408c0,2.643-2.275,2.628-2.275,2.628H74.715
		L74.715,39.355z"/>
	<path fill-rule="evenodd" clip-rule="evenodd" fill="#FFFFFF" d="M0.191,27.478v-1.498H5.3c0,0,1.013,0.192,1.013-1.041
		s-0.763-1.102-1.042-1.102H2.319c0,0-2.275,0.162-2.275-2.495c0-2.673,2.246-2.658,2.246-2.658h5.608v1.557H2.98
		c0,0-1.072,0-1.072,1.013c0,1.014,0.734,1.204,1.395,1.204h2.628c0,0,2.217-0.234,2.217,2.393c0,2.644-2.276,2.628-2.276,2.628
		H0.191L0.191,27.478z"/>
	<polygon fill-rule="evenodd" clip-rule="evenodd" fill="#F99F1C" points="0,43.084 85.843,43.084 84.14,45.741 0,45.741 0,43.084 	
		"/>
	<path fill-rule="evenodd" clip-rule="evenodd" fill="#F99F1C" d="M101.479,41.88h-3.156l6.371-10.056c0,0,0.955-2.085-0.293-4.287
		l-8.883-14.711c0,0-0.777-1.365,0-2.672l2.628-3.936L108.57,23.25c0,0,2.687,3.567-0.235,7.985L101.479,41.88L101.479,41.88z"/>
	<path fill-rule="evenodd" clip-rule="evenodd" fill="#F99F1C" d="M109.099,38.797l3.876-5.902c0,0,1.13-2.436,4.052-2.436h4.11
		L124,34.979c0,0-2.261-0.233-3.274,1.381l-4.228,6.371c0,0-1.38,2.98-5.065,2.98H91.524l7.576-11.628c0,0,1.071-1.365-0.426-3.625
		l-6.739-10.835c0,0-1.659-1.601,0.059-4.347l1.968-2.98l9.367,15.181c0,0,1.658,2.085,0,4.581l-7.033,10.966h14.828
		c0,0,1.674,0.31,3.112-1.834l3.686-5.668c0,0,0.837-1.908,2.687-2.686h-2.98c0,0-1.556,0.058-2.745,1.909l-3.274,5.063
		c0,0-1.189,2.145-3.816,2.145h-5.184l6.255-9.705c0,0,3.406-4.478,1.014-8.588L99.512,6.513c0,0-0.778-1.482,0.117-2.862
		l2.261-3.392l11.804,19.013c0,0,1.732,2.848,1.732,5.05c0,2.201-1.38,4.698-2.144,5.961l-5.197,8.104c0,0-0.587,0.777-0.176,1.072
		C108.335,39.752,108.746,39.223,109.099,38.797L109.099,38.797z"/>
	<path fill-rule="evenodd" clip-rule="evenodd" fill="#232F67" d="M59.196,19.902c1.674,0,3.054,1.365,3.054,3.054
		c0,1.659-1.38,3.039-3.054,3.039c-1.688,0-3.054-1.38-3.054-3.039C56.142,21.268,57.508,19.902,59.196,19.902L59.196,19.902z"/>
	<path fill-rule="evenodd" clip-rule="evenodd" fill="#232F67" d="M47.451,22.927v-2.893h2.452c0,0,1.645-0.088,1.645,1.483
		c0,1.38-1.336,1.409-1.645,1.409C50.211,22.927,47.451,22.927,47.451,22.927L47.451,22.927z"/>
	<polygon fill-rule="evenodd" clip-rule="evenodd" fill="#232F67" points="40.683,23.396 39.317,20.27 37.922,23.396 40.683,23.396 
			"/>
	<polygon fill-rule="evenodd" clip-rule="evenodd" fill="#232F67" points="23.49,35.288 22.14,32.132 20.745,35.288 23.49,35.288 	
		"/>
</g>
</svg>
