<?xml version="1.0" encoding="utf-8"?>
<!-- Generator: Adobe Illustrator 20.0.0, SVG Export Plug-In . SVG Version: 6.00 Build 0)  -->
<svg width="124" height="46"  version="1.0" id="Layer_1" xmlns="http://www.w3.org/2000/svg" xmlns:xlink="http://www.w3.org/1999/xlink" x="0px" y="0px"
	 viewBox="0 0 124 46" style="enable-background:new 0 0 124 46;" xml:space="preserve">
<style type="text/css">
	.st0{fill:#F99D1C;}
	.st1{fill-rule:evenodd;clip-rule:evenodd;fill:#02205F;}
	.st2{fill:#02205F;}
</style>
<g>
	<g>
		<polygon class="st0" points="0,43.2 0,45.2 85.4,45.2 86.8,43.2 		"/>
		<g>
			<path class="st0" d="M98.3,41.4c0,0,5.9-8.9,6.5-9.7c0.7-1.1,0.7-2.8,0.1-3.7c-0.3-0.5-9.1-14.5-9.1-14.5
				c-0.8-1.5-0.6-2.5-0.1-3.3C96.5,8.9,98,6.7,98,6.7s10.7,16.8,11.2,17.6c1.2,1.9,0.8,3.8-0.1,5.4c-0.8,1.4-7.7,11.7-7.7,11.7H98.3
				z"/>
			<path class="st0" d="M96.4,42.3c0,0,6.9-10,7.4-10.9c0.6-1,0.5-2.4,0-3.3c-0.3-0.5-9.8-15.4-9.8-15.4s-1.7,2.5-2.2,3.3
				c-0.5,0.8-0.8,1.8,0.1,3.3c0,0,6.8,10.8,7.1,11.2c0.6,0.9,0.5,2.5-0.1,3.5c-0.5,0.8-7.5,11.1-7.5,11.1s18.3,0,20.3,0
				c2.1,0,3.2-0.8,4.2-2.2c0.9-1.2,4.2-6.1,4.7-6.8c0.5-0.8,1.5-1.3,2-1.3c0.5,0,1.6,0,1.6,0l-3.1-4.7c0,0-4,0-4.9,0
				c-0.9,0-2.1,0.8-2.7,1.7c-0.5,0.7-3.8,5.8-4.5,6.6c-0.3,0.5-0.6,0.6-0.9,0.6c-0.2,0-0.6,0-0.6,0c0.2-0.4,5.9-8.7,7-10.5
				c1.3-2.2,1.7-5.2,0-8c-0.6-1-12.4-19.6-12.4-19.6s-1.6,2.3-2.2,3.2c-0.5,0.8-0.7,1.8,0.1,3.3c0,0,9.9,15.7,10.4,16.5
				c1.1,1.8,1,4.2,0,5.8c-0.8,1.3-7.7,11.7-7.7,11.7s5,0,5.4,0c2,0,2.4-0.7,3-1.3c0.5-0.6,3.5-5.1,3.8-5.5c0.3-0.5,1.2-1.8,2.3-1.8
				c0.6,0,3.6,0,3.6,0v0.1c-0.8,0.2-1.5,0.6-2,1.4c-0.5,0.7-4.1,6-4.5,6.6c-0.5,0.8-1.2,1.5-2.7,1.5C110.4,42.3,96.4,42.3,96.4,42.3
				z"/>
		</g>
	</g>
	<g>
		<rect x="50.8" y="29.9" class="st1" width="1.9" height="8.7"/>
		<polygon class="st2" points="49.5,38.7 49.5,37.1 45,37.1 45,29.9 43.1,29.9 43.1,38.7 45,38.7 		"/>
		<path class="st2" d="M20,36.1l4.1,0l1.1,2.5h2.1L23,29.9h-2l-4.3,8.7h2.1L20,36.1z M22,31.4l1.4,3.2l-2.8,0L22,31.4z"/>
		<path class="st2" d="M35,31.5h3c0.7,0,1.2,0.7,1.2,1.3c0,0.6-0.4,1.3-1.2,1.3h-2.4l3.8,4.6h2.3l-2.7-3.3h0C40.2,35,41,34,41,32.7
			c0-1.5-1.2-2.8-2.9-2.8h-5v8.7H35V31.5z"/>
		<rect x="28.6" y="29.9" class="st1" width="1.9" height="8.7"/>
		<path class="st2" d="M77.3,35.1c0.9,0,2.5,0,2.5,0c0.6,0,0.9,0.3,0.9,1c0,0.6-0.4,1-0.9,1c0,0-4.4,0-5.3,0v1.6c0,0,4.2,0,5.1,0
			c2,0,3-1.3,3-2.6c0-1.3-1-2.6-3-2.6c-0.9,0-2.5,0-2.5,0c-0.5,0-0.9-0.3-0.9-0.9c0-0.6,0.4-0.9,0.9-0.9c0,0,4.5,0,5.3,0v-1.6
			c0,0-4.2,0-5.1,0c-2,0-2.9,1.2-2.9,2.6C74.4,34,75.4,35.1,77.3,35.1z"/>
		<polygon class="st2" points="72.5,38.7 72.5,37.1 67.4,37.1 67.4,34.8 71.9,34.8 71.9,33.2 67.4,33.2 67.4,31.5 72.5,31.5
			72.5,29.9 65.5,29.9 65.5,38.7 67.4,38.7 		"/>
		<path class="st2" d="M57,31.5c0,0,2.8,0,3.2,0c0.8,0,1.3,0.7,1.3,1.4v5.8h1.9v-6c0-1.5-1.1-2.7-2.8-2.7c-1.2,0-2.5,0-2.5,0
			L57,31.4v0v-1.5h-1.9v8.7H57V31.5z"/>
	</g>
	<g>
		<path class="st2" d="M2.9,24.2c0.9,0,2.5,0,2.5,0c0.6,0,0.9,0.3,0.9,1c0,0.6-0.4,1-0.9,1c0,0-4.5,0-5.3,0v1.6c0,0,4.3,0,5.1,0
			c2,0,3-1.3,3-2.6c0-1.3-1-2.6-3-2.6c-0.9,0-2.5,0-2.5,0c-0.5,0-0.9-0.3-0.9-0.9c0-0.6,0.4-0.9,0.9-0.9c0,0,4.5,0,5.3,0V19
			c0,0-4.2,0-5.1,0C1,19,0,20.1,0,21.6C0,23,1,24.2,2.9,24.2z"/>
		<path class="st2" d="M29.2,27.7c1.4,0,3.9,0,3.9,0V22h-1.9v4c-2,0-2.2,0-2.2,0c-1.6,0-2.7-0.9-2.7-2.7c0-1.8,1.1-2.7,2.7-2.7
			c0,0,3.9,0,4.2,0V19c0,0-2.5,0-3.9,0c-3.3,0-4.9,2.4-4.9,4.4C24.3,25.4,25.9,27.7,29.2,27.7z"/>
		<rect x="10.1" y="19" class="st1" width="1.9" height="8.7"/>
		<path class="st2" d="M16.3,20.6c0,0,2.8,0,3.2,0c0.8,0,1.3,0.7,1.3,1.4v5.8h1.9v-6c0-1.5-1.1-2.7-2.8-2.7c-1.2,0-2.5,0-2.5,0
			l-1.1,1.5v0V19h-1.9v8.7h1.9V20.6z"/>
		<path class="st2" d="M67.3,20.6h3c0.7,0,1.2,0.7,1.2,1.3c0,0.6-0.4,1.3-1.2,1.3h-2.4l3.8,4.6H74l-2.7-3.3h0
			c1.2-0.4,1.9-1.4,1.9-2.7c0-1.5-1.2-2.8-2.9-2.8h-5v8.7h1.9V20.6z"/>
		<polygon class="st2" points="82.4,27.7 82.4,26.1 77.3,26.1 77.3,23.9 81.8,23.9 81.8,22.3 77.3,22.3 77.3,20.6 82.4,20.6
			82.4,19 75.4,19 75.4,27.7 77.3,27.7 		"/>
		<path class="st2" d="M37.3,25.2l4.1,0l1.1,2.5h2.1L40.4,19h-2l-4.3,8.7h2.1L37.3,25.2z M39.4,20.5l1.4,3.2l-2.8,0L39.4,20.5z"/>
		<path class="st2" d="M47.5,23.5L47.5,23.5l1.1,1.5c0,0,0.9,0,2,0c1.6,0,2.8-1.4,2.8-3c0-1.6-1.2-3-2.8-3h-5v8.7h1.9V23.5z
			 M47.5,20.6h3c0.7,0,1.2,0.7,1.2,1.4c0,0.7-0.4,1.4-1.2,1.4c-0.3,0-3,0-3,0V20.6z"/>
		<path class="st2" d="M59.2,28.1c2.6,0,4.7-2.1,4.7-4.7c0-2.6-2.1-4.8-4.7-4.8c-2.6,0-4.7,2.1-4.7,4.8C54.5,26,56.6,28.1,59.2,28.1
			z M59.2,20.3c1.6,0,3,1.3,3,3c0,1.6-1.3,3-3,3c-1.7,0-3-1.3-3-3C56.2,21.7,57.5,20.3,59.2,20.3z"/>
	</g>
</g>
</svg>
