{
  "bookingSummary": {
    "locale": "en_UK",
    "adultCount": 2,
    "childCount": 1,
    "infantCount": 0,
    "precision": 2,
    "currency": "SGD",
    "taxTotal": 339.30,
    "surchargeTotal": 1777.20,
    "fareSubTotal": 2116.50,
    "grandTotal": 2116.50,
    "milesAllocated": 0,
    "totalMilesForORB": 178500,
    "orbQSurchargeTotal": 0.00,
    "totalToBePaidMiles": 0,
    "milesToBeRefunded": 0,
    "scenario": "ORC",
    "flight": [{
      "origin": "San Francisco",
      "destination": "Singapore",
      "flightSegments": [{
        "carrierCode": "SQ",
        "airCraftType": "Boeing 777-300ER",
        "flightNumber": "2",
        "cabinClassDesc": "Economy(X)",
        "layoverTime": "1hrs 15mins",
        "deparure": {
          "time": "18:30",
          "date": "12 Jun (Fri)",
          "airportCode": "SIN",
          "airportName": "Changi Intl",
          "cityCode": "SIN",
          "cityName": "Singapore",
          "terminal": "3"
        },
        "arrival": {
          "time": "22:15",
          "date": "12 Jun (Fri)",
          "airportCode": "HKG",
          "airportName": "Hong Kong",
          "cityCode": "HKG",
          "cityName": "Hong Kong"
        }
      }, {
        "carrierCode": "SQ",
        "airCraftType": "Boeing 777-300ER",
        "flightNumber": "2",
        "cabinClassDesc": "Economy(X)",
        "deparure": {
          "time": "23:30",
          "date": "12 Jun (Fri)",
          "airportCode": "HKG",
          "airportName": "Hong Kong",
          "cityCode": "HKG",
          "cityName": "Hong Kong"
        },
        "arrival": {
          "time": "21:15",
          "date": "12 Jun (Fri)",
          "airportCode": "SFO",
          "airportName": "San Francisco Intl",
          "cityCode": "SFO",
          "cityName": "San Francisco"
        }
      }]
    }, {
      "origin": "San Francisco",
      "destination": "Singapore",
      "flightSegments": [{
        "carrierCode": "SQ",
        "airCraftType": "Boeing 777-300ER",
        "flightNumber": "1",
        "cabinClassDesc": "Economy(X)",
        "layoverTime": "1hrs 25mins",
        "deparure": {
          "time": "01:15",
          "date": "18 Jun (Thu)",
          "airportCode": "SFO",
          "airportName": "San Francisco Intl",
          "cityCode": "SFO",
          "cityName": "San Francisco",
          "terminal": "I"
        },
        "arrival": {
          "time": "06:35",
          "date": "19 Jun (Fri)",
          "airportCode": "HKG",
          "airportName": "Hong Kong",
          "cityCode": "HKG",
          "cityName": "Hong Kong"
        }
      }, {
        "carrierCode": "SQ",
        "airCraftType": "Boeing 777-300ER",
        "flightNumber": "1",
        "cabinClassDesc": "Economy(X)",
        "deparure": {
          "time": "08:00",
          "date": "19 Jun (Fri)",
          "airportCode": "HKG",
          "airportName": "Hong Kong",
          "cityCode": "HKG",
          "cityName": "Hong Kong"
        },
        "arrival": {
          "time": "11:45",
          "date": "19 Jun (Fri)",
          "airportCode": "SIN",
          "airportName": "Changi Intl",
          "cityCode": "SIN",
          "cityName": "Singapore"
        }
      }]
    }],
    "waitListFlights": [],
    "paxDetails": [{
      "paxType": "Adult",
      "id": 2,
      "paxName": "Mrs TWO TESTA",
      "paxCategory": "Non-Nominee",
      "fareDetails": {
        "totalCost": 705.50,
        "totalMiles": 59500,
        "fareAmount": 0.00,
        "taxAmount": 113.10,
        "surchargeAmount": 592.40,
        "qSurchargeAmount": 0.00,
        "surcharge": [{
          "amount": 592.40,
          "code": "YQ",
          "description": "Airline Fuel and Insurance Surcharge"
        }],
        "taxes": [{
          "amount": 47.80,
          "code": "US",
          "description": "Transportation Tax (Domestic/International)"
        }, {
          "amount": 6.80,
          "code": "XA",
          "description": "APHIS User Fee - Passengers"
        }, {
          "amount": 19.90,
          "code": "SG",
          "description": "Passenger Service and Security Charge"
        }, {
          "amount": 9.50,
          "code": "XY",
          "description": "Immigration User Fee"
        }, {
          "amount": 7.60,
          "code": "AY",
          "description": "September 11th Security Fee"
        }, {
          "amount": 7.40,
          "code": "YC",
          "description": "Customs User Fee"
        }, {
          "amount": 6.10,
          "code": "OP",
          "description": "Aviation Levy"
        }, {
          "amount": 8.00,
          "code": "OO",
          "description": "Passenger Security Service Charge"
        }],
        "orbQSurcharge": []
      },
      "detailsPerFlight": [{
        "flightNo": "SQ2",
        "from": "SIN",
        "to": "SFO",
        "departureDate": "Fri Jun 12 18:30:00 SGT 2015"
      }, {
        "flightNo": "SQ1",
        "from": "SFO",
        "to": "SIN",
        "departureDate": "Thu Jun 18 01:15:00 SGT 2015"
      }]
    }, {
      "paxType": "Adult",
      "id": 3,
      "paxName": "Mrs ANCY JAMES",
      "paxCategory": "Non-Nominee",
      "fareDetails": {
        "totalCost": 705.50,
        "totalMiles": 59500,
        "fareAmount": 0.00,
        "taxAmount": 113.10,
        "surchargeAmount": 592.40,
        "qSurchargeAmount": 0.00,
        "surcharge": [{
          "amount": 592.40,
          "code": "YQ",
          "description": "Airline Fuel and Insurance Surcharge"
        }],
        "taxes": [{
          "amount": 47.80,
          "code": "US",
          "description": "Transportation Tax (Domestic/International)"
        }, {
          "amount": 6.80,
          "code": "XA",
          "description": "APHIS User Fee - Passengers"
        }, {
          "amount": 19.90,
          "code": "SG",
          "description": "Passenger Service and Security Charge"
        }, {
          "amount": 9.50,
          "code": "XY",
          "description": "Immigration User Fee"
        }, {
          "amount": 7.60,
          "code": "AY",
          "description": "September 11th Security Fee"
        }, {
          "amount": 7.40,
          "code": "YC",
          "description": "Customs User Fee"
        }, {
          "amount": 6.10,
          "code": "OP",
          "description": "Aviation Levy"
        }, {
          "amount": 8.00,
          "code": "OO",
          "description": "Passenger Security Service Charge"
        }],
        "orbQSurcharge": []
      },
      "detailsPerFlight": [{
        "flightNo": "SQ2",
        "from": "SIN",
        "to": "SFO",
        "departureDate": "Fri Jun 12 18:30:00 SGT 2015"
      }, {
        "flightNo": "SQ1",
        "from": "SFO",
        "to": "SIN",
        "departureDate": "Thu Jun 18 01:15:00 SGT 2015"
      }]
    }, {
      "paxType": "Child",
      "id": 4,
      "paxName": "Mr TEST MINOR",
      "paxCategory": "Non-Nominee",
      "fareDetails": {
        "totalCost": 705.50,
        "totalMiles": 59500,
        "fareAmount": 0.00,
        "taxAmount": 113.10,
        "surchargeAmount": 592.40,
        "qSurchargeAmount": 0.00,
        "surcharge": [{
          "amount": 592.40,
          "code": "YQ",
          "description": "Airline Fuel and Insurance Surcharge"
        }],
        "taxes": [{
          "amount": 47.80,
          "code": "US",
          "description": "Transportation Tax (Domestic/International)"
        }, {
          "amount": 6.80,
          "code": "XA",
          "description": "APHIS User Fee - Passengers"
        }, {
          "amount": 19.90,
          "code": "SG",
          "description": "Passenger Service and Security Charge"
        }, {
          "amount": 9.50,
          "code": "XY",
          "description": "Immigration User Fee"
        }, {
          "amount": 7.60,
          "code": "AY",
          "description": "September 11th Security Fee"
        }, {
          "amount": 7.40,
          "code": "YC",
          "description": "Customs User Fee"
        }, {
          "amount": 6.10,
          "code": "OP",
          "description": "Aviation Levy"
        }, {
          "amount": 8.00,
          "code": "OO",
          "description": "Passenger Security Service Charge"
        }],
        "orbQSurcharge": []
      },
      "detailsPerFlight": [{
        "flightNo": "SQ2",
        "from": "SIN",
        "to": "SFO",
        "departureDate": "Fri Jun 12 18:30:00 SGT 2015"
      }, {
        "flightNo": "SQ1",
        "from": "SFO",
        "to": "SIN",
        "departureDate": "Thu Jun 18 01:15:00 SGT 2015"
      }]
    }],
    "topUpMiles": {
      "currencyCode": "SGD",
      "totalAmount": 0.0,
      "additionalMiles": 0,
      "notEnoughMiles": false
    }
  }
}
