{
  "bookingSummary": {
    "locale": "ja_JP",
    "adultCount": 1,
    "childCount": 0,
    "infantCount": 0,
    "precision": 2,
    "currency": "JPY",
    "taxTotal": 2610.00,
    "surchargeTotal": 6300.00,
    "fareSubTotal": 8910.00,
    "grandTotal": 8910.00,
    "milesAllocated": 0,
    "totalMilesForORB": 19125,
    "orbQSurchargeTotal": 0.00,
    "totalToBePaidMiles": 0,
    "milesToBeRefunded": 0,
    "scenario": "ORC",
    "flight": [{
      "origin": "Singapore",
      "destination": "Tokyo",
      "flightSegments": [{
        "carrierCode": "SQ",
        "airCraftType": "Airbus Industrie A380-800",
        "flightNumber": "637",
        "cabinClassDesc": "Economy(X)",
        "deparure": {
          "time": "11:10",
          "date": "12 Jun (Fri)",
          "airportCode": "NRT",
          "airportName": "Narita",
          "cityCode": "TYO",
          "cityName": "Tokyo",
          "terminal": "1"
        },
        "arrival": {
          "time": "17:20",
          "date": "12 Jun (Fri)",
          "airportCode": "SIN",
          "airportName": "Changi Intl",
          "cityCode": "SIN",
          "cityName": "Singapore"
        }
      }]
    }],
    "waitListFlights": [],
    "paxDetails": [{
      "paxType": "Adult",
      "id": 2,
      "paxName": "Mrs TWO TESTA",
      "paxCategory": "Non-Nominee",
      "fareDetails": {
        "totalCost": 8910.00,
        "totalMiles": 19125,
        "fareAmount": 0.00,
        "taxAmount": 2610.00,
        "surchargeAmount": 6300.00,
        "qSurchargeAmount": 0.00,
        "surcharge": [{
          "amount": 6300.00,
          "code": "YQ",
          "description": "Airline Fuel and Insurance Surcharge"
        }],
        "taxes": [{
          "amount": 520.00,
          "code": "OI",
          "description": "Passenger Service and Security Charge (International)"
        }, {
          "amount": 2090.00,
          "code": "SW",
          "description": "Passenger Service Facilities Charge (International)"
        }],
        "orbQSurcharge": []
      },
      "detailsPerFlight": [{
        "flightNo": "SQ637",
        "from": "TYO",
        "to": "SIN",
        "departureDate": "Fri Jun 12 11:10:00 SGT 2015"
      }]
    }],
    "topUpMiles": {
      "currencyCode": "SGD",
      "totalAmount": 0.0,
      "additionalMiles": 0,
      "notEnoughMiles": false
    }
  }
}
