{
  "fareFamilyCondition": [
    {
      "type": "ChangeBooking",
      "isAllowed": true,
      "description": "Booking change (USD 50)"
    },
    {
      "type": "EarnMiles",
      "isAllowed": true,
      "description": "Earn KrisFlyer miles (50%)"
    },
    {
      "type": "CancelAndRefund",
      "isAllowed": false,
      "description": "Refund/Cancellation"
    },
    {
      "type": "Upgrade",
      "isAllowed": true,
      "description": "Upgrade with KrisFlyer miles on flights operated by Singapore Airlines, SilkAir and selected Star Alliance airlines (see the KrisFlyer terms and conditions)"
    }
  ],
  "fareAvailablityVO": {
    "messages": {
      "R0FF21SIN": "A few seats left",
      "O3FF21SIN": " ",
      "O1FF21SIN": " ",
      "O0FF21SIN": " ",
      "O2FF21SIN": " "
    },
    "packageVO": {
      "type": "CIB",
      "currencyCode": "SGD",
      "fare": 960.00,
      "tax": 64.30,
      "surcharge": 146.30,
      "total": 1170.60
    },
    "defaults": [
      "O0FF21SIN"
    ]
  },
  "bookingSummary": {
    "adultCount": 1,
    "childCount": 0,
    "infantCount": 0,
    "currency": "SGD",
    "fareTotal": 960.00,
    "taxTotal": 64.30,
    "surchargeTotal": 146.30,
    "fareSubTotal": 1170.60,
    "grandTotal": 1170.60,
    "milesAllocated": 0,
    "totalMilesForORB": 0,
    "flight": [
      {
        "totalTravelTime": "7hrs 55mins",
        "origin": "Singapore",
        "destination": "Sydney",
        "flightSegments": [
          {
            "carrierCode": "SQ",
            "airCraftType": "Boeing 777-300ER",
            "flightNumber": "231",
            "cabinClassDesc": "ECONOMY",
            "deparure": {
              "time": "00:45",
              "date": "13 Mar (Fri)",
              "airportCode": "SIN",
              "airportName": "Changi Intl",
              "cityCode": "SIN",
              "cityName": "Singapore",
              "terminal": "3"
            },
            "arrival": {
              "time": "11:40",
              "date": "13 Mar (Fri)",
              "airportCode": "SYD",
              "airportName": "Kingsford Smith",
              "cityCode": "SYD",
              "cityName": "Sydney",
              "terminal": "1"
            }
          }
        ]
      }
    ],
    "paxDetails": [
      {
        "paxType": "Adult",
        "id": 0,
        "paxName": "Adult 1",
        "fareDetails": {
          "totalCost": 1170.60,
          "totalMiles": 0,
          "fareAmount": 960.00,
          "taxAmount": 64.30,
          "surchargeAmount": 146.30,
          "surcharge": [
            {
              "amount": 6.80,
              "code": "YQAD",
              "description": "Airline Insurance"
            },
            {
              "amount": 139.50,
              "code": "YQAC",
              "description": "Airline Fuel Surcharge"
            }
          ],
          "taxes": [
            {
              "amount": 30.30,
              "code": "WY",
              "description": "Passenger Services Charge - Intl"
            },
            {
              "amount": 8.00,
              "code": "OO",
              "description": "Passenger Security Service Charge"
            },
            {
              "amount": 6.10,
              "code": "OP",
              "description": "Aviation Levy"
            },
            {
              "amount": 19.90,
              "code": "SG",
              "description": "Passenger Service and Security Charge"
            }
          ]
        },
        "detailsPerFlight": [
          {
            "flightNo": "SQ231",
            "from": "SIN",
            "to": "SYD",
            "departureDate": "Fri Mar 13 00:45:00 IST 2015"
          }
        ]
      }
    ]
  }
}